{"count":10000,"next":"https://www.udemy.com/api-2.0/courses/?page=7&page_size=12&price=free-paid","previous":"https://www.udemy.com/api-2.0/courses/?page=5&page_size=12&price=free-paid","results":[{"_class":"course","id":4650144,"title":"Get Ready for Coding Interview","url":"/course/get-ready-for-coding-interview/","is_paid":false,"price":"Free","price_detail":null,"price_serve_tracking_id":"LlV7XbxUQNmAozaVxI8vWA","visible_instructors":[{"_class":"user","title":"Krystyna Ślusarczyk","name":"Krystyna","display_name":"Krystyna Ślusarczyk","job_title":"Programmer with a passion for teaching","image_50x50":"https://img-b.udemycdn.com/user/50x50/35184570_c9d1_2.jpg","image_100x100":"https://img-b.udemycdn.com/user/100x100/35184570_c9d1_2.jpg","initials":"KS","url":"/user/krystyna-slusarczyk/"}],"image_125_H":"https://img-c.udemycdn.com/course/125_H/4650144_53fe.jpg","image_240x135":"https://img-c.udemycdn.com/course/240x135/4650144_53fe.jpg","is_practice_test_course":false,"image_480x270":"https://img-c.udemycdn.com/course/480x270/4650144_53fe.jpg","published_title":"get-ready-for-coding-interview","tracking_id":"","locale":{"_class":"locale","locale":"en_US","title":"English (US)","english_title":"English (US)","simple_english_title":"English"},"predictive_score":null,"relevancy_score":null,"input_features":null,"lecture_search_result":null,"curriculum_lectures":[],"order_in_results":null,"curriculum_items":[],"headline":"Prepare for your next programming interview, no matter the language or tech stack. Examples in C#.","instructor_name":null},{"_class":"course","id":3644138,"title":"Python for Beginners (2023)","url":"/course/python-for-complete-beginners-1/","is_paid":false,"price":"Free","price_detail":null,"price_serve_tracking_id":"n9eLn-X_S3CESAMG5Ie0hg","visible_instructors":[{"_class":"user","title":"AlgoSTEM Inc.","name":"AlgoSTEM","display_name":"AlgoSTEM Inc.","job_title":"Nonprofit Organization","image_50x50":"https://img-c.udemycdn.com/user/50x50/76386414_9cfc_2.jpg","image_100x100":"https://img-c.udemycdn.com/user/100x100/76386414_9cfc_2.jpg","initials":"AI","url":"/user/arushi-gupta-65/"}],"image_125_H":"https://img-c.udemycdn.com/course/125_H/3644138_0b3e_2.jpg","image_240x135":"https://img-c.udemycdn.com/course/240x135/3644138_0b3e_2.jpg","is_practice_test_course":false,"image_480x270":"https://img-c.udemycdn.com/course/480x270/3644138_0b3e_2.jpg","published_title":"python-for-complete-beginners-1","tracking_id":"","locale":{"_class":"locale","locale":"en_US","title":"English (US)","english_title":"English (US)","simple_english_title":"English"},"predictive_score":null,"relevancy_score":null,"input_features":null,"lecture_search_result":null,"curriculum_lectures":[],"order_in_results":null,"curriculum_items":[],"headline":"A beginner Python course covering all of the basics you need to know","instructor_name":null},{"_class":"course","id":742114,"title":"Introduction to Cloud Computing","url":"/course/introduction-to-cloud-computing/","is_paid":false,"price":"Free","price_detail":null,"price_serve_tracking_id":"kqUKHwzgQ3SKKpc9jEQODw","visible_instructors":[{"_class":"user","title":"Xavier Corbett","name":"Xavier","display_name":"Xavier Corbett","job_title":null,"image_50x50":"https://img-b.udemycdn.com/user/50x50/anonymous_3.png","image_100x100":"https://img-b.udemycdn.com/user/100x100/anonymous_3.png","initials":"XC","url":"/user/xaviercorbett/"}],"image_125_H":"https://img-c.udemycdn.com/course/125_H/742114_9596_3.jpg","image_240x135":"https://img-c.udemycdn.com/course/240x135/742114_9596_3.jpg","is_practice_test_course":false,"image_480x270":"https://img-c.udemycdn.com/course/480x270/742114_9596_3.jpg","published_title":"introduction-to-cloud-computing","tracking_id":"","locale":{"_class":"locale","locale":"en_US","title":"English (US)","english_title":"English (US)","simple_english_title":"English"},"predictive_score":null,"relevancy_score":null,"input_features":null,"lecture_search_result":null,"curriculum_lectures":[],"order_in_results":null,"curriculum_items":[],"headline":"Welcome to the Cloud... now, what is it?","instructor_name":null},{"_class":"course","id":4626276,"title":"Free Lean Six Sigma Introduction Course","url":"/course/lean-six-sigma-introduction-course/","is_paid":false,"price":"Free","price_detail":null,"price_serve_tracking_id":"CnnzbE1SQ_Cc0oCYD3H5LQ","visible_instructors":[{"_class":"user","id":27870418,"title":"Six Sigma Academy Amsterdam","name":"Six Sigma","display_name":"Six Sigma Academy Amsterdam","job_title":"Accredited teaching and certification by academic staff","image_50x50":"https://img-c.udemycdn.com/user/50x50/27870418_4655_13.jpg","image_100x100":"https://img-c.udemycdn.com/user/100x100/27870418_4655_13.jpg","initials":"SA","url":"/user/six-sigma-academy-amsterdam/"}],"image_125_H":"https://img-c.udemycdn.com/course/125_H/4626276_6f65_3.jpg","image_240x135":"https://img-c.udemycdn.com/course/240x135/4626276_6f65_3.jpg","is_practice_test_course":false,"image_480x270":"https://img-c.udemycdn.com/course/480x270/4626276_6f65_3.jpg","published_title":"lean-six-sigma-introduction-course","tracking_id":"","locale":{"_class":"locale","locale":"en_US","title":"English (US)","english_title":"English (US)","simple_english_title":"English"},"predictive_score":null,"relevancy_score":null,"input_features":null,"lecture_search_result":null,"curriculum_lectures":[],"order_in_results":null,"curriculum_items":[],"headline":"Curious about Lean Six Sigma? Here's a brief introduction. 100,000+ certified worldwide. BKO accredited","instructor_name":null},{"_class":"course","id":919906,"title":"Trading Options For Consistent Returns: Options Basics","url":"/course/trading-options-for-income/","is_paid":false,"price":"Free","price_detail":null,"price_serve_tracking_id":"zM9kotZLRfC90iCpj37g-Q","visible_instructors":[{"_class":"user","id":24018956,"title":"Stephen Burnich","name":"Stephen","display_name":"Stephen Burnich","job_title":"Simple Strategies. Expert Guidance. NavigationTrading","image_50x50":"https://img-c.udemycdn.com/user/50x50/24018956_b847.jpg","image_100x100":"https://img-c.udemycdn.com/user/100x100/24018956_b847.jpg","initials":"SB","url":"/user/steve-burnich/"}],"image_125_H":"https://img-c.udemycdn.com/course/125_H/919906_1194.jpg","image_240x135":"https://img-c.udemycdn.com/course/240x135/919906_1194.jpg","is_practice_test_course":false,"image_480x270":"https://img-c.udemycdn.com/course/480x270/919906_1194.jpg","published_title":"trading-options-for-income","tracking_id":"","locale":{"_class":"locale","locale":"en_US","title":"English (US)","english_title":"English (US)","simple_english_title":"English"},"predictive_score":null,"relevancy_score":null,"input_features":null,"lecture_search_result":null,"curriculum_lectures":[],"order_in_results":null,"curriculum_items":[],"headline":"The Foundation For Consistency","instructor_name":null},{"_class":"course","id":2843938,"title":"Python OOP : Object Oriented Programming in Python","url":"/course/object-oriented-python-programming/","is_paid":false,"price":"Free","price_detail":null,"price_serve_tracking_id":"AXwuKdSmSHmakTQZfVAlMQ","visible_instructors":[{"_class":"user","title":"Deepali Srivastava","name":"Deepali","display_name":"Deepali Srivastava","job_title":"Author","image_50x50":"https://img-c.udemycdn.com/user/50x50/8407796_4a04_33.jpg","image_100x100":"https://img-c.udemycdn.com/user/100x100/8407796_4a04_33.jpg","initials":"DS","url":"/user/deepalisrivastava/"}],"image_125_H":"https://img-c.udemycdn.com/course/125_H/2843938_74c9_2.jpg","image_240x135":"https://img-c.udemycdn.com/course/240x135/2843938_74c9_2.jpg","is_practice_test_course":false,"image_480x270":"https://img-c.udemycdn.com/course/480x270/2843938_74c9_2.jpg","published_title":"object-oriented-python-programming","tracking_id":"","locale":{"_class":"locale","locale":"en_IN","title":"English (India)","english_title":"English (India)","simple_english_title":"English"},"predictive_score":null,"relevancy_score":null,"input_features":null,"lecture_search_result":null,"curriculum_lectures":[],"order_in_results":null,"curriculum_items":[],"headline":"Python Object Oriented programming OOP advanced / Scripting for projects / automation / interview questions / beginners","instructor_name":null},{"_class":"course","id":1413516,"title":"Learn Python for Total Beginners","url":"/course/python-3-for-total-beginners/","is_paid":false,"price":"Free","price_detail":null,"price_serve_tracking_id":"kHMW1zzjQvqdS9uCLhHDJw","visible_instructors":[{"_class":"user","title":"Michael S Russell","name":"Michael S","display_name":"Michael S Russell","job_title":"Instructor  and Entrepreneur","image_50x50":"https://img-c.udemycdn.com/user/50x50/37983912_f34a_3.jpg","image_100x100":"https://img-c.udemycdn.com/user/100x100/37983912_f34a_3.jpg","initials":"MR","url":"/user/michael-s-russell/"}],"image_125_H":"https://img-c.udemycdn.com/course/125_H/1413516_9f4b_2.jpg","image_240x135":"https://img-c.udemycdn.com/course/240x135/1413516_9f4b_2.jpg","is_practice_test_course":false,"image_480x270":"https://img-c.udemycdn.com/course/480x270/1413516_9f4b_2.jpg","published_title":"python-3-for-total-beginners","tracking_id":"","locale":{"_class":"locale","locale":"en_GB","title":"English (UK)","english_title":"English (UK)","simple_english_title":"English"},"predictive_score":null,"relevancy_score":null,"input_features":null,"lecture_search_result":null,"curriculum_lectures":[],"order_in_results":null,"curriculum_items":[],"headline":"From newbie to pro in a day with 5 brain teasing exercises and full solutions provided.","instructor_name":null},{"_class":"course","id":1601692,"title":"Learn Hypnosis In An Hour","url":"/course/hypnosis-in-an-hour/","is_paid":false,"price":"Free","price_detail":null,"price_serve_tracking_id":"gjgF_c8VQtC0oEmEG7JjRw","visible_instructors":[{"_class":"user","id":941230,"title":"Dan Jones","name":"Dan","display_name":"Dan Jones","job_title":"Autistic Hypnotherapy & Psychotherapy Instructor","image_50x50":"https://img-c.udemycdn.com/user/50x50/941230_30f2_3.jpg","image_100x100":"https://img-c.udemycdn.com/user/100x100/941230_30f2_3.jpg","initials":"DJ","url":"/user/danieljones11/"}],"image_125_H":"https://img-c.udemycdn.com/course/125_H/1601692_1772.jpg","image_240x135":"https://img-c.udemycdn.com/course/240x135/1601692_1772.jpg","is_practice_test_course":false,"image_480x270":"https://img-c.udemycdn.com/course/480x270/1601692_1772.jpg","published_title":"hypnosis-in-an-hour","tracking_id":"","locale":{"_class":"locale","locale":"en_GB","title":"English (UK)","english_title":"English (UK)","simple_english_title":"English"},"predictive_score":null,"relevancy_score":null,"input_features":null,"lecture_search_result":null,"curriculum_lectures":[],"order_in_results":null,"curriculum_items":[],"headline":"Learn Rapid Hypnosis, Conversational Hypnosis & Structured Hypnotic Inductions In Just 60 Minutes","instructor_name":null},{"_class":"course","id":3367848,"title":"Formal English Writing - Go to the Next Level!","url":"/course/formal-english-writing-course/","is_paid":false,"price":"Free","price_detail":null,"price_serve_tracking_id":"iPycFF_hTRueaKBFaksA6g","visible_instructors":[{"_class":"user","id":28681264,"title":"Francis Carlisle: Last Minute English","name":"Francis Carlisle:","display_name":"Francis Carlisle: Last Minute English","job_title":"IELTS Examiner & English Teacher","image_50x50":"https://img-c.udemycdn.com/user/50x50/28681264_43b0_4.jpg","image_100x100":"https://img-c.udemycdn.com/user/100x100/28681264_43b0_4.jpg","initials":"FL","url":"/user/francis-carlisle/"}],"image_125_H":"https://img-c.udemycdn.com/course/125_H/3367848_e556_3.jpg","image_240x135":"https://img-c.udemycdn.com/course/240x135/3367848_e556_3.jpg","is_practice_test_course":false,"image_480x270":"https://img-c.udemycdn.com/course/480x270/3367848_e556_3.jpg","published_title":"formal-english-writing-course","tracking_id":"","locale":{"_class":"locale","locale":"en_US","title":"English (US)","english_title":"English (US)","simple_english_title":"English"},"predictive_score":null,"relevancy_score":null,"input_features":null,"lecture_search_result":null,"curriculum_lectures":[],"order_in_results":null,"curriculum_items":[],"headline":"Learn great English Writing skills for essays, reports, emails, articles and exams.","instructor_name":null},{"_class":"course","id":1264544,"title":"Introductory Aromatherapy Course For Natural Living","url":"/course/free-aromatherapy-using-essential-oils-in-your-daily-life/","is_paid":false,"price":"Free","price_detail":null,"price_serve_tracking_id":"16XhCpTeSUmh_sedo-SESg","visible_instructors":[{"_class":"user","id":7240640,"title":"Mark Perren-Jones","name":"Mark","display_name":"Mark Perren-Jones","job_title":"Certified Aromatherapist, Spa Owner, Masseur, 250K Students","image_50x50":"https://img-c.udemycdn.com/user/50x50/7240640_bf4c_2.jpg","image_100x100":"https://img-c.udemycdn.com/user/100x100/7240640_bf4c_2.jpg","initials":"MP","url":"/user/markperrenjones/"}],"image_125_H":"https://img-c.udemycdn.com/course/125_H/1264544_7b3b_2.jpg","image_240x135":"https://img-c.udemycdn.com/course/240x135/1264544_7b3b_2.jpg","is_practice_test_course":false,"image_480x270":"https://img-c.udemycdn.com/course/480x270/1264544_7b3b_2.jpg","published_title":"free-aromatherapy-using-essential-oils-in-your-daily-life","tracking_id":"","locale":{"_class":"locale","locale":"en_US","title":"English (US)","english_title":"English (US)","simple_english_title":"English"},"predictive_score":null,"relevancy_score":null,"input_features":null,"lecture_search_result":null,"curriculum_lectures":[],"order_in_results":null,"curriculum_items":[],"headline":"Aromatherapy-Learn how to use essential oils in your everyday life safely and effectively to make your own products","instructor_name":null},{"_class":"course","id":4694082,"title":"Enhance English Vocabulary, Idioms, Improve Speaking (Free)","url":"/course/enhance-english-vocabulary-idioms-improve-speaking-free/","is_paid":false,"price":"Free","price_detail":null,"price_serve_tracking_id":"ussdydyyTo6hgsFP_sPvKg","visible_instructors":[{"_class":"user","id":43210610,"title":"Logus Academy","name":"Logus","display_name":"Logus Academy","job_title":"Online School of the Future","image_50x50":"https://img-c.udemycdn.com/user/50x50/43210610_e9ab_4.jpg","image_100x100":"https://img-c.udemycdn.com/user/100x100/43210610_e9ab_4.jpg","initials":"LA","url":"/user/logus/"}],"image_125_H":"https://img-c.udemycdn.com/course/125_H/4694082_1ec4_3.jpg","image_240x135":"https://img-c.udemycdn.com/course/240x135/4694082_1ec4_3.jpg","is_practice_test_course":false,"image_480x270":"https://img-c.udemycdn.com/course/480x270/4694082_1ec4_3.jpg","published_title":"enhance-english-vocabulary-idioms-improve-speaking-free","tracking_id":"","locale":{"_class":"locale","locale":"en_US","title":"English (US)","english_title":"English (US)","simple_english_title":"English"},"predictive_score":null,"relevancy_score":null,"input_features":null,"lecture_search_result":null,"curriculum_lectures":[],"order_in_results":null,"curriculum_items":[],"headline":"Master English Vocabulary, English Idioms, English Phrases, Practice Speaking English with Funny Dialogues.","instructor_name":null},{"_class":"course","id":1106668,"title":"Microsoft Excel - Improve your skills quickly","url":"/course/microsoft-excel-improve-your-skills-quickly/","is_paid":false,"price":"Free","price_detail":null,"price_serve_tracking_id":"EsX6GgQtTuSVJV5F3nPvBg","visible_instructors":[{"_class":"user","id":12861544,"title":"Phillip Burton","name":"Phillip","display_name":"Phillip Burton","job_title":"Best Selling Instructor - over 720,000 students so far","image_50x50":"https://img-c.udemycdn.com/user/50x50/12861544_ccc3_4.jpg","image_100x100":"https://img-c.udemycdn.com/user/100x100/12861544_ccc3_4.jpg","initials":"PB","url":"/user/aquaviola/"}],"image_125_H":"https://img-c.udemycdn.com/course/125_H/1106668_8acf_6.jpg","image_240x135":"https://img-c.udemycdn.com/course/240x135/1106668_8acf_6.jpg","is_practice_test_course":false,"image_480x270":"https://img-c.udemycdn.com/course/480x270/1106668_8acf_6.jpg","published_title":"microsoft-excel-improve-your-skills-quickly","tracking_id":"","locale":{"_class":"locale","locale":"en_US","title":"English (US)","english_title":"English (US)","simple_english_title":"English"},"predictive_score":null,"relevancy_score":null,"input_features":null,"lecture_search_result":null,"curriculum_lectures":[],"order_in_results":null,"curriculum_items":[],"headline":"Pivot Tables, Charts, Sparklines, functions, formulas and more - in just a couple of hours","instructor_name":null}],"aggregations":[{"title":"Price","key":"price","options":[{"title":"Paid","count":10000,"key":"price","value":"price-paid"},{"title":"Free","count":10000,"key":"price","value":"price-free"}]},{"title":"Level","key":"instructional_level","options":[{"title":"All Levels","count":10000,"key":"instructional_level","value":"all"},{"title":"Beginner","count":10000,"key":"instructional_level","value":"beginner"},{"title":"Intermediate","count":10000,"key":"instructional_level","value":"intermediate"},{"title":"Expert","count":4963,"key":"instructional_level","value":"expert"}]},{"title":"Features","key":"features","options":[{"title":"Subtitles","count":10000,"key":"features","value":"has_closed_caption"},{"title":"Quizzes","count":10000,"key":"features","value":"has_simple_quiz"},{"title":"Coding Exercises","count":1479,"key":"features","value":"has_coding_exercises"},{"title":"Practice Tests","count":10000,"key":"features","value":"has_practice_test"}]},{"title":"Language","key":"language","options":[{"title":"English","count":10000,"key":"lang","value":"en"},{"title":"Português","count":10000,"key":"lang","value":"pt"},{"title":"Español","count":10000,"key":"lang","value":"es"},{"title":"Türkçe","count":9456,"key":"lang","value":"tr"},{"title":"日本語","count":8293,"key":"lang","value":"ja"},{"title":"Deutsch","count":6528,"key":"lang","value":"de"},{"title":"Français","count":6410,"key":"lang","value":"fr"},{"title":"العربية","count":6106,"key":"lang","value":"ar"},{"title":"Italiano","count":4015,"key":"lang","value":"it"},{"title":"中文","count":3502,"key":"lang","value":"zh"},{"title":"한국어","count":3072,"key":"lang","value":"ko"},{"title":"Русский","count":2510,"key":"lang","value":"ru"},{"title":"हिन्दी","count":2109,"key":"lang","value":"hi"},{"title":"Bahasa Indonesia","count":2007,"key":"lang","value":"id"},{"title":"Polski","count":1820,"key":"lang","value":"pl"},{"title":"Tiếng Việt","count":513,"key":"lang","value":"vi"},{"title":"اردو","count":511,"key":"lang","value":"ur"},{"title":"ไทย","count":387,"key":"lang","value":"th"},{"title":"Nederlands","count":379,"key":"lang","value":"nl"},{"title":"Română","count":367,"key":"lang","value":"ro"},{"title":"தமிழ்","count":298,"key":"lang","value":"ta"},{"title":"עברית","count":127,"key":"lang","value":"he"},{"title":"Українська","count":115,"key":"lang","value":"uk"},{"title":"বাংলা","count":104,"key":"lang","value":"bn"},{"title":"Azərbaycan","count":98,"key":"lang","value":"az"},{"title":"Ελληνικά","count":94,"key":"lang","value":"el"},{"title":"Magyar","count":81,"key":"lang","value":"hu"},{"title":"తెలుగు","count":59,"key":"lang","value":"te"},{"title":"मराठी","count":58,"key":"lang","value":"mr"},{"title":"മലയാളം","count":57,"key":"lang","value":"ml"},{"title":"فارسی","count":51,"key":"lang","value":"fa"},{"title":"Hrvatski","count":30,"key":"lang","value":"hr"},{"title":"မြန်မာ","count":25,"key":"lang","value":"my"},{"title":"Български","count":21,"key":"lang","value":"bg"},{"title":"Melayu","count":21,"key":"lang","value":"ms"},{"title":"Čeština","count":20,"key":"lang","value":"cs"},{"title":"Norsk bokmål","count":20,"key":"lang","value":"nb"},{"title":"Српски","count":20,"key":"lang","value":"sr"},{"title":"ქართული","count":19,"key":"lang","value":"ka"},{"title":"Tagalog","count":17,"key":"lang","value":"tl"},{"title":"ગુજરાતી","count":14,"key":"lang","value":"gu"},{"title":"Soomaali","count":14,"key":"lang","value":"so"},{"title":"Svenska","count":14,"key":"lang","value":"sv"},{"title":"Afrikaans","count":13,"key":"lang","value":"af"},{"title":"नेपाली","count":13,"key":"lang","value":"ne"},{"title":"Shqip","count":11,"key":"lang","value":"sq"},{"title":"Eesti","count":10,"key":"lang","value":"et"},{"title":"ಕನ್ನಡ","count":10,"key":"lang","value":"kn"},{"title":"Slovenčina","count":10,"key":"lang","value":"sk"},{"title":"Қазақ тілі","count":9,"key":"lang","value":"kk"},{"title":"Latviešu","count":9,"key":"lang","value":"lv"},{"title":"O‘zbek","count":9,"key":"lang","value":"uz"},{"title":"Dansk","count":8,"key":"lang","value":"da"},{"title":"Suomi","count":8,"key":"lang","value":"fi"},{"title":"Lietuvių","count":8,"key":"lang","value":"lt"},{"title":"Kurdish","count":7,"key":"lang","value":"ku"},{"title":"Gaeilge","count":6,"key":"lang","value":"ga"},{"title":"Kiswahili","count":5,"key":"lang","value":"sw"},{"title":"Català","count":4,"key":"lang","value":"ca"},{"title":"ਪੰਜਾਬੀ","count":4,"key":"lang","value":"pa"},{"title":"پښتو","count":4,"key":"lang","value":"ps"},{"title":"Slovenščina","count":4,"key":"lang","value":"sl"},{"title":"Haitian Creole","count":3,"key":"lang","value":"ht"},{"title":"Հայերեն","count":3,"key":"lang","value":"hy"},{"title":"ខ្មែរ","count":3,"key":"lang","value":"km"},{"title":"Монгол","count":3,"key":"lang","value":"mn"},{"title":"Runasimi","count":3,"key":"lang","value":"qu"},{"title":"Guarani","count":2,"key":"lang","value":"gn"},{"title":"Sanskrit","count":2,"key":"lang","value":"sa"},{"title":"Euskara","count":1,"key":"lang","value":"eu"},{"title":"Македонски","count":1,"key":"lang","value":"mk"},{"title":"Тоҷикӣ","count":1,"key":"lang","value":"tg"},{"title":"Xhosa","count":1,"key":"lang","value":"xh"},{"title":"IsiZulu","count":1,"key":"lang","value":"zu"}]},{"title":"Ratings","key":"ratings","options":[{"title":"4.5 & up","count":10000,"key":"ratings","value":"4.5"},{"title":"4.0 & up","count":10000,"key":"ratings","value":"4.0"},{"title":"3.5 & up","count":10000,"key":"ratings","value":"3.5"},{"title":"3.0 & up","count":10000,"key":"ratings","value":"3.0"}]},{"title":"Video Duration","key":"duration","options":[{"title":"0-1 Hour","count":10000,"key":"duration","value":"extraShort"},{"title":"1-3 Hours","count":10000,"key":"duration","value":"short"},{"title":"3-6 Hours","count":10000,"key":"duration","value":"medium"},{"title":"6-17 Hours","count":10000,"key":"duration","value":"long"},{"title":"17+ Hours","count":10000,"key":"duration","value":"extraLong"}]}]}