{"count":10000,"next":"https://www.udemy.com/api-2.0/courses/?page=5&page_size=12&price=free-paid","previous":"https://www.udemy.com/api-2.0/courses/?page=3&page_size=12&price=free-paid","results":[{"_class":"course","id":192004,"title":"7 Scientifically Proven Steps to Increase Your Influence","url":"/course/7-scientifically-proven-steps-to-increase-your-influence/","is_paid":false,"price":"Free","price_detail":null,"price_serve_tracking_id":"wpNuWfSwSoqD9xCMR78xPw","visible_instructors":[{"_class":"user","id":570158,"title":"Vanessa Van Edwards","name":"Vanessa Van","display_name":"Vanessa Van Edwards","job_title":"Author and Behavioral Investigator","image_50x50":"https://img-c.udemycdn.com/user/50x50/570158_6de7_4.jpg","image_100x100":"https://img-c.udemycdn.com/user/100x100/570158_6de7_4.jpg","initials":"VE","url":"/user/vanessavanedwards/"},{"_class":"user","id":23328569,"title":"Science of People","name":"Science","display_name":"Science of People","job_title":"For Recovering Awkward People","image_50x50":"https://img-c.udemycdn.com/user/50x50/23328569_a24d_2.jpg","image_100x100":"https://img-c.udemycdn.com/user/100x100/23328569_a24d_2.jpg","initials":"SO","url":"/user/science-of-people/"}],"image_125_H":"https://img-c.udemycdn.com/course/125_H/192004_bf26_5.jpg","image_240x135":"https://img-c.udemycdn.com/course/240x135/192004_bf26_5.jpg","is_practice_test_course":false,"image_480x270":"https://img-c.udemycdn.com/course/480x270/192004_bf26_5.jpg","published_title":"7-scientifically-proven-steps-to-increase-your-influence","tracking_id":"","locale":{"_class":"locale","locale":"en_US","title":"English (US)","english_title":"English (US)","simple_english_title":"English"},"predictive_score":null,"relevancy_score":null,"input_features":null,"lecture_search_result":null,"curriculum_lectures":[],"order_in_results":null,"curriculum_items":[],"headline":"Learn the science of charisma. Increase your impact, influence and income using 7 science based steps.","instructor_name":null},{"_class":"course","id":584648,"title":"Advanced Databases and SQL Querying","url":"/course/advanced-tsql-querying-using-sql-2014/","is_paid":false,"price":"Free","price_detail":null,"price_serve_tracking_id":"UkKHUc2vRBaw_Y41F6C-cA","visible_instructors":[{"_class":"user","title":"Rakesh Gopalakrishnan","name":"Rakesh","display_name":"Rakesh Gopalakrishnan","job_title":"Over 600,000 Students","image_50x50":"https://img-c.udemycdn.com/user/50x50/9912714_deb0_2.jpg","image_100x100":"https://img-c.udemycdn.com/user/100x100/9912714_deb0_2.jpg","initials":"RG","url":"/user/54a6020bb2e0e/"}],"image_125_H":"https://img-c.udemycdn.com/course/125_H/584648_1cad_3.jpg","image_240x135":"https://img-c.udemycdn.com/course/240x135/584648_1cad_3.jpg","is_practice_test_course":false,"image_480x270":"https://img-c.udemycdn.com/course/480x270/584648_1cad_3.jpg","published_title":"advanced-tsql-querying-using-sql-2014","tracking_id":"","locale":{"_class":"locale","locale":"en_US","title":"English (US)","english_title":"English (US)","simple_english_title":"English"},"predictive_score":null,"relevancy_score":null,"input_features":null,"lecture_search_result":null,"curriculum_lectures":[],"order_in_results":null,"curriculum_items":[],"headline":"Learn advanced T-SQL Querying concepts. Go from a beginner SQL programmer to writing complex SQL Queries.","instructor_name":null},{"_class":"course","id":2203632,"title":"English Foundation Course 2024: Grammar and Speaking Upgrade","url":"/course/english-grammar-one/","is_paid":false,"price":"Free","price_detail":null,"price_serve_tracking_id":"19oXOyuZTAipxxvBlsBe-Q","visible_instructors":[{"_class":"user","id":12063592,"title":"Scott Mendoza","name":"Scott","display_name":"Scott Mendoza","job_title":"English for Everyone","image_50x50":"https://img-c.udemycdn.com/user/50x50/12063592_afa8_4.jpg","image_100x100":"https://img-c.udemycdn.com/user/100x100/12063592_afa8_4.jpg","initials":"SM","url":"/user/scottmendoza/"}],"image_125_H":"https://img-c.udemycdn.com/course/125_H/2203632_d419_3.jpg","image_240x135":"https://img-c.udemycdn.com/course/240x135/2203632_d419_3.jpg","is_practice_test_course":false,"image_480x270":"https://img-c.udemycdn.com/course/480x270/2203632_d419_3.jpg","published_title":"english-grammar-one","tracking_id":"","locale":{"_class":"locale","locale":"en_US","title":"English (US)","english_title":"English (US)","simple_english_title":"English"},"predictive_score":null,"relevancy_score":null,"input_features":null,"lecture_search_result":null,"curriculum_lectures":[],"order_in_results":null,"curriculum_items":[],"headline":"Become fluent by improving all your English Skills. Build a strong English foundation in grammar, speaking, and more!","instructor_name":null},{"_class":"course","id":1948098,"title":"Docker Essentials","url":"/course/docker-essentials/","is_paid":false,"price":"Free","price_detail":null,"price_serve_tracking_id":"orzqI7INRG-6f3_BMR_Kcg","visible_instructors":[{"_class":"user","title":"Cerulean Canvas","name":"Cerulean","display_name":"Cerulean Canvas","job_title":"Learn, Express, Paint your Dreams!","image_50x50":"https://img-b.udemycdn.com/user/50x50/52873180_7037_5.jpg","image_100x100":"https://img-b.udemycdn.com/user/100x100/52873180_7037_5.jpg","initials":"CC","url":"/user/cerulean-canvas/"}],"image_125_H":"https://img-c.udemycdn.com/course/125_H/1948098_8faf_8.jpg","image_240x135":"https://img-c.udemycdn.com/course/240x135/1948098_8faf_8.jpg","is_practice_test_course":false,"image_480x270":"https://img-c.udemycdn.com/course/480x270/1948098_8faf_8.jpg","published_title":"docker-essentials","tracking_id":"","locale":{"_class":"locale","locale":"en_US","title":"English (US)","english_title":"English (US)","simple_english_title":"English"},"predictive_score":null,"relevancy_score":null,"input_features":null,"lecture_search_result":null,"curriculum_lectures":[],"order_in_results":null,"curriculum_items":[],"headline":"Learn Hands-on Containerization and Orchestration with Docker Ecosystem (Docker, Compose and Swarm)","instructor_name":null},{"_class":"course","id":352440,"title":"Agile PM 101 - Learn the Truth About Agile versus Waterfall","url":"/course/learn-the-truth-about-agile-versus-waterfall/","is_paid":false,"price":"Free","price_detail":null,"price_serve_tracking_id":"KdqYiwCURsCgE21nrRU1Ug","visible_instructors":[{"_class":"user","id":7151580,"title":"Agile Project Management Academy - Chuck Cobb","name":"Agile Project Management Academy -","display_name":"Agile Project Management Academy - Chuck Cobb","job_title":"Author of The Project Manager's Guide to Mastering Agile","image_50x50":"https://img-c.udemycdn.com/user/50x50/7151580_fc67.jpg","image_100x100":"https://img-c.udemycdn.com/user/100x100/7151580_fc67.jpg","initials":"AC","url":"/user/chuckcobb2/"}],"image_125_H":"https://img-c.udemycdn.com/course/125_H/352440_01ad_6.jpg","image_240x135":"https://img-c.udemycdn.com/course/240x135/352440_01ad_6.jpg","is_practice_test_course":false,"image_480x270":"https://img-c.udemycdn.com/course/480x270/352440_01ad_6.jpg","published_title":"learn-the-truth-about-agile-versus-waterfall","tracking_id":"","locale":{"_class":"locale","locale":"en_US","title":"English (US)","english_title":"English (US)","simple_english_title":"English"},"predictive_score":null,"relevancy_score":null,"input_features":null,"lecture_search_result":null,"curriculum_lectures":[],"order_in_results":null,"curriculum_items":[],"headline":"Learn to See Agile and Waterfall in a Fresh, New Perspective as Complementary Rather Than Competitive","instructor_name":null},{"_class":"course","id":1029442,"title":"Herbalism :: Essential Herbal Medicine Favorites","url":"/course/home-remedies/","is_paid":false,"price":"Free","price_detail":null,"price_serve_tracking_id":"C2Jp8mOXRsi5VDqC-b0B5A","visible_instructors":[{"_class":"user","id":13395630,"title":"Elizabeth Heck","name":"Elizabeth","display_name":"Elizabeth Heck","job_title":"Top Qualified Wellness Instructor","image_50x50":"https://img-c.udemycdn.com/user/50x50/13395630_4754.jpg","image_100x100":"https://img-c.udemycdn.com/user/100x100/13395630_4754.jpg","initials":"EH","url":"/user/elizabethheck/"}],"image_125_H":"https://img-c.udemycdn.com/course/125_H/1029442_9422.jpg","image_240x135":"https://img-c.udemycdn.com/course/240x135/1029442_9422.jpg","is_practice_test_course":false,"image_480x270":"https://img-c.udemycdn.com/course/480x270/1029442_9422.jpg","published_title":"home-remedies","tracking_id":"","locale":{"_class":"locale","locale":"en_US","title":"English (US)","english_title":"English (US)","simple_english_title":"English"},"predictive_score":null,"relevancy_score":null,"input_features":null,"lecture_search_result":null,"curriculum_lectures":[],"order_in_results":null,"curriculum_items":[],"headline":"A brief introduction to great herbal medicine remedies that you can easily make at home.","instructor_name":null},{"_class":"course","id":5090282,"title":"Time Management Secrets: 10X Your Productivity In 41 Minutes","url":"/course/time-management-at-work/","is_paid":false,"price":"Free","price_detail":null,"price_serve_tracking_id":"hNVhfNftTnqLpkjLzHaL_Q","visible_instructors":[{"_class":"user","id":5274990,"title":"Silviu Marisk - Effective Learning Lab","name":"Silviu","display_name":"Silviu Marisk - Effective Learning Lab","job_title":"Online Instructor Teaching 18 Courses and 200,000+ Students","image_50x50":"https://img-c.udemycdn.com/user/50x50/5274990_13b2_12.jpg","image_100x100":"https://img-c.udemycdn.com/user/100x100/5274990_13b2_12.jpg","initials":"SM","url":"/user/silviumarisca/"}],"image_125_H":"https://img-c.udemycdn.com/course/125_H/5090282_60f9.jpg","image_240x135":"https://img-c.udemycdn.com/course/240x135/5090282_60f9.jpg","is_practice_test_course":false,"image_480x270":"https://img-c.udemycdn.com/course/480x270/5090282_60f9.jpg","published_title":"time-management-at-work","tracking_id":"","locale":{"_class":"locale","locale":"en_US","title":"English (US)","english_title":"English (US)","simple_english_title":"English"},"predictive_score":null,"relevancy_score":null,"input_features":null,"lecture_search_result":null,"curriculum_lectures":[],"order_in_results":null,"curriculum_items":[],"headline":"Stop Procrastinating, Start Prioritizing - Enroll in!","instructor_name":null},{"_class":"course","id":2657572,"title":"Free Blender Crash Course!","url":"/course/blender-crash-course/","is_paid":false,"price":"Free","price_detail":null,"price_serve_tracking_id":"k2gylA4XQb2e3TEDUWjUqg","visible_instructors":[{"_class":"user","id":11477266,"title":"Gustavo Rosa","name":"Gustavo","display_name":"Gustavo Rosa","job_title":"Modelador, Animador e Generalista 3D.","image_50x50":"https://img-c.udemycdn.com/user/50x50/11477266_0feb_3.jpg","image_100x100":"https://img-c.udemycdn.com/user/100x100/11477266_0feb_3.jpg","initials":"GR","url":"/user/gustavorosa2/"}],"image_125_H":"https://img-c.udemycdn.com/course/125_H/2657572_8301.jpg","image_240x135":"https://img-c.udemycdn.com/course/240x135/2657572_8301.jpg","is_practice_test_course":false,"image_480x270":"https://img-c.udemycdn.com/course/480x270/2657572_8301.jpg","published_title":"blender-crash-course","tracking_id":"","locale":{"_class":"locale","locale":"en_US","title":"English (US)","english_title":"English (US)","simple_english_title":"English"},"predictive_score":null,"relevancy_score":null,"input_features":null,"lecture_search_result":null,"curriculum_lectures":[],"order_in_results":null,"curriculum_items":[],"headline":"Start now to create your 3D Scenes!","instructor_name":null},{"_class":"course","id":956404,"title":"Programming 101","url":"/course/programming-101/","is_paid":false,"price":"Free","price_detail":null,"price_serve_tracking_id":"ssugZOJiTfma-QmTSXAO2Q","visible_instructors":[{"_class":"user","title":"Lawrence Turton","name":"Lawrence","display_name":"Lawrence Turton","job_title":"Technical Instructor","image_50x50":"https://img-b.udemycdn.com/user/50x50/3410094_40e1_4.jpg","image_100x100":"https://img-b.udemycdn.com/user/100x100/3410094_40e1_4.jpg","initials":"LT","url":"/user/lawrenceturton/"}],"image_125_H":"https://img-c.udemycdn.com/course/125_H/956404_da00.jpg","image_240x135":"https://img-c.udemycdn.com/course/240x135/956404_da00.jpg","is_practice_test_course":false,"image_480x270":"https://img-c.udemycdn.com/course/480x270/956404_da00.jpg","published_title":"programming-101","tracking_id":"","locale":{"_class":"locale","locale":"en_GB","title":"English (UK)","english_title":"English (UK)","simple_english_title":"English"},"predictive_score":null,"relevancy_score":null,"input_features":null,"lecture_search_result":null,"curriculum_lectures":[],"order_in_results":null,"curriculum_items":[],"headline":"Comprehend basic foundational knowledge of hardware, networking, programming and licensing.","instructor_name":null},{"_class":"course","id":5504136,"title":"Basics of C# and Unity for Complete Beginners - Part 2","url":"/course/free-part2-alexdev/","is_paid":false,"price":"Free","price_detail":null,"price_serve_tracking_id":"Acw4ZbemQ-2BQ9GFxqfl6g","visible_instructors":[{"_class":"user","title":"Alex Dev","name":"Alex","display_name":"Alex Dev","job_title":"Game Development Instructor and YouTuber","image_50x50":"https://img-c.udemycdn.com/user/50x50/99693024_06fa_2.jpg","image_100x100":"https://img-c.udemycdn.com/user/100x100/99693024_06fa_2.jpg","initials":"AD","url":"/user/alex-13394/"}],"image_125_H":"https://img-c.udemycdn.com/course/125_H/5504136_9757_2.jpg","image_240x135":"https://img-c.udemycdn.com/course/240x135/5504136_9757_2.jpg","is_practice_test_course":false,"image_480x270":"https://img-c.udemycdn.com/course/480x270/5504136_9757_2.jpg","published_title":"free-part2-alexdev","tracking_id":"","locale":{"_class":"locale","locale":"en_US","title":"English (US)","english_title":"English (US)","simple_english_title":"English"},"predictive_score":null,"relevancy_score":null,"input_features":null,"lecture_search_result":null,"curriculum_lectures":[],"order_in_results":null,"curriculum_items":[],"headline":"Learn How to Make a Simple 2D Game in Unity","instructor_name":null},{"_class":"course","id":3550828,"title":"Ethical hacking with Hak5 devices","url":"/course/ethical-hacking-with-hak5-devices/","is_paid":false,"price":"Free","price_detail":null,"price_serve_tracking_id":"zvVKLuP3SdKUjWmiwNNwnQ","visible_instructors":[{"_class":"user","title":"David Bombal","name":"David","display_name":"David Bombal","job_title":"CCIE #11023, over 15 years of network training experience","image_50x50":"https://img-b.udemycdn.com/user/50x50/794308_b2a6_5.jpg","image_100x100":"https://img-b.udemycdn.com/user/100x100/794308_b2a6_5.jpg","initials":"DB","url":"/user/davidbombal/"}],"image_125_H":"https://img-c.udemycdn.com/course/125_H/3550828_b10c_2.jpg","image_240x135":"https://img-c.udemycdn.com/course/240x135/3550828_b10c_2.jpg","is_practice_test_course":false,"image_480x270":"https://img-c.udemycdn.com/course/480x270/3550828_b10c_2.jpg","published_title":"ethical-hacking-with-hak5-devices","tracking_id":"","locale":{"_class":"locale","locale":"en_US","title":"English (US)","english_title":"English (US)","simple_english_title":"English"},"predictive_score":null,"relevancy_score":null,"input_features":null,"lecture_search_result":null,"curriculum_lectures":[],"order_in_results":null,"curriculum_items":[],"headline":"Learn about the USB Rubber Ducky, the O.MG cable and more","instructor_name":null},{"_class":"course","id":171838,"title":"Secret Sauce of Great Writing","url":"/course/secret-sauce-of-great-writing/","is_paid":false,"price":"Free","price_detail":null,"price_serve_tracking_id":"mHTlpbl_To2dCz3fAiQFCg","visible_instructors":[{"_class":"user","id":1681918,"title":"Shani Raja","name":"Shani","display_name":"Shani Raja","job_title":"Ex-Wall Street Journal editor","image_50x50":"https://img-c.udemycdn.com/user/50x50/1681918_d7a1_7.jpg","image_100x100":"https://img-c.udemycdn.com/user/100x100/1681918_d7a1_7.jpg","initials":"SR","url":"/user/shaniraja2/"}],"image_125_H":"https://img-c.udemycdn.com/course/125_H/171838_ae1b_4.jpg","image_240x135":"https://img-c.udemycdn.com/course/240x135/171838_ae1b_4.jpg","is_practice_test_course":false,"image_480x270":"https://img-c.udemycdn.com/course/480x270/171838_ae1b_4.jpg","published_title":"secret-sauce-of-great-writing","tracking_id":"","locale":{"_class":"locale","locale":"en_US","title":"English (US)","english_title":"English (US)","simple_english_title":"English"},"predictive_score":null,"relevancy_score":null,"input_features":null,"lecture_search_result":null,"curriculum_lectures":[],"order_in_results":null,"curriculum_items":[],"headline":"Ex-Wall Street Journal Editor Teaches How To Make Your Blogs, Books & Business Writing Sparkle","instructor_name":null}],"aggregations":[{"title":"Price","key":"price","options":[{"title":"Paid","count":10000,"key":"price","value":"price-paid"},{"title":"Free","count":10000,"key":"price","value":"price-free"}]},{"title":"Level","key":"instructional_level","options":[{"title":"All Levels","count":10000,"key":"instructional_level","value":"all"},{"title":"Beginner","count":10000,"key":"instructional_level","value":"beginner"},{"title":"Intermediate","count":10000,"key":"instructional_level","value":"intermediate"},{"title":"Expert","count":4963,"key":"instructional_level","value":"expert"}]},{"title":"Features","key":"features","options":[{"title":"Subtitles","count":10000,"key":"features","value":"has_closed_caption"},{"title":"Quizzes","count":10000,"key":"features","value":"has_simple_quiz"},{"title":"Coding Exercises","count":1479,"key":"features","value":"has_coding_exercises"},{"title":"Practice Tests","count":10000,"key":"features","value":"has_practice_test"}]},{"title":"Language","key":"language","options":[{"title":"English","count":10000,"key":"lang","value":"en"},{"title":"Português","count":10000,"key":"lang","value":"pt"},{"title":"Español","count":10000,"key":"lang","value":"es"},{"title":"Türkçe","count":9456,"key":"lang","value":"tr"},{"title":"日本語","count":8293,"key":"lang","value":"ja"},{"title":"Deutsch","count":6528,"key":"lang","value":"de"},{"title":"Français","count":6410,"key":"lang","value":"fr"},{"title":"العربية","count":6106,"key":"lang","value":"ar"},{"title":"Italiano","count":4015,"key":"lang","value":"it"},{"title":"中文","count":3502,"key":"lang","value":"zh"},{"title":"한국어","count":3072,"key":"lang","value":"ko"},{"title":"Русский","count":2510,"key":"lang","value":"ru"},{"title":"हिन्दी","count":2109,"key":"lang","value":"hi"},{"title":"Bahasa Indonesia","count":2007,"key":"lang","value":"id"},{"title":"Polski","count":1820,"key":"lang","value":"pl"},{"title":"Tiếng Việt","count":513,"key":"lang","value":"vi"},{"title":"اردو","count":511,"key":"lang","value":"ur"},{"title":"ไทย","count":387,"key":"lang","value":"th"},{"title":"Nederlands","count":379,"key":"lang","value":"nl"},{"title":"Română","count":367,"key":"lang","value":"ro"},{"title":"தமிழ்","count":298,"key":"lang","value":"ta"},{"title":"עברית","count":127,"key":"lang","value":"he"},{"title":"Українська","count":115,"key":"lang","value":"uk"},{"title":"বাংলা","count":104,"key":"lang","value":"bn"},{"title":"Azərbaycan","count":98,"key":"lang","value":"az"},{"title":"Ελληνικά","count":94,"key":"lang","value":"el"},{"title":"Magyar","count":81,"key":"lang","value":"hu"},{"title":"తెలుగు","count":59,"key":"lang","value":"te"},{"title":"मराठी","count":58,"key":"lang","value":"mr"},{"title":"മലയാളം","count":57,"key":"lang","value":"ml"},{"title":"فارسی","count":51,"key":"lang","value":"fa"},{"title":"Hrvatski","count":30,"key":"lang","value":"hr"},{"title":"မြန်မာ","count":25,"key":"lang","value":"my"},{"title":"Български","count":21,"key":"lang","value":"bg"},{"title":"Melayu","count":21,"key":"lang","value":"ms"},{"title":"Čeština","count":20,"key":"lang","value":"cs"},{"title":"Norsk bokmål","count":20,"key":"lang","value":"nb"},{"title":"Српски","count":20,"key":"lang","value":"sr"},{"title":"ქართული","count":19,"key":"lang","value":"ka"},{"title":"Tagalog","count":17,"key":"lang","value":"tl"},{"title":"ગુજરાતી","count":14,"key":"lang","value":"gu"},{"title":"Soomaali","count":14,"key":"lang","value":"so"},{"title":"Svenska","count":14,"key":"lang","value":"sv"},{"title":"Afrikaans","count":13,"key":"lang","value":"af"},{"title":"नेपाली","count":13,"key":"lang","value":"ne"},{"title":"Shqip","count":11,"key":"lang","value":"sq"},{"title":"Eesti","count":10,"key":"lang","value":"et"},{"title":"ಕನ್ನಡ","count":10,"key":"lang","value":"kn"},{"title":"Slovenčina","count":10,"key":"lang","value":"sk"},{"title":"Қазақ тілі","count":9,"key":"lang","value":"kk"},{"title":"Latviešu","count":9,"key":"lang","value":"lv"},{"title":"O‘zbek","count":9,"key":"lang","value":"uz"},{"title":"Dansk","count":8,"key":"lang","value":"da"},{"title":"Suomi","count":8,"key":"lang","value":"fi"},{"title":"Lietuvių","count":8,"key":"lang","value":"lt"},{"title":"Kurdish","count":7,"key":"lang","value":"ku"},{"title":"Gaeilge","count":6,"key":"lang","value":"ga"},{"title":"Kiswahili","count":5,"key":"lang","value":"sw"},{"title":"Català","count":4,"key":"lang","value":"ca"},{"title":"ਪੰਜਾਬੀ","count":4,"key":"lang","value":"pa"},{"title":"پښتو","count":4,"key":"lang","value":"ps"},{"title":"Slovenščina","count":4,"key":"lang","value":"sl"},{"title":"Haitian Creole","count":3,"key":"lang","value":"ht"},{"title":"Հայերեն","count":3,"key":"lang","value":"hy"},{"title":"ខ្មែរ","count":3,"key":"lang","value":"km"},{"title":"Монгол","count":3,"key":"lang","value":"mn"},{"title":"Runasimi","count":3,"key":"lang","value":"qu"},{"title":"Guarani","count":2,"key":"lang","value":"gn"},{"title":"Sanskrit","count":2,"key":"lang","value":"sa"},{"title":"Euskara","count":1,"key":"lang","value":"eu"},{"title":"Македонски","count":1,"key":"lang","value":"mk"},{"title":"Тоҷикӣ","count":1,"key":"lang","value":"tg"},{"title":"Xhosa","count":1,"key":"lang","value":"xh"},{"title":"IsiZulu","count":1,"key":"lang","value":"zu"}]},{"title":"Ratings","key":"ratings","options":[{"title":"4.5 & up","count":10000,"key":"ratings","value":"4.5"},{"title":"4.0 & up","count":10000,"key":"ratings","value":"4.0"},{"title":"3.5 & up","count":10000,"key":"ratings","value":"3.5"},{"title":"3.0 & up","count":10000,"key":"ratings","value":"3.0"}]},{"title":"Video Duration","key":"duration","options":[{"title":"0-1 Hour","count":10000,"key":"duration","value":"extraShort"},{"title":"1-3 Hours","count":10000,"key":"duration","value":"short"},{"title":"3-6 Hours","count":10000,"key":"duration","value":"medium"},{"title":"6-17 Hours","count":10000,"key":"duration","value":"long"},{"title":"17+ Hours","count":10000,"key":"duration","value":"extraLong"}]}]}