{"count":10000,"next":"https://www.udemy.com/api-2.0/courses/?page=4&page_size=12&price=free-paid","previous":"https://www.udemy.com/api-2.0/courses/?page=2&page_size=12&price=free-paid","results":[{"_class":"course","id":3474350,"title":"Yoga for Back Health FREE Course - Yoga Alliance YACEP","url":"/course/yoga-for-back-care/","is_paid":false,"price":"Free","price_detail":null,"price_serve_tracking_id":"8WMdgugsSHq2eV80UvMepg","visible_instructors":[{"_class":"user","id":130049970,"title":"Om Yoga Flow™","name":"Om Yoga","display_name":"Om Yoga Flow™","job_title":"Yoga Alliance Registered Yoga Teacher Training School","image_50x50":"https://img-c.udemycdn.com/user/50x50/130049970_581a_7.jpg","image_100x100":"https://img-c.udemycdn.com/user/100x100/130049970_581a_7.jpg","initials":"OF","url":"/user/helene-kristiansson/"}],"image_125_H":"https://img-c.udemycdn.com/course/125_H/3474350_da31_10.jpg","image_240x135":"https://img-c.udemycdn.com/course/240x135/3474350_da31_10.jpg","is_practice_test_course":false,"image_480x270":"https://img-c.udemycdn.com/course/480x270/3474350_da31_10.jpg","published_title":"yoga-for-back-care","tracking_id":"","locale":{"_class":"locale","locale":"en_US","title":"English (US)","english_title":"English (US)","simple_english_title":"English"},"predictive_score":null,"relevancy_score":null,"input_features":null,"lecture_search_result":null,"curriculum_lectures":[],"order_in_results":null,"curriculum_items":[],"headline":"FREE: Create Long Lasting Change with Yoga for Back Health","instructor_name":null},{"_class":"course","id":2398804,"title":"Life Coaching 101: Complete Guide to Becoming a Life Coach","url":"/course/life-coaching-101-complete-guide-to-becoming-a-life-coach/","is_paid":false,"price":"Free","price_detail":null,"price_serve_tracking_id":"k_JlZE6cTIeMyVpELnuFWQ","visible_instructors":[{"_class":"user","id":988786,"title":"Joeel & Natalie Rivera","name":"Joeel","display_name":"Joeel & Natalie Rivera","job_title":"Top instructor with over 700,000 students","image_50x50":"https://img-c.udemycdn.com/user/50x50/988786_3723_6.jpg","image_100x100":"https://img-c.udemycdn.com/user/100x100/988786_3723_6.jpg","initials":"J&","url":"/user/transformationservicesinc/"},{"_class":"user","id":62486662,"title":"Transformation Services","name":"Transformation","display_name":"Transformation Services","job_title":"International Academy of Life Coaching & Entrepreneurship","image_50x50":"https://img-c.udemycdn.com/user/50x50/62486662_ccd9_5.jpg","image_100x100":"https://img-c.udemycdn.com/user/100x100/62486662_ccd9_5.jpg","initials":"TS","url":"/user/transformation-academy/"}],"image_125_H":"https://img-c.udemycdn.com/course/125_H/2398804_7c95.jpg","image_240x135":"https://img-c.udemycdn.com/course/240x135/2398804_7c95.jpg","is_practice_test_course":false,"image_480x270":"https://img-c.udemycdn.com/course/480x270/2398804_7c95.jpg","published_title":"life-coaching-101-complete-guide-to-becoming-a-life-coach","tracking_id":"","locale":{"_class":"locale","locale":"en_US","title":"English (US)","english_title":"English (US)","simple_english_title":"English"},"predictive_score":null,"relevancy_score":null,"input_features":null,"lecture_search_result":null,"curriculum_lectures":[],"order_in_results":null,"curriculum_items":[],"headline":"Find out why life coaching is awesome, what it takes to be successful & the 3 secrets to attracting your ideal clients!","instructor_name":null},{"_class":"course","id":5289502,"title":"Basics of C# and Unity for Complete Beginners - Part 1","url":"/course/free-part1-alexdev/","is_paid":false,"price":"Free","price_detail":null,"price_serve_tracking_id":"TY9aDNHDRXCPHBsVQ-ywXg","visible_instructors":[{"_class":"user","title":"Alex Dev","name":"Alex","display_name":"Alex Dev","job_title":"Game Development Instructor and YouTuber","image_50x50":"https://img-b.udemycdn.com/user/50x50/99693024_06fa_2.jpg","image_100x100":"https://img-b.udemycdn.com/user/100x100/99693024_06fa_2.jpg","initials":"AD","url":"/user/alex-13394/"}],"image_125_H":"https://img-c.udemycdn.com/course/125_H/5289502_c54a_2.jpg","image_240x135":"https://img-c.udemycdn.com/course/240x135/5289502_c54a_2.jpg","is_practice_test_course":false,"image_480x270":"https://img-c.udemycdn.com/course/480x270/5289502_c54a_2.jpg","published_title":"free-part1-alexdev","tracking_id":"","locale":{"_class":"locale","locale":"en_US","title":"English (US)","english_title":"English (US)","simple_english_title":"English"},"predictive_score":null,"relevancy_score":null,"input_features":null,"lecture_search_result":null,"curriculum_lectures":[],"order_in_results":null,"curriculum_items":[],"headline":"Learn How to Make a Simple 2D Game in Unity","instructor_name":null},{"_class":"course","id":4626462,"title":"Master Multiple timeframe theory in trading within 1 hour","url":"/course/advanced-forex-trading-master-multiple-timeframe-to-trade/","is_paid":false,"price":"Free","price_detail":null,"price_serve_tracking_id":"SPn9trZ0RqqyGM9Y43M5ZA","visible_instructors":[{"_class":"user","id":81053852,"title":"Jayce PHAM | Funded Trading Group | NCI Market structure trading","name":"Jayce","display_name":"Jayce PHAM | Funded Trading Group | NCI Market structure trading","job_title":"Professional Trader - FTMO funds, CEO of trading funds Group","image_50x50":"https://img-c.udemycdn.com/user/50x50/81053852_e421_4.jpg","image_100x100":"https://img-c.udemycdn.com/user/100x100/81053852_e421_4.jpg","initials":"JP","url":"/user/pham-ngoc-son-8/"}],"image_125_H":"https://img-c.udemycdn.com/course/125_H/4626462_a41f_3.jpg","image_240x135":"https://img-c.udemycdn.com/course/240x135/4626462_a41f_3.jpg","is_practice_test_course":false,"image_480x270":"https://img-c.udemycdn.com/course/480x270/4626462_a41f_3.jpg","published_title":"advanced-forex-trading-master-multiple-timeframe-to-trade","tracking_id":"","locale":{"_class":"locale","locale":"en_US","title":"English (US)","english_title":"English (US)","simple_english_title":"English"},"predictive_score":null,"relevancy_score":null,"input_features":null,"lecture_search_result":null,"curriculum_lectures":[],"order_in_results":null,"curriculum_items":[],"headline":"Supporting for my paid course  : Key-Level , Smart Money Concepts , Price Action effectively in Technical Analyzation","instructor_name":null},{"_class":"course","id":707962,"title":"Javascript Essentials","url":"/course/javascript-essentials/","is_paid":false,"price":"Free","price_detail":null,"price_serve_tracking_id":"zsSSRodJRvGt55qO32Yqkw","visible_instructors":[{"_class":"user","title":"Lawrence Turton","name":"Lawrence","display_name":"Lawrence Turton","job_title":"Technical Instructor","image_50x50":"https://img-c.udemycdn.com/user/50x50/3410094_40e1_4.jpg","image_100x100":"https://img-c.udemycdn.com/user/100x100/3410094_40e1_4.jpg","initials":"LT","url":"/user/lawrenceturton/"}],"image_125_H":"https://img-c.udemycdn.com/course/125_H/707962_71f5_4.jpg","image_240x135":"https://img-c.udemycdn.com/course/240x135/707962_71f5_4.jpg","is_practice_test_course":false,"image_480x270":"https://img-c.udemycdn.com/course/480x270/707962_71f5_4.jpg","published_title":"javascript-essentials","tracking_id":"","locale":{"_class":"locale","locale":"en_US","title":"English (US)","english_title":"English (US)","simple_english_title":"English"},"predictive_score":null,"relevancy_score":null,"input_features":null,"lecture_search_result":null,"curriculum_lectures":[],"order_in_results":null,"curriculum_items":[],"headline":"Learn how Javascript works, some basic API's and finally create a mini project.","instructor_name":null},{"_class":"course","id":1137162,"title":"English Launch: Learn English for Free - Upgrade all areas","url":"/course/english-launch-learn-english-for-free-upgrade-all-areas/","is_paid":false,"price":"Free","price_detail":null,"price_serve_tracking_id":"jrxgmMvwS2SyxgyrS1ZTkQ","visible_instructors":[{"_class":"user","id":8910694,"title":"Anthony Kelleher","name":"Anthony","display_name":"Anthony Kelleher","job_title":"Bachelor of Arts TESOL - English Teacher at Sir English","image_50x50":"https://img-c.udemycdn.com/user/50x50/8910694_220a.jpg","image_100x100":"https://img-c.udemycdn.com/user/100x100/8910694_220a.jpg","initials":"AK","url":"/user/anthony845/"}],"image_125_H":"https://img-c.udemycdn.com/course/125_H/1137162_0e37.jpg","image_240x135":"https://img-c.udemycdn.com/course/240x135/1137162_0e37.jpg","is_practice_test_course":false,"image_480x270":"https://img-c.udemycdn.com/course/480x270/1137162_0e37.jpg","published_title":"english-launch-learn-english-for-free-upgrade-all-areas","tracking_id":"","locale":{"_class":"locale","locale":"en_GB","title":"English (UK)","english_title":"English (UK)","simple_english_title":"English"},"predictive_score":null,"relevancy_score":null,"input_features":null,"lecture_search_result":null,"curriculum_lectures":[],"order_in_results":null,"curriculum_items":[],"headline":"Improve all areas of your English in this taster course. Learn from a native British speaker to become more fluent.","instructor_name":null},{"_class":"course","id":917596,"title":"Introductory Photography Course","url":"/course/free-photography-course-for-beginners/","is_paid":false,"price":"Free","price_detail":null,"price_serve_tracking_id":"GbN7NBn4Tled4c_9AmEjVQ","visible_instructors":[{"_class":"user","id":23996290,"title":"Chris Bray","name":"Chris","display_name":"Chris Bray","job_title":"Professional Photographer","image_50x50":"https://img-c.udemycdn.com/user/50x50/23996290_789e.jpg","image_100x100":"https://img-c.udemycdn.com/user/100x100/23996290_789e.jpg","initials":"CB","url":"/user/chris-bray-3/"}],"image_125_H":"https://img-c.udemycdn.com/course/125_H/917596_96c4_2.jpg","image_240x135":"https://img-c.udemycdn.com/course/240x135/917596_96c4_2.jpg","is_practice_test_course":false,"image_480x270":"https://img-c.udemycdn.com/course/480x270/917596_96c4_2.jpg","published_title":"free-photography-course-for-beginners","tracking_id":"","locale":{"_class":"locale","locale":"en_US","title":"English (US)","english_title":"English (US)","simple_english_title":"English"},"predictive_score":null,"relevancy_score":null,"input_features":null,"lecture_search_result":null,"curriculum_lectures":[],"order_in_results":null,"curriculum_items":[],"headline":"The fastest way to get off 'Auto' mode and unlock the creative potential of your camera.","instructor_name":null},{"_class":"course","id":3212317,"title":"Statistics and data literacy for non-statisticians","url":"/course/statistics-literacy-for-non-statisticians/","is_paid":false,"price":"Free","price_detail":null,"price_serve_tracking_id":"seDJXFXzSj2_05A8sZx1Yw","visible_instructors":[{"_class":"user","id":37969484,"title":"Mike X Cohen","name":"Mike X","display_name":"Mike X Cohen","job_title":"Educator and writer","image_50x50":"https://img-c.udemycdn.com/user/50x50/37969484_bca7_9.jpg","image_100x100":"https://img-c.udemycdn.com/user/100x100/37969484_bca7_9.jpg","initials":"MC","url":"/user/mike-x-cohen/"}],"image_125_H":"https://img-c.udemycdn.com/course/125_H/3212317_d119_3.jpg","image_240x135":"https://img-c.udemycdn.com/course/240x135/3212317_d119_3.jpg","is_practice_test_course":false,"image_480x270":"https://img-c.udemycdn.com/course/480x270/3212317_d119_3.jpg","published_title":"statistics-literacy-for-non-statisticians","tracking_id":"","locale":{"_class":"locale","locale":"en_US","title":"English (US)","english_title":"English (US)","simple_english_title":"English"},"predictive_score":null,"relevancy_score":null,"input_features":null,"lecture_search_result":null,"curriculum_lectures":[],"order_in_results":null,"curriculum_items":[],"headline":"Learn the key terms and analysis methods in statistics","instructor_name":null},{"_class":"course","id":5290552,"title":"The Power of the Human Mind Masterclass","url":"/course/the-power-of-the-human-mind-masterclass/","is_paid":false,"price":"Free","price_detail":null,"price_serve_tracking_id":"nB47E85NStaDSgdaSE-KWA","visible_instructors":[{"_class":"user","id":988786,"title":"Joeel & Natalie Rivera","name":"Joeel","display_name":"Joeel & Natalie Rivera","job_title":"Top instructor with over 700,000 students","image_50x50":"https://img-c.udemycdn.com/user/50x50/988786_3723_6.jpg","image_100x100":"https://img-c.udemycdn.com/user/100x100/988786_3723_6.jpg","initials":"J&","url":"/user/transformationservicesinc/"},{"_class":"user","id":31052202,"title":"Sanda Kruger","name":"Sanda","display_name":"Sanda Kruger","job_title":"Entrepreneur, Life and Health Coach, Real Estate Investor","image_50x50":"https://img-c.udemycdn.com/user/50x50/31052202_39f8_4.jpg","image_100x100":"https://img-c.udemycdn.com/user/100x100/31052202_39f8_4.jpg","initials":"SK","url":"/user/sanda-kruger/"},{"_class":"user","id":62486662,"title":"Transformation Services","name":"Transformation","display_name":"Transformation Services","job_title":"International Academy of Life Coaching & Entrepreneurship","image_50x50":"https://img-c.udemycdn.com/user/50x50/62486662_ccd9_5.jpg","image_100x100":"https://img-c.udemycdn.com/user/100x100/62486662_ccd9_5.jpg","initials":"TS","url":"/user/transformation-academy/"}],"image_125_H":"https://img-c.udemycdn.com/course/125_H/5290552_3b95.jpg","image_240x135":"https://img-c.udemycdn.com/course/240x135/5290552_3b95.jpg","is_practice_test_course":false,"image_480x270":"https://img-c.udemycdn.com/course/480x270/5290552_3b95.jpg","published_title":"the-power-of-the-human-mind-masterclass","tracking_id":"","locale":{"_class":"locale","locale":"en_US","title":"English (US)","english_title":"English (US)","simple_english_title":"English"},"predictive_score":null,"relevancy_score":null,"input_features":null,"lecture_search_result":null,"curriculum_lectures":[],"order_in_results":null,"curriculum_items":[],"headline":"Learn how to use your conscious, control your subconscious and connect to the supraconscious part of your mind.","instructor_name":null},{"_class":"course","id":1898178,"title":"Git: Become an Expert in Git & GitHub in 4 Hours","url":"/course/git-expert-4-hours/","is_paid":false,"price":"Free","price_detail":null,"price_serve_tracking_id":"bKsm4zCIQQGDXyekjbZwMg","visible_instructors":[{"_class":"user","title":"VideoLab by Jad Khalili","name":"VideoLab","display_name":"VideoLab by Jad Khalili","job_title":"Instructor - 100K+ Students Worldwide","image_50x50":"https://img-b.udemycdn.com/user/50x50/16117512_51ea_3.jpg","image_100x100":"https://img-b.udemycdn.com/user/100x100/16117512_51ea_3.jpg","initials":"VB","url":"/user/jad-khalili/"}],"image_125_H":"https://img-c.udemycdn.com/course/125_H/1898178_f734.jpg","image_240x135":"https://img-c.udemycdn.com/course/240x135/1898178_f734.jpg","is_practice_test_course":false,"image_480x270":"https://img-c.udemycdn.com/course/480x270/1898178_f734.jpg","published_title":"git-expert-4-hours","tracking_id":"","locale":{"_class":"locale","locale":"en_US","title":"English (US)","english_title":"English (US)","simple_english_title":"English"},"predictive_score":null,"relevancy_score":null,"input_features":null,"lecture_search_result":null,"curriculum_lectures":[],"order_in_results":null,"curriculum_items":[],"headline":"Become an Expert in Git & GitHub by writing commands, learning theory, and taking quizzes. Learn Git today in 4 hours!","instructor_name":null},{"_class":"course","id":5529854,"title":"Self Facial Gua Sha and Jade Rolling Course","url":"/course/self-facial-gua-sha-and-jade-rolling-course/","is_paid":false,"price":"Free","price_detail":null,"price_serve_tracking_id":"e6OBlZZtQwKPXRTrCaxaVg","visible_instructors":[{"_class":"user","id":7240640,"title":"Mark Perren-Jones","name":"Mark","display_name":"Mark Perren-Jones","job_title":"Certified Aromatherapist, Spa Owner, Masseur, 250K Students","image_50x50":"https://img-c.udemycdn.com/user/50x50/7240640_bf4c_2.jpg","image_100x100":"https://img-c.udemycdn.com/user/100x100/7240640_bf4c_2.jpg","initials":"MP","url":"/user/markperrenjones/"}],"image_125_H":"https://img-c.udemycdn.com/course/125_H/5529854_c128_2.jpg","image_240x135":"https://img-c.udemycdn.com/course/240x135/5529854_c128_2.jpg","is_practice_test_course":false,"image_480x270":"https://img-c.udemycdn.com/course/480x270/5529854_c128_2.jpg","published_title":"self-facial-gua-sha-and-jade-rolling-course","tracking_id":"","locale":{"_class":"locale","locale":"en_US","title":"English (US)","english_title":"English (US)","simple_english_title":"English"},"predictive_score":null,"relevancy_score":null,"input_features":null,"lecture_search_result":null,"curriculum_lectures":[],"order_in_results":null,"curriculum_items":[],"headline":"Learn these incredible anti-aging facial gua sha and jade rolling techniques that you can do on yourself every day","instructor_name":null},{"_class":"course","id":1164120,"title":"Powerful Self Healing in 5 Simple Steps - Self Help Course","url":"/course/self-help-course/","is_paid":false,"price":"Free","price_detail":null,"price_serve_tracking_id":"Ck8zWWjGQ-6q80YYArrLFg","visible_instructors":[{"_class":"user","id":23121946,"title":"Melissa Crowhurst","name":"Melissa","display_name":"Melissa Crowhurst","job_title":"Reiki Master Teacher, Inspirational Coach, Author, Speaker","image_50x50":"https://img-c.udemycdn.com/user/50x50/23121946_3025_4.jpg","image_100x100":"https://img-c.udemycdn.com/user/100x100/23121946_3025_4.jpg","initials":"MC","url":"/user/melissa-crowhurst/"}],"image_125_H":"https://img-c.udemycdn.com/course/125_H/1164120_6cce.jpg","image_240x135":"https://img-c.udemycdn.com/course/240x135/1164120_6cce.jpg","is_practice_test_course":false,"image_480x270":"https://img-c.udemycdn.com/course/480x270/1164120_6cce.jpg","published_title":"self-help-course","tracking_id":"","locale":{"_class":"locale","locale":"en_US","title":"English (US)","english_title":"English (US)","simple_english_title":"English"},"predictive_score":null,"relevancy_score":null,"input_features":null,"lecture_search_result":null,"curriculum_lectures":[],"order_in_results":null,"curriculum_items":[],"headline":"Easy self help steps & actions everyone can overlay on their existing routine to achieve better health & happiness","instructor_name":null}],"aggregations":[{"title":"Price","key":"price","options":[{"title":"Paid","count":10000,"key":"price","value":"price-paid"},{"title":"Free","count":10000,"key":"price","value":"price-free"}]},{"title":"Level","key":"instructional_level","options":[{"title":"All Levels","count":10000,"key":"instructional_level","value":"all"},{"title":"Beginner","count":10000,"key":"instructional_level","value":"beginner"},{"title":"Intermediate","count":10000,"key":"instructional_level","value":"intermediate"},{"title":"Expert","count":4963,"key":"instructional_level","value":"expert"}]},{"title":"Features","key":"features","options":[{"title":"Subtitles","count":10000,"key":"features","value":"has_closed_caption"},{"title":"Quizzes","count":10000,"key":"features","value":"has_simple_quiz"},{"title":"Coding Exercises","count":1479,"key":"features","value":"has_coding_exercises"},{"title":"Practice Tests","count":10000,"key":"features","value":"has_practice_test"}]},{"title":"Language","key":"language","options":[{"title":"English","count":10000,"key":"lang","value":"en"},{"title":"Português","count":10000,"key":"lang","value":"pt"},{"title":"Español","count":10000,"key":"lang","value":"es"},{"title":"Türkçe","count":9456,"key":"lang","value":"tr"},{"title":"日本語","count":8293,"key":"lang","value":"ja"},{"title":"Deutsch","count":6528,"key":"lang","value":"de"},{"title":"Français","count":6410,"key":"lang","value":"fr"},{"title":"العربية","count":6106,"key":"lang","value":"ar"},{"title":"Italiano","count":4015,"key":"lang","value":"it"},{"title":"中文","count":3502,"key":"lang","value":"zh"},{"title":"한국어","count":3072,"key":"lang","value":"ko"},{"title":"Русский","count":2510,"key":"lang","value":"ru"},{"title":"हिन्दी","count":2109,"key":"lang","value":"hi"},{"title":"Bahasa Indonesia","count":2007,"key":"lang","value":"id"},{"title":"Polski","count":1820,"key":"lang","value":"pl"},{"title":"Tiếng Việt","count":513,"key":"lang","value":"vi"},{"title":"اردو","count":511,"key":"lang","value":"ur"},{"title":"ไทย","count":387,"key":"lang","value":"th"},{"title":"Nederlands","count":379,"key":"lang","value":"nl"},{"title":"Română","count":367,"key":"lang","value":"ro"},{"title":"தமிழ்","count":298,"key":"lang","value":"ta"},{"title":"עברית","count":127,"key":"lang","value":"he"},{"title":"Українська","count":115,"key":"lang","value":"uk"},{"title":"বাংলা","count":104,"key":"lang","value":"bn"},{"title":"Azərbaycan","count":98,"key":"lang","value":"az"},{"title":"Ελληνικά","count":94,"key":"lang","value":"el"},{"title":"Magyar","count":81,"key":"lang","value":"hu"},{"title":"తెలుగు","count":59,"key":"lang","value":"te"},{"title":"मराठी","count":58,"key":"lang","value":"mr"},{"title":"മലയാളം","count":57,"key":"lang","value":"ml"},{"title":"فارسی","count":51,"key":"lang","value":"fa"},{"title":"Hrvatski","count":30,"key":"lang","value":"hr"},{"title":"မြန်မာ","count":25,"key":"lang","value":"my"},{"title":"Български","count":21,"key":"lang","value":"bg"},{"title":"Melayu","count":21,"key":"lang","value":"ms"},{"title":"Čeština","count":20,"key":"lang","value":"cs"},{"title":"Norsk bokmål","count":20,"key":"lang","value":"nb"},{"title":"Српски","count":20,"key":"lang","value":"sr"},{"title":"ქართული","count":19,"key":"lang","value":"ka"},{"title":"Tagalog","count":17,"key":"lang","value":"tl"},{"title":"ગુજરાતી","count":14,"key":"lang","value":"gu"},{"title":"Soomaali","count":14,"key":"lang","value":"so"},{"title":"Svenska","count":14,"key":"lang","value":"sv"},{"title":"Afrikaans","count":13,"key":"lang","value":"af"},{"title":"नेपाली","count":13,"key":"lang","value":"ne"},{"title":"Shqip","count":11,"key":"lang","value":"sq"},{"title":"Eesti","count":10,"key":"lang","value":"et"},{"title":"ಕನ್ನಡ","count":10,"key":"lang","value":"kn"},{"title":"Slovenčina","count":10,"key":"lang","value":"sk"},{"title":"Қазақ тілі","count":9,"key":"lang","value":"kk"},{"title":"Latviešu","count":9,"key":"lang","value":"lv"},{"title":"O‘zbek","count":9,"key":"lang","value":"uz"},{"title":"Dansk","count":8,"key":"lang","value":"da"},{"title":"Suomi","count":8,"key":"lang","value":"fi"},{"title":"Lietuvių","count":8,"key":"lang","value":"lt"},{"title":"Kurdish","count":7,"key":"lang","value":"ku"},{"title":"Gaeilge","count":6,"key":"lang","value":"ga"},{"title":"Kiswahili","count":5,"key":"lang","value":"sw"},{"title":"Català","count":4,"key":"lang","value":"ca"},{"title":"ਪੰਜਾਬੀ","count":4,"key":"lang","value":"pa"},{"title":"پښتو","count":4,"key":"lang","value":"ps"},{"title":"Slovenščina","count":4,"key":"lang","value":"sl"},{"title":"Haitian Creole","count":3,"key":"lang","value":"ht"},{"title":"Հայերեն","count":3,"key":"lang","value":"hy"},{"title":"ខ្មែរ","count":3,"key":"lang","value":"km"},{"title":"Монгол","count":3,"key":"lang","value":"mn"},{"title":"Runasimi","count":3,"key":"lang","value":"qu"},{"title":"Guarani","count":2,"key":"lang","value":"gn"},{"title":"Sanskrit","count":2,"key":"lang","value":"sa"},{"title":"Euskara","count":1,"key":"lang","value":"eu"},{"title":"Македонски","count":1,"key":"lang","value":"mk"},{"title":"Тоҷикӣ","count":1,"key":"lang","value":"tg"},{"title":"Xhosa","count":1,"key":"lang","value":"xh"},{"title":"IsiZulu","count":1,"key":"lang","value":"zu"}]},{"title":"Ratings","key":"ratings","options":[{"title":"4.5 & up","count":10000,"key":"ratings","value":"4.5"},{"title":"4.0 & up","count":10000,"key":"ratings","value":"4.0"},{"title":"3.5 & up","count":10000,"key":"ratings","value":"3.5"},{"title":"3.0 & up","count":10000,"key":"ratings","value":"3.0"}]},{"title":"Video Duration","key":"duration","options":[{"title":"0-1 Hour","count":10000,"key":"duration","value":"extraShort"},{"title":"1-3 Hours","count":10000,"key":"duration","value":"short"},{"title":"3-6 Hours","count":10000,"key":"duration","value":"medium"},{"title":"6-17 Hours","count":10000,"key":"duration","value":"long"},{"title":"17+ Hours","count":10000,"key":"duration","value":"extraLong"}]}]}