{"count":10000,"next":"https://www.udemy.com/api-2.0/courses/?page=3&page_size=12&price=free-paid","previous":"https://www.udemy.com/api-2.0/courses/?page_size=12&price=free-paid","results":[{"_class":"course","id":4290300,"title":"Energy Protection & Boundaries Practitioner| ACCREDITED","url":"/course/lessons-for-light-workers-healers-counselors-therapists/","is_paid":false,"price":"Free","price_detail":null,"price_serve_tracking_id":"hOXnDyCkSuaya-CeW18daQ","visible_instructors":[{"_class":"user","id":127795328,"title":"Sufani Garza, Place of Bliss Academy","name":"Sufani Garza,","display_name":"Sufani Garza, Place of Bliss Academy","job_title":"Place of Bliss Academy & Sanctuary| Founder & Director","image_50x50":"https://img-c.udemycdn.com/user/50x50/127795328_5cc8_3.jpg","image_100x100":"https://img-c.udemycdn.com/user/100x100/127795328_5cc8_3.jpg","initials":"SP","url":"/user/sufani-garza/"}],"image_125_H":"https://img-c.udemycdn.com/course/125_H/4290300_c0a4_8.jpg","image_240x135":"https://img-c.udemycdn.com/course/240x135/4290300_c0a4_8.jpg","is_practice_test_course":false,"image_480x270":"https://img-c.udemycdn.com/course/480x270/4290300_c0a4_8.jpg","published_title":"lessons-for-light-workers-healers-counselors-therapists","tracking_id":"","locale":{"_class":"locale","locale":"en_US","title":"English (US)","english_title":"English (US)","simple_english_title":"English"},"predictive_score":null,"relevancy_score":null,"input_features":null,"lecture_search_result":null,"curriculum_lectures":[],"order_in_results":null,"curriculum_items":[],"headline":"Learn to set boundaries, protect yourself from energy drains, grounding, engage self-care, balance and energy work Q&A","instructor_name":null},{"_class":"course","id":797156,"title":"A Mini Course on Time Management","url":"/course/manageyourtime/","is_paid":false,"price":"Free","price_detail":null,"price_serve_tracking_id":"OL7aFIbaSrClJY6xYYdCzw","visible_instructors":[{"_class":"user","id":9304596,"title":"Brandon Hakim","name":"Brandon","display_name":"Brandon Hakim","job_title":"Founder of InsiderSchool","image_50x50":"https://img-c.udemycdn.com/user/50x50/9304596_0ac3_7.jpg","image_100x100":"https://img-c.udemycdn.com/user/100x100/9304596_0ac3_7.jpg","initials":"BH","url":"/user/brandonhakim/"},{"_class":"user","id":129334448,"title":"Insider School","name":"Insider","display_name":"Insider School","job_title":"Change Your Life In 5 Minutes A Day","image_50x50":"https://img-c.udemycdn.com/user/50x50/129334448_b32a_3.jpg","image_100x100":"https://img-c.udemycdn.com/user/100x100/129334448_b32a_3.jpg","initials":"IS","url":"/user/insider-school/"}],"image_125_H":"https://img-c.udemycdn.com/course/125_H/797156_d7dd_5.jpg","image_240x135":"https://img-c.udemycdn.com/course/240x135/797156_d7dd_5.jpg","is_practice_test_course":false,"image_480x270":"https://img-c.udemycdn.com/course/480x270/797156_d7dd_5.jpg","published_title":"manageyourtime","tracking_id":"","locale":{"_class":"locale","locale":"en_US","title":"English (US)","english_title":"English (US)","simple_english_title":"English"},"predictive_score":null,"relevancy_score":null,"input_features":null,"lecture_search_result":null,"curriculum_lectures":[],"order_in_results":null,"curriculum_items":[],"headline":"7 steps you can use immediately to become more productive and master time management","instructor_name":null},{"_class":"course","id":247190,"title":"C++ Tutorial for Complete Beginners","url":"/course/free-learn-c-tutorial-beginners/","is_paid":false,"price":"Free","price_detail":null,"price_serve_tracking_id":"Ubh2q0vxTbKCLdYO-aDHqw","visible_instructors":[{"_class":"user","id":219513,"title":"John Purcell","name":"John","display_name":"John Purcell","job_title":"Software Development Trainer","image_50x50":"https://img-c.udemycdn.com/user/50x50/219513_a344_6.jpg","image_100x100":"https://img-c.udemycdn.com/user/100x100/219513_a344_6.jpg","initials":"JP","url":"/user/johnpurcell/"}],"image_125_H":"https://img-c.udemycdn.com/course/125_H/247190_5cb0_2.jpg","image_240x135":"https://img-c.udemycdn.com/course/240x135/247190_5cb0_2.jpg","is_practice_test_course":false,"image_480x270":"https://img-c.udemycdn.com/course/480x270/247190_5cb0_2.jpg","published_title":"free-learn-c-tutorial-beginners","tracking_id":"","locale":{"_class":"locale","locale":"en_GB","title":"English (UK)","english_title":"English (UK)","simple_english_title":"English"},"predictive_score":null,"relevancy_score":null,"input_features":null,"lecture_search_result":null,"curriculum_lectures":[],"order_in_results":null,"curriculum_items":[],"headline":"How to program in the popular (and tricky!) C++ programming language, for complete beginners.","instructor_name":null},{"_class":"course","id":1731774,"title":"Git & GitHub Crash Course: Create a Repository From Scratch!","url":"/course/git-and-github-crash-course-creating-a-repository-from-scratch/","is_paid":false,"price":"Free","price_detail":null,"price_serve_tracking_id":"U442LwzrTA6VWwhnofdEnQ","visible_instructors":[{"_class":"user","id":226043,"title":"Kalob Taulien","name":"Kalob","display_name":"Kalob Taulien","job_title":"Web developer and coding instructor","image_50x50":"https://img-c.udemycdn.com/user/50x50/226043_5d4a_6.jpg","image_100x100":"https://img-c.udemycdn.com/user/100x100/226043_5d4a_6.jpg","initials":"KT","url":"/user/kalobtaulien/"}],"image_125_H":"https://img-c.udemycdn.com/course/125_H/1731774_b53c_2.jpg","image_240x135":"https://img-c.udemycdn.com/course/240x135/1731774_b53c_2.jpg","is_practice_test_course":false,"image_480x270":"https://img-c.udemycdn.com/course/480x270/1731774_b53c_2.jpg","published_title":"git-and-github-crash-course-creating-a-repository-from-scratch","tracking_id":"","locale":{"_class":"locale","locale":"en_US","title":"English (US)","english_title":"English (US)","simple_english_title":"English"},"predictive_score":null,"relevancy_score":null,"input_features":null,"lecture_search_result":null,"curriculum_lectures":[],"order_in_results":null,"curriculum_items":[],"headline":"Learn how to create a Git repository, clone it, make changes, and submit changes to GitHub in less than 30 minutes.","instructor_name":null},{"_class":"course","id":5518262,"title":"How to Give an Incredible Deep Tissue Back Massage","url":"/course/how-to-give-an-incredible-deep-tissue-back-massage/","is_paid":false,"price":"Free","price_detail":null,"price_serve_tracking_id":"qb3NvDLyTpmhL1jYtCqnrA","visible_instructors":[{"_class":"user","id":7240640,"title":"Mark Perren-Jones","name":"Mark","display_name":"Mark Perren-Jones","job_title":"Certified Aromatherapist, Spa Owner, Masseur, 250K Students","image_50x50":"https://img-c.udemycdn.com/user/50x50/7240640_bf4c_2.jpg","image_100x100":"https://img-c.udemycdn.com/user/100x100/7240640_bf4c_2.jpg","initials":"MP","url":"/user/markperrenjones/"}],"image_125_H":"https://img-c.udemycdn.com/course/125_H/5518262_f20b_2.jpg","image_240x135":"https://img-c.udemycdn.com/course/240x135/5518262_f20b_2.jpg","is_practice_test_course":false,"image_480x270":"https://img-c.udemycdn.com/course/480x270/5518262_f20b_2.jpg","published_title":"how-to-give-an-incredible-deep-tissue-back-massage","tracking_id":"","locale":{"_class":"locale","locale":"en_US","title":"English (US)","english_title":"English (US)","simple_english_title":"English"},"predictive_score":null,"relevancy_score":null,"input_features":null,"lecture_search_result":null,"curriculum_lectures":[],"order_in_results":null,"curriculum_items":[],"headline":"In Just 1 HR. You Will Learn How to Give the Most Amazing Deep Tissue Back Massage That Anyone Can Do!","instructor_name":null},{"_class":"course","id":3060786,"title":"Deep Learning Prerequisites: The Numpy Stack in Python V2","url":"/course/numpy-python/","is_paid":false,"price":"Free","price_detail":null,"price_serve_tracking_id":"_iS9pmQ5TwSfd7LSp86I1A","visible_instructors":[{"_class":"user","id":75391750,"title":"Lazy Programmer Team","name":"Lazy Programmer","display_name":"Lazy Programmer Team","job_title":"Artificial Intelligence and Machine Learning Engineer","image_50x50":"https://img-c.udemycdn.com/user/50x50/75391750_5441.jpg","image_100x100":"https://img-c.udemycdn.com/user/100x100/75391750_5441.jpg","initials":"LT","url":"/user/lazy-programmer-team/"},{"_class":"user","id":14266988,"title":"Lazy Programmer Inc.","name":"Lazy Programmer","display_name":"Lazy Programmer Inc.","job_title":"Artificial intelligence and machine learning engineer","image_50x50":"https://img-c.udemycdn.com/user/50x50/14266988_a969_10.jpg","image_100x100":"https://img-c.udemycdn.com/user/100x100/14266988_a969_10.jpg","initials":"LI","url":"/user/lazy-programmer/"}],"image_125_H":"https://img-c.udemycdn.com/course/125_H/3060786_438f_2.jpg","image_240x135":"https://img-c.udemycdn.com/course/240x135/3060786_438f_2.jpg","is_practice_test_course":false,"image_480x270":"https://img-c.udemycdn.com/course/480x270/3060786_438f_2.jpg","published_title":"numpy-python","tracking_id":"","locale":{"_class":"locale","locale":"en_US","title":"English (US)","english_title":"English (US)","simple_english_title":"English"},"predictive_score":null,"relevancy_score":null,"input_features":null,"lecture_search_result":null,"curriculum_lectures":[],"order_in_results":null,"curriculum_items":[],"headline":"Numpy, Scipy, Pandas, and Matplotlib: prep for deep learning, machine learning, and artificial intelligence","instructor_name":null},{"_class":"course","id":1380080,"title":"Linux Tutorials and Projects (Free)","url":"/course/linux-tutorials/","is_paid":false,"price":"Free","price_detail":null,"price_serve_tracking_id":"FPV-9zw8TAeYZK-OygxP-A","visible_instructors":[{"_class":"user","id":278531,"title":"Jason Cannon","name":"Jason","display_name":"Jason Cannon","job_title":"Professional system administrator, consultant, and author.","image_50x50":"https://img-c.udemycdn.com/user/50x50/278531_86c0_4.jpg","image_100x100":"https://img-c.udemycdn.com/user/100x100/278531_86c0_4.jpg","initials":"JC","url":"/user/jasoncannon2/"}],"image_125_H":"https://img-c.udemycdn.com/course/125_H/1380080_97b2_4.jpg","image_240x135":"https://img-c.udemycdn.com/course/240x135/1380080_97b2_4.jpg","is_practice_test_course":false,"image_480x270":"https://img-c.udemycdn.com/course/480x270/1380080_97b2_4.jpg","published_title":"linux-tutorials","tracking_id":"","locale":{"_class":"locale","locale":"en_US","title":"English (US)","english_title":"English (US)","simple_english_title":"English"},"predictive_score":null,"relevancy_score":null,"input_features":null,"lecture_search_result":null,"curriculum_lectures":[],"order_in_results":null,"curriculum_items":[],"headline":"Free Tutorials Including Load Balancing, MySQL Replication, SSL Certificate Management and More.","instructor_name":null},{"_class":"course","id":662646,"title":"Discover your Energy Body","url":"/course/discover-your-energy-body/","is_paid":false,"price":"Free","price_detail":null,"price_serve_tracking_id":"8k-CTSixQkGyXsr0A75GYA","visible_instructors":[{"_class":"user","id":17397082,"title":"James Seriph","name":"James","display_name":"James Seriph","job_title":"Irreverent Spiritual Teacher and Energy Healer","image_50x50":"https://img-c.udemycdn.com/user/50x50/17397082_7404_2.jpg","image_100x100":"https://img-c.udemycdn.com/user/100x100/17397082_7404_2.jpg","initials":"JS","url":"/user/alexander-fairman/"}],"image_125_H":"https://img-c.udemycdn.com/course/125_H/662646_dc7b.jpg","image_240x135":"https://img-c.udemycdn.com/course/240x135/662646_dc7b.jpg","is_practice_test_course":false,"image_480x270":"https://img-c.udemycdn.com/course/480x270/662646_dc7b.jpg","published_title":"discover-your-energy-body","tracking_id":"","locale":{"_class":"locale","locale":"en_US","title":"English (US)","english_title":"English (US)","simple_english_title":"English"},"predictive_score":null,"relevancy_score":null,"input_features":null,"lecture_search_result":null,"curriculum_lectures":[],"order_in_results":null,"curriculum_items":[],"headline":"The ChakraSchool Guide to Mastering your Chakras, Revealing the Secret World Within, and Having your Mind Blown.","instructor_name":null},{"_class":"course","id":5352746,"title":"The mindset must know before learning trading and investing","url":"/course/the-mindset-must-know-before-learning-trading-and-investing/","is_paid":false,"price":"Free","price_detail":null,"price_serve_tracking_id":"iKiYWjwSSCWIM6TPu4mRlw","visible_instructors":[{"_class":"user","id":81053852,"title":"Jayce PHAM | Funded Trading Group | NCI Market structure trading","name":"Jayce","display_name":"Jayce PHAM | Funded Trading Group | NCI Market structure trading","job_title":"Professional Trader - FTMO funds, CEO of trading funds Group","image_50x50":"https://img-c.udemycdn.com/user/50x50/81053852_e421_4.jpg","image_100x100":"https://img-c.udemycdn.com/user/100x100/81053852_e421_4.jpg","initials":"JP","url":"/user/pham-ngoc-son-8/"}],"image_125_H":"https://img-c.udemycdn.com/course/125_H/5352746_6909.jpg","image_240x135":"https://img-c.udemycdn.com/course/240x135/5352746_6909.jpg","is_practice_test_course":false,"image_480x270":"https://img-c.udemycdn.com/course/480x270/5352746_6909.jpg","published_title":"the-mindset-must-know-before-learning-trading-and-investing","tracking_id":"","locale":{"_class":"locale","locale":"en_US","title":"English (US)","english_title":"English (US)","simple_english_title":"English"},"predictive_score":null,"relevancy_score":null,"input_features":null,"lecture_search_result":null,"curriculum_lectures":[],"order_in_results":null,"curriculum_items":[],"headline":"Level 0. The preparation to learn any strategy like NCI, Inner Circle Trading ICT, Price action and be top 1% traders","instructor_name":null},{"_class":"course","id":656678,"title":"Master English Sentence Structure | Better Grammar, Writing","url":"/course/easy-english-grammar-improve-your-english-in-one-day/","is_paid":false,"price":"Free","price_detail":null,"price_serve_tracking_id":"wln7TSwKTFOAhl0CH6YQ7A","visible_instructors":[{"_class":"user","id":12063592,"title":"Scott Mendoza","name":"Scott","display_name":"Scott Mendoza","job_title":"English for Everyone","image_50x50":"https://img-c.udemycdn.com/user/50x50/12063592_afa8_4.jpg","image_100x100":"https://img-c.udemycdn.com/user/100x100/12063592_afa8_4.jpg","initials":"SM","url":"/user/scottmendoza/"}],"image_125_H":"https://img-c.udemycdn.com/course/125_H/656678_318e_7.jpg","image_240x135":"https://img-c.udemycdn.com/course/240x135/656678_318e_7.jpg","is_practice_test_course":false,"image_480x270":"https://img-c.udemycdn.com/course/480x270/656678_318e_7.jpg","published_title":"easy-english-grammar-improve-your-english-in-one-day","tracking_id":"","locale":{"_class":"locale","locale":"en_US","title":"English (US)","english_title":"English (US)","simple_english_title":"English"},"predictive_score":null,"relevancy_score":null,"input_features":null,"lecture_search_result":null,"curriculum_lectures":[],"order_in_results":null,"curriculum_items":[],"headline":"Improve your English and master the English sentence types. Learn to master English grammar and speaking the easy way!","instructor_name":null},{"_class":"course","id":1931574,"title":"PowerPoint for Beginners - Program & Animation Basics FREE","url":"/course/powerpoint-for-beginners-free/","is_paid":false,"price":"Free","price_detail":null,"price_serve_tracking_id":"k-XcCAZKQC65gpDVnw18FQ","visible_instructors":[{"_class":"user","id":7082242,"title":"Andrew Pach","name":"Andrew","display_name":"Andrew Pach","job_title":"Engaged and Passionate PowerPoint & After Effects instructor","image_50x50":"https://img-c.udemycdn.com/user/50x50/7082242_b221_13.jpg","image_100x100":"https://img-c.udemycdn.com/user/100x100/7082242_b221_13.jpg","initials":"AP","url":"/user/andrzejpach/"}],"image_125_H":"https://img-c.udemycdn.com/course/125_H/1931574_a4f4_2.jpg","image_240x135":"https://img-c.udemycdn.com/course/240x135/1931574_a4f4_2.jpg","is_practice_test_course":false,"image_480x270":"https://img-c.udemycdn.com/course/480x270/1931574_a4f4_2.jpg","published_title":"powerpoint-for-beginners-free","tracking_id":"","locale":{"_class":"locale","locale":"en_US","title":"English (US)","english_title":"English (US)","simple_english_title":"English"},"predictive_score":null,"relevancy_score":null,"input_features":null,"lecture_search_result":null,"curriculum_lectures":[],"order_in_results":null,"curriculum_items":[],"headline":"PowerPoint basics is a free course where you learn basics about the software and its animation features. Enjoy!","instructor_name":null},{"_class":"course","id":5322038,"title":"ChatGPT, Midjourney, Firefly, Bard, DALL-E, AI Crash Course","url":"/course/chatgpt-midjourney-google-bard-dall-e-ai-course/","is_paid":false,"price":"Free","price_detail":null,"price_serve_tracking_id":"sMRITOwZQ_SDY6EmDok4vA","visible_instructors":[{"_class":"user","id":317821,"title":"Phil Ebiner","name":"Phil","display_name":"Phil Ebiner","job_title":"Top-Rated Instructor, 2.5 Million+ Students","image_50x50":"https://img-c.udemycdn.com/user/50x50/317821_3cb5_10.jpg","image_100x100":"https://img-c.udemycdn.com/user/100x100/317821_3cb5_10.jpg","initials":"PE","url":"/user/philipebiner2/"},{"_class":"user","id":19701574,"title":"Video School","name":"Video","display_name":"Video School","job_title":"Learn Creative Skills","image_50x50":"https://img-c.udemycdn.com/user/50x50/19701574_95d1_13.jpg","image_100x100":"https://img-c.udemycdn.com/user/100x100/19701574_95d1_13.jpg","initials":"VS","url":"/user/phil-ebiner/"}],"image_125_H":"https://img-c.udemycdn.com/course/125_H/5322038_1954.jpg","image_240x135":"https://img-c.udemycdn.com/course/240x135/5322038_1954.jpg","is_practice_test_course":false,"image_480x270":"https://img-c.udemycdn.com/course/480x270/5322038_1954.jpg","published_title":"chatgpt-midjourney-google-bard-dall-e-ai-course","tracking_id":"","locale":{"_class":"locale","locale":"en_US","title":"English (US)","english_title":"English (US)","simple_english_title":"English"},"predictive_score":null,"relevancy_score":null,"input_features":null,"lecture_search_result":null,"curriculum_lectures":[],"order_in_results":null,"curriculum_items":[],"headline":"Learn AI Tools in just 15 minutes. Start using ChatGPT, Midjourney, Google Bard, Adobe Firefly and DALL-E today!","instructor_name":null}],"aggregations":[{"title":"Price","key":"price","options":[{"title":"Paid","count":10000,"key":"price","value":"price-paid"},{"title":"Free","count":10000,"key":"price","value":"price-free"}]},{"title":"Level","key":"instructional_level","options":[{"title":"All Levels","count":10000,"key":"instructional_level","value":"all"},{"title":"Beginner","count":10000,"key":"instructional_level","value":"beginner"},{"title":"Intermediate","count":10000,"key":"instructional_level","value":"intermediate"},{"title":"Expert","count":4963,"key":"instructional_level","value":"expert"}]},{"title":"Features","key":"features","options":[{"title":"Subtitles","count":10000,"key":"features","value":"has_closed_caption"},{"title":"Quizzes","count":10000,"key":"features","value":"has_simple_quiz"},{"title":"Coding Exercises","count":1479,"key":"features","value":"has_coding_exercises"},{"title":"Practice Tests","count":10000,"key":"features","value":"has_practice_test"}]},{"title":"Language","key":"language","options":[{"title":"English","count":10000,"key":"lang","value":"en"},{"title":"Português","count":10000,"key":"lang","value":"pt"},{"title":"Español","count":10000,"key":"lang","value":"es"},{"title":"Türkçe","count":9456,"key":"lang","value":"tr"},{"title":"日本語","count":8293,"key":"lang","value":"ja"},{"title":"Deutsch","count":6528,"key":"lang","value":"de"},{"title":"Français","count":6410,"key":"lang","value":"fr"},{"title":"العربية","count":6106,"key":"lang","value":"ar"},{"title":"Italiano","count":4015,"key":"lang","value":"it"},{"title":"中文","count":3502,"key":"lang","value":"zh"},{"title":"한국어","count":3072,"key":"lang","value":"ko"},{"title":"Русский","count":2510,"key":"lang","value":"ru"},{"title":"हिन्दी","count":2109,"key":"lang","value":"hi"},{"title":"Bahasa Indonesia","count":2007,"key":"lang","value":"id"},{"title":"Polski","count":1820,"key":"lang","value":"pl"},{"title":"Tiếng Việt","count":513,"key":"lang","value":"vi"},{"title":"اردو","count":511,"key":"lang","value":"ur"},{"title":"ไทย","count":387,"key":"lang","value":"th"},{"title":"Nederlands","count":379,"key":"lang","value":"nl"},{"title":"Română","count":367,"key":"lang","value":"ro"},{"title":"தமிழ்","count":298,"key":"lang","value":"ta"},{"title":"עברית","count":127,"key":"lang","value":"he"},{"title":"Українська","count":115,"key":"lang","value":"uk"},{"title":"বাংলা","count":104,"key":"lang","value":"bn"},{"title":"Azərbaycan","count":98,"key":"lang","value":"az"},{"title":"Ελληνικά","count":94,"key":"lang","value":"el"},{"title":"Magyar","count":81,"key":"lang","value":"hu"},{"title":"తెలుగు","count":59,"key":"lang","value":"te"},{"title":"मराठी","count":58,"key":"lang","value":"mr"},{"title":"മലയാളം","count":57,"key":"lang","value":"ml"},{"title":"فارسی","count":51,"key":"lang","value":"fa"},{"title":"Hrvatski","count":30,"key":"lang","value":"hr"},{"title":"မြန်မာ","count":25,"key":"lang","value":"my"},{"title":"Български","count":21,"key":"lang","value":"bg"},{"title":"Melayu","count":21,"key":"lang","value":"ms"},{"title":"Čeština","count":20,"key":"lang","value":"cs"},{"title":"Norsk bokmål","count":20,"key":"lang","value":"nb"},{"title":"Српски","count":20,"key":"lang","value":"sr"},{"title":"ქართული","count":19,"key":"lang","value":"ka"},{"title":"Tagalog","count":17,"key":"lang","value":"tl"},{"title":"ગુજરાતી","count":14,"key":"lang","value":"gu"},{"title":"Soomaali","count":14,"key":"lang","value":"so"},{"title":"Svenska","count":14,"key":"lang","value":"sv"},{"title":"Afrikaans","count":13,"key":"lang","value":"af"},{"title":"नेपाली","count":13,"key":"lang","value":"ne"},{"title":"Shqip","count":11,"key":"lang","value":"sq"},{"title":"Eesti","count":10,"key":"lang","value":"et"},{"title":"ಕನ್ನಡ","count":10,"key":"lang","value":"kn"},{"title":"Slovenčina","count":10,"key":"lang","value":"sk"},{"title":"Қазақ тілі","count":9,"key":"lang","value":"kk"},{"title":"Latviešu","count":9,"key":"lang","value":"lv"},{"title":"O‘zbek","count":9,"key":"lang","value":"uz"},{"title":"Dansk","count":8,"key":"lang","value":"da"},{"title":"Suomi","count":8,"key":"lang","value":"fi"},{"title":"Lietuvių","count":8,"key":"lang","value":"lt"},{"title":"Kurdish","count":7,"key":"lang","value":"ku"},{"title":"Gaeilge","count":6,"key":"lang","value":"ga"},{"title":"Kiswahili","count":5,"key":"lang","value":"sw"},{"title":"Català","count":4,"key":"lang","value":"ca"},{"title":"ਪੰਜਾਬੀ","count":4,"key":"lang","value":"pa"},{"title":"پښتو","count":4,"key":"lang","value":"ps"},{"title":"Slovenščina","count":4,"key":"lang","value":"sl"},{"title":"Haitian Creole","count":3,"key":"lang","value":"ht"},{"title":"Հայերեն","count":3,"key":"lang","value":"hy"},{"title":"ខ្មែរ","count":3,"key":"lang","value":"km"},{"title":"Монгол","count":3,"key":"lang","value":"mn"},{"title":"Runasimi","count":3,"key":"lang","value":"qu"},{"title":"Guarani","count":2,"key":"lang","value":"gn"},{"title":"Sanskrit","count":2,"key":"lang","value":"sa"},{"title":"Euskara","count":1,"key":"lang","value":"eu"},{"title":"Македонски","count":1,"key":"lang","value":"mk"},{"title":"Тоҷикӣ","count":1,"key":"lang","value":"tg"},{"title":"Xhosa","count":1,"key":"lang","value":"xh"},{"title":"IsiZulu","count":1,"key":"lang","value":"zu"}]},{"title":"Ratings","key":"ratings","options":[{"title":"4.5 & up","count":10000,"key":"ratings","value":"4.5"},{"title":"4.0 & up","count":10000,"key":"ratings","value":"4.0"},{"title":"3.5 & up","count":10000,"key":"ratings","value":"3.5"},{"title":"3.0 & up","count":10000,"key":"ratings","value":"3.0"}]},{"title":"Video Duration","key":"duration","options":[{"title":"0-1 Hour","count":10000,"key":"duration","value":"extraShort"},{"title":"1-3 Hours","count":10000,"key":"duration","value":"short"},{"title":"3-6 Hours","count":10000,"key":"duration","value":"medium"},{"title":"6-17 Hours","count":10000,"key":"duration","value":"long"},{"title":"17+ Hours","count":10000,"key":"duration","value":"extraLong"}]}]}