{"count":10000,"next":"https://www.udemy.com/api-2.0/courses/?page=6&page_size=12&price=free-paid","previous":"https://www.udemy.com/api-2.0/courses/?page=4&page_size=12&price=free-paid","results":[{"_class":"course","id":341182,"title":"Meet your brain: a short introduction to neuroscience","url":"/course/meet-your-brain/","is_paid":false,"price":"Free","price_detail":null,"price_serve_tracking_id":"7s3KimsoSaGqCilSqApIIg","visible_instructors":[{"_class":"user","id":7010472,"title":"Gregory Caremans - Brain Academy","name":"Gregory Caremans -","display_name":"Gregory Caremans - Brain Academy","job_title":"Neurocognitive and Behavioral Expert","image_50x50":"https://img-c.udemycdn.com/user/50x50/7010472_fcc1_6.jpg","image_100x100":"https://img-c.udemycdn.com/user/100x100/7010472_fcc1_6.jpg","initials":"GB","url":"/user/gregorycaremans/"}],"image_125_H":"https://img-c.udemycdn.com/course/125_H/341182_c447_7.jpg","image_240x135":"https://img-c.udemycdn.com/course/240x135/341182_c447_7.jpg","is_practice_test_course":false,"image_480x270":"https://img-c.udemycdn.com/course/480x270/341182_c447_7.jpg","published_title":"meet-your-brain","tracking_id":"","locale":{"_class":"locale","locale":"en_US","title":"English (US)","english_title":"English (US)","simple_english_title":"English"},"predictive_score":null,"relevancy_score":null,"input_features":null,"lecture_search_result":null,"curriculum_lectures":[],"order_in_results":null,"curriculum_items":[],"headline":"Psychology and science. Discover how 4 brainstructures control our emotions and decisions","instructor_name":null},{"_class":"course","id":131416,"title":"Hyperthinking: improve your day to day learning & creativity","url":"/course/hyperthinking-upgrade-your-mind-to-success-on-business/","is_paid":false,"price":"Free","price_detail":null,"price_serve_tracking_id":"t-WaZuYoT8--HD_AMd3duw","visible_instructors":[{"_class":"user","id":806449,"title":"Digital Masterclass - Online Series","name":"Digital Masterclass","display_name":"Digital Masterclass - Online Series","job_title":"","image_50x50":"https://img-c.udemycdn.com/user/50x50/806449_1ee9_2.jpg","image_100x100":"https://img-c.udemycdn.com/user/100x100/806449_1ee9_2.jpg","initials":"D-","url":"/user/carlos125/"},{"_class":"user","id":156168,"title":"Philip Weiss","name":"Philip","display_name":"Philip Weiss","job_title":null,"image_50x50":"https://img-c.udemycdn.com/user/50x50/156168_db38_2.jpg","image_100x100":"https://img-c.udemycdn.com/user/100x100/156168_db38_2.jpg","initials":"PW","url":"/user/philipweiss/"}],"image_125_H":"https://img-c.udemycdn.com/course/125_H/131416_fadd_5.jpg","image_240x135":"https://img-c.udemycdn.com/course/240x135/131416_fadd_5.jpg","is_practice_test_course":false,"image_480x270":"https://img-c.udemycdn.com/course/480x270/131416_fadd_5.jpg","published_title":"hyperthinking-upgrade-your-mind-to-success-on-business","tracking_id":"","locale":{"_class":"locale","locale":"en_US","title":"English (US)","english_title":"English (US)","simple_english_title":"English"},"predictive_score":null,"relevancy_score":null,"input_features":null,"lecture_search_result":null,"curriculum_lectures":[],"order_in_results":null,"curriculum_items":[],"headline":"Train your mind for success with the right thinking tools and habits!","instructor_name":null},{"_class":"course","id":580342,"title":"How to Use SMART Goals: Achieve More in Less Time","url":"/course/goal-setting/","is_paid":false,"price":"Free","price_detail":null,"price_serve_tracking_id":"7BAQP_TZRrqeedYi8FvTnw","visible_instructors":[{"_class":"user","id":465373,"title":"Richard Feenstra","name":"Richard","display_name":"Richard Feenstra","job_title":"Over 200,000 students","image_50x50":"https://img-c.udemycdn.com/user/50x50/465373_217e_4.jpg","image_100x100":"https://img-c.udemycdn.com/user/100x100/465373_217e_4.jpg","initials":"RF","url":"/user/richardfeenstra/"}],"image_125_H":"https://img-c.udemycdn.com/course/125_H/580342_b14d_2.jpg","image_240x135":"https://img-c.udemycdn.com/course/240x135/580342_b14d_2.jpg","is_practice_test_course":false,"image_480x270":"https://img-c.udemycdn.com/course/480x270/580342_b14d_2.jpg","published_title":"goal-setting","tracking_id":"","locale":{"_class":"locale","locale":"en_US","title":"English (US)","english_title":"English (US)","simple_english_title":"English"},"predictive_score":null,"relevancy_score":null,"input_features":null,"lecture_search_result":null,"curriculum_lectures":[],"order_in_results":null,"curriculum_items":[],"headline":"Use a proven goal setting strategy to increase your productivity, leadership and management skills. Achieve more today.","instructor_name":null},{"_class":"course","id":2580542,"title":"Sing Like A Pro: The Free Mini Course","url":"/course/sing-like-a-pro-the-free-mini-course/","is_paid":false,"price":"Free","price_detail":null,"price_serve_tracking_id":"Eo6UNW9YTouHqVoqJLLyQw","visible_instructors":[{"_class":"user","id":81619225,"title":"Katarina Petric","name":"Katarina","display_name":"Katarina Petric","job_title":"Vocal Coach","image_50x50":"https://img-c.udemycdn.com/user/50x50/81619225_ed9c_6.jpg","image_100x100":"https://img-c.udemycdn.com/user/100x100/81619225_ed9c_6.jpg","initials":"KP","url":"/user/katarina-petric-2/"}],"image_125_H":"https://img-c.udemycdn.com/course/125_H/2580542_2188.jpg","image_240x135":"https://img-c.udemycdn.com/course/240x135/2580542_2188.jpg","is_practice_test_course":false,"image_480x270":"https://img-c.udemycdn.com/course/480x270/2580542_2188.jpg","published_title":"sing-like-a-pro-the-free-mini-course","tracking_id":"","locale":{"_class":"locale","locale":"en_US","title":"English (US)","english_title":"English (US)","simple_english_title":"English"},"predictive_score":null,"relevancy_score":null,"input_features":null,"lecture_search_result":null,"curriculum_lectures":[],"order_in_results":null,"curriculum_items":[],"headline":"Explore main vocal registers and improve your singing!","instructor_name":null},{"_class":"course","id":2674318,"title":"FREE Affiliate Marketing Course for Beginners","url":"/course/free-affiliate-marketing-course-for-beginners/","is_paid":false,"price":"Free","price_detail":null,"price_serve_tracking_id":"zX_4tSipQlmUR7VUVgcWvg","visible_instructors":[{"_class":"user","id":22836646,"title":"Tyler Stokes","name":"Tyler","display_name":"Tyler Stokes","job_title":"Affiliate Marketing Coach","image_50x50":"https://img-c.udemycdn.com/user/50x50/22836646_2052_2.jpg","image_100x100":"https://img-c.udemycdn.com/user/100x100/22836646_2052_2.jpg","initials":"TS","url":"/user/tyler-stokes/"}],"image_125_H":"https://img-c.udemycdn.com/course/125_H/2674318_f2a6_4.jpg","image_240x135":"https://img-c.udemycdn.com/course/240x135/2674318_f2a6_4.jpg","is_practice_test_course":false,"image_480x270":"https://img-c.udemycdn.com/course/480x270/2674318_f2a6_4.jpg","published_title":"free-affiliate-marketing-course-for-beginners","tracking_id":"","locale":{"_class":"locale","locale":"en_US","title":"English (US)","english_title":"English (US)","simple_english_title":"English"},"predictive_score":null,"relevancy_score":null,"input_features":null,"lecture_search_result":null,"curriculum_lectures":[],"order_in_results":null,"curriculum_items":[],"headline":"The Easiest Way to Make Money With Affiliate Marketing (Download the 5 Step Blueprint)","instructor_name":null},{"_class":"course","id":3231569,"title":"Python for linear algebra (for absolute beginners)","url":"/course/test-the-pyla-waters/","is_paid":false,"price":"Free","price_detail":null,"price_serve_tracking_id":"EhDfaT-eRTGFqrjhFGZHKw","visible_instructors":[{"_class":"user","title":"Mike X Cohen","name":"Mike X","display_name":"Mike X Cohen","job_title":"Educator and writer","image_50x50":"https://img-b.udemycdn.com/user/50x50/37969484_bca7_9.jpg","image_100x100":"https://img-b.udemycdn.com/user/100x100/37969484_bca7_9.jpg","initials":"MC","url":"/user/mike-x-cohen/"}],"image_125_H":"https://img-c.udemycdn.com/course/125_H/3231569_bf57_3.jpg","image_240x135":"https://img-c.udemycdn.com/course/240x135/3231569_bf57_3.jpg","is_practice_test_course":false,"image_480x270":"https://img-c.udemycdn.com/course/480x270/3231569_bf57_3.jpg","published_title":"test-the-pyla-waters","tracking_id":"","locale":{"_class":"locale","locale":"en_US","title":"English (US)","english_title":"English (US)","simple_english_title":"English"},"predictive_score":null,"relevancy_score":null,"input_features":null,"lecture_search_result":null,"curriculum_lectures":[],"order_in_results":null,"curriculum_items":[],"headline":"Dip your feet into the amazing world of using Python code to understand vectors and matrices.","instructor_name":null},{"_class":"course","id":605006,"title":"Start Kali Linux, Ethical Hacking and Penetration Testing!","url":"/course/ethical-hacker/","is_paid":false,"price":"Free","price_detail":null,"price_serve_tracking_id":"mL_8XcdkS9mkXDQj9_lwUg","visible_instructors":[{"_class":"user","title":"Ermin Kreponic","name":"Ermin","display_name":"Ermin Kreponic","job_title":"IT Expert","image_50x50":"https://img-b.udemycdn.com/user/50x50/10843730_f039_3.jpg","image_100x100":"https://img-b.udemycdn.com/user/100x100/10843730_f039_3.jpg","initials":"EK","url":"/user/erminkreponic/"},{"_class":"user","title":"Aldin Omerdic","name":"Aldin","display_name":"Aldin Omerdic","job_title":"IT Expert, Entrepreneur","image_50x50":"https://img-b.udemycdn.com/user/50x50/17969846_fd5b.jpg","image_100x100":"https://img-b.udemycdn.com/user/100x100/17969846_fd5b.jpg","initials":"AO","url":"/user/aldin-omerdic/"}],"image_125_H":"https://img-c.udemycdn.com/course/125_H/605006_c578_3.jpg","image_240x135":"https://img-c.udemycdn.com/course/240x135/605006_c578_3.jpg","is_practice_test_course":false,"image_480x270":"https://img-c.udemycdn.com/course/480x270/605006_c578_3.jpg","published_title":"ethical-hacker","tracking_id":"","locale":{"_class":"locale","locale":"en_US","title":"English (US)","english_title":"English (US)","simple_english_title":"English"},"predictive_score":null,"relevancy_score":null,"input_features":null,"lecture_search_result":null,"curriculum_lectures":[],"order_in_results":null,"curriculum_items":[],"headline":"Learn the basics of ethical hacking, penetration testing, web testing and wifi hacking in kali linux!","instructor_name":null},{"_class":"course","id":1298462,"title":"Photoshop Fundamentals","url":"/course/photoshop-fundamentals-in-one-hour/","is_paid":false,"price":"Free","price_detail":null,"price_serve_tracking_id":"gor4IH3GRw-KO7ZKgMXyCQ","visible_instructors":[{"_class":"user","id":10663828,"title":"Hardy Fowler","name":"Hardy","display_name":"Hardy Fowler","job_title":"Professional Illustrator & Concept Artist","image_50x50":"https://img-c.udemycdn.com/user/50x50/10663828_2f0b_2.jpg","image_100x100":"https://img-c.udemycdn.com/user/100x100/10663828_2f0b_2.jpg","initials":"HF","url":"/user/hardyfowler/"}],"image_125_H":"https://img-c.udemycdn.com/course/125_H/1298462_38dd.jpg","image_240x135":"https://img-c.udemycdn.com/course/240x135/1298462_38dd.jpg","is_practice_test_course":false,"image_480x270":"https://img-c.udemycdn.com/course/480x270/1298462_38dd.jpg","published_title":"photoshop-fundamentals-in-one-hour","tracking_id":"","locale":{"_class":"locale","locale":"en_US","title":"English (US)","english_title":"English (US)","simple_english_title":"English"},"predictive_score":null,"relevancy_score":null,"input_features":null,"lecture_search_result":null,"curriculum_lectures":[],"order_in_results":null,"curriculum_items":[],"headline":"The power of the digital art standard at your finger tips","instructor_name":null},{"_class":"course","id":466000,"title":"SEO Tutorial for Beginners","url":"/course/seo-tutorial/","is_paid":false,"price":"Free","price_detail":null,"price_serve_tracking_id":"_QjpAnqYQBeCcQuacQKU9g","visible_instructors":[{"_class":"user","id":1800590,"title":"Daragh Walsh","name":"Daragh","display_name":"Daragh Walsh","job_title":"Join 1 Million Students In My Best Selling Courses!","image_50x50":"https://img-c.udemycdn.com/user/50x50/1800590_e000_5.jpg","image_100x100":"https://img-c.udemycdn.com/user/100x100/1800590_e000_5.jpg","initials":"DW","url":"/user/daraghmichaelw/"}],"image_125_H":"https://img-c.udemycdn.com/course/125_H/466000_ba10.jpg","image_240x135":"https://img-c.udemycdn.com/course/240x135/466000_ba10.jpg","is_practice_test_course":false,"image_480x270":"https://img-c.udemycdn.com/course/480x270/466000_ba10.jpg","published_title":"seo-tutorial","tracking_id":"","locale":{"_class":"locale","locale":"en_US","title":"English (US)","english_title":"English (US)","simple_english_title":"English"},"predictive_score":null,"relevancy_score":null,"input_features":null,"lecture_search_result":null,"curriculum_lectures":[],"order_in_results":null,"curriculum_items":[],"headline":"Learn the basics to SEO Optimise Your Site, Get to the Top of Google and Increase Sales!","instructor_name":null},{"_class":"course","id":2223252,"title":"Build a Quiz App with HTML, CSS, and JavaScript","url":"/course/build-a-quiz-app-with-html-css-and-javascript/","is_paid":false,"price":"Free","price_detail":null,"price_serve_tracking_id":"rBUmATryS56PYqbetzWMjQ","visible_instructors":[{"_class":"user","title":"James Quick","name":"James","display_name":"James Quick","job_title":"Developer. Speaker. Teacher.","image_50x50":"https://img-b.udemycdn.com/user/50x50/14528206_1993_4.jpg","image_100x100":"https://img-b.udemycdn.com/user/100x100/14528206_1993_4.jpg","initials":"JQ","url":"/user/james-quick/"}],"image_125_H":"https://img-c.udemycdn.com/course/125_H/2223252_0708.jpg","image_240x135":"https://img-c.udemycdn.com/course/240x135/2223252_0708.jpg","is_practice_test_course":false,"image_480x270":"https://img-c.udemycdn.com/course/480x270/2223252_0708.jpg","published_title":"build-a-quiz-app-with-html-css-and-javascript","tracking_id":"","locale":{"_class":"locale","locale":"en_US","title":"English (US)","english_title":"English (US)","simple_english_title":"English"},"predictive_score":null,"relevancy_score":null,"input_features":null,"lecture_search_result":null,"curriculum_lectures":[],"order_in_results":null,"curriculum_items":[],"headline":"Improve your core development skills by building a Quiz App with HTML, CSS, and JavaScript","instructor_name":null},{"_class":"course","id":133536,"title":"Stock Market Investing for Beginners","url":"/course/the-beginners-guide-to-the-stock-market/","is_paid":false,"price":"Free","price_detail":null,"price_serve_tracking_id":"oiTNCk_9RzeeHhueoBcsxw","visible_instructors":[{"_class":"user","id":2777200,"title":"John Ducas","name":"John","display_name":"John Ducas","job_title":"","image_50x50":"https://img-c.udemycdn.com/user/50x50/2777200_d790_5.jpg","image_100x100":"https://img-c.udemycdn.com/user/100x100/2777200_d790_5.jpg","initials":"JD","url":"/user/johnducas/"}],"image_125_H":"https://img-c.udemycdn.com/course/125_H/133536_a292_11.jpg","image_240x135":"https://img-c.udemycdn.com/course/240x135/133536_a292_11.jpg","is_practice_test_course":false,"image_480x270":"https://img-c.udemycdn.com/course/480x270/133536_a292_11.jpg","published_title":"the-beginners-guide-to-the-stock-market","tracking_id":"","locale":{"_class":"locale","locale":"en_US","title":"English (US)","english_title":"English (US)","simple_english_title":"English"},"predictive_score":null,"relevancy_score":null,"input_features":null,"lecture_search_result":null,"curriculum_lectures":[],"order_in_results":null,"curriculum_items":[],"headline":"Learn all the Basics of the Stock Market, through comprehensive, interesting and fun lectures!","instructor_name":null},{"_class":"course","id":1716470,"title":"Free Digital Marketing Basics Course","url":"/course/free-digital-marketing-basics-course/","is_paid":false,"price":"Free","price_detail":null,"price_serve_tracking_id":"1OuPorizT5WHGj-B-B8Slw","visible_instructors":[{"_class":"user","id":38111280,"title":"Sorav Jain","name":"Sorav","display_name":"Sorav Jain","job_title":"Instagram Influencer (@soravjain)","image_50x50":"https://img-c.udemycdn.com/user/50x50/38111280_7681.jpg","image_100x100":"https://img-c.udemycdn.com/user/100x100/38111280_7681.jpg","initials":"SJ","url":"/user/sorav-jain/"}],"image_125_H":"https://img-c.udemycdn.com/course/125_H/1716470_63ab_3.jpg","image_240x135":"https://img-c.udemycdn.com/course/240x135/1716470_63ab_3.jpg","is_practice_test_course":false,"image_480x270":"https://img-c.udemycdn.com/course/480x270/1716470_63ab_3.jpg","published_title":"free-digital-marketing-basics-course","tracking_id":"","locale":{"_class":"locale","locale":"en_US","title":"English (US)","english_title":"English (US)","simple_english_title":"English"},"predictive_score":null,"relevancy_score":null,"input_features":null,"lecture_search_result":null,"curriculum_lectures":[],"order_in_results":null,"curriculum_items":[],"headline":"Become Great at Digital Marketing","instructor_name":null}],"aggregations":[{"title":"Price","key":"price","options":[{"title":"Paid","count":10000,"key":"price","value":"price-paid"},{"title":"Free","count":10000,"key":"price","value":"price-free"}]},{"title":"Level","key":"instructional_level","options":[{"title":"All Levels","count":10000,"key":"instructional_level","value":"all"},{"title":"Beginner","count":10000,"key":"instructional_level","value":"beginner"},{"title":"Intermediate","count":10000,"key":"instructional_level","value":"intermediate"},{"title":"Expert","count":4963,"key":"instructional_level","value":"expert"}]},{"title":"Features","key":"features","options":[{"title":"Subtitles","count":10000,"key":"features","value":"has_closed_caption"},{"title":"Quizzes","count":10000,"key":"features","value":"has_simple_quiz"},{"title":"Coding Exercises","count":1479,"key":"features","value":"has_coding_exercises"},{"title":"Practice Tests","count":10000,"key":"features","value":"has_practice_test"}]},{"title":"Language","key":"language","options":[{"title":"English","count":10000,"key":"lang","value":"en"},{"title":"Português","count":10000,"key":"lang","value":"pt"},{"title":"Español","count":10000,"key":"lang","value":"es"},{"title":"Türkçe","count":9456,"key":"lang","value":"tr"},{"title":"日本語","count":8293,"key":"lang","value":"ja"},{"title":"Deutsch","count":6528,"key":"lang","value":"de"},{"title":"Français","count":6410,"key":"lang","value":"fr"},{"title":"العربية","count":6106,"key":"lang","value":"ar"},{"title":"Italiano","count":4015,"key":"lang","value":"it"},{"title":"中文","count":3502,"key":"lang","value":"zh"},{"title":"한국어","count":3072,"key":"lang","value":"ko"},{"title":"Русский","count":2510,"key":"lang","value":"ru"},{"title":"हिन्दी","count":2109,"key":"lang","value":"hi"},{"title":"Bahasa Indonesia","count":2007,"key":"lang","value":"id"},{"title":"Polski","count":1820,"key":"lang","value":"pl"},{"title":"Tiếng Việt","count":513,"key":"lang","value":"vi"},{"title":"اردو","count":511,"key":"lang","value":"ur"},{"title":"ไทย","count":387,"key":"lang","value":"th"},{"title":"Nederlands","count":379,"key":"lang","value":"nl"},{"title":"Română","count":367,"key":"lang","value":"ro"},{"title":"தமிழ்","count":298,"key":"lang","value":"ta"},{"title":"עברית","count":127,"key":"lang","value":"he"},{"title":"Українська","count":115,"key":"lang","value":"uk"},{"title":"বাংলা","count":104,"key":"lang","value":"bn"},{"title":"Azərbaycan","count":98,"key":"lang","value":"az"},{"title":"Ελληνικά","count":94,"key":"lang","value":"el"},{"title":"Magyar","count":81,"key":"lang","value":"hu"},{"title":"తెలుగు","count":59,"key":"lang","value":"te"},{"title":"मराठी","count":58,"key":"lang","value":"mr"},{"title":"മലയാളം","count":57,"key":"lang","value":"ml"},{"title":"فارسی","count":51,"key":"lang","value":"fa"},{"title":"Hrvatski","count":30,"key":"lang","value":"hr"},{"title":"မြန်မာ","count":25,"key":"lang","value":"my"},{"title":"Български","count":21,"key":"lang","value":"bg"},{"title":"Melayu","count":21,"key":"lang","value":"ms"},{"title":"Čeština","count":20,"key":"lang","value":"cs"},{"title":"Norsk bokmål","count":20,"key":"lang","value":"nb"},{"title":"Српски","count":20,"key":"lang","value":"sr"},{"title":"ქართული","count":19,"key":"lang","value":"ka"},{"title":"Tagalog","count":17,"key":"lang","value":"tl"},{"title":"ગુજરાતી","count":14,"key":"lang","value":"gu"},{"title":"Soomaali","count":14,"key":"lang","value":"so"},{"title":"Svenska","count":14,"key":"lang","value":"sv"},{"title":"Afrikaans","count":13,"key":"lang","value":"af"},{"title":"नेपाली","count":13,"key":"lang","value":"ne"},{"title":"Shqip","count":11,"key":"lang","value":"sq"},{"title":"Eesti","count":10,"key":"lang","value":"et"},{"title":"ಕನ್ನಡ","count":10,"key":"lang","value":"kn"},{"title":"Slovenčina","count":10,"key":"lang","value":"sk"},{"title":"Қазақ тілі","count":9,"key":"lang","value":"kk"},{"title":"Latviešu","count":9,"key":"lang","value":"lv"},{"title":"O‘zbek","count":9,"key":"lang","value":"uz"},{"title":"Dansk","count":8,"key":"lang","value":"da"},{"title":"Suomi","count":8,"key":"lang","value":"fi"},{"title":"Lietuvių","count":8,"key":"lang","value":"lt"},{"title":"Kurdish","count":7,"key":"lang","value":"ku"},{"title":"Gaeilge","count":6,"key":"lang","value":"ga"},{"title":"Kiswahili","count":5,"key":"lang","value":"sw"},{"title":"Català","count":4,"key":"lang","value":"ca"},{"title":"ਪੰਜਾਬੀ","count":4,"key":"lang","value":"pa"},{"title":"پښتو","count":4,"key":"lang","value":"ps"},{"title":"Slovenščina","count":4,"key":"lang","value":"sl"},{"title":"Haitian Creole","count":3,"key":"lang","value":"ht"},{"title":"Հայերեն","count":3,"key":"lang","value":"hy"},{"title":"ខ្មែរ","count":3,"key":"lang","value":"km"},{"title":"Монгол","count":3,"key":"lang","value":"mn"},{"title":"Runasimi","count":3,"key":"lang","value":"qu"},{"title":"Guarani","count":2,"key":"lang","value":"gn"},{"title":"Sanskrit","count":2,"key":"lang","value":"sa"},{"title":"Euskara","count":1,"key":"lang","value":"eu"},{"title":"Македонски","count":1,"key":"lang","value":"mk"},{"title":"Тоҷикӣ","count":1,"key":"lang","value":"tg"},{"title":"Xhosa","count":1,"key":"lang","value":"xh"},{"title":"IsiZulu","count":1,"key":"lang","value":"zu"}]},{"title":"Ratings","key":"ratings","options":[{"title":"4.5 & up","count":10000,"key":"ratings","value":"4.5"},{"title":"4.0 & up","count":10000,"key":"ratings","value":"4.0"},{"title":"3.5 & up","count":10000,"key":"ratings","value":"3.5"},{"title":"3.0 & up","count":10000,"key":"ratings","value":"3.0"}]},{"title":"Video Duration","key":"duration","options":[{"title":"0-1 Hour","count":10000,"key":"duration","value":"extraShort"},{"title":"1-3 Hours","count":10000,"key":"duration","value":"short"},{"title":"3-6 Hours","count":10000,"key":"duration","value":"medium"},{"title":"6-17 Hours","count":10000,"key":"duration","value":"long"},{"title":"17+ Hours","count":10000,"key":"duration","value":"extraLong"}]}]}