{"count":10000,"next":"https://www.udemy.com/api-2.0/courses/?page=2&page_size=12&price=free-paid","previous":null,"results":[{"_class":"course","id":473160,"title":"Web Design for Web Developers: Build Beautiful Websites!","url":"/course/web-design-secrets/","is_paid":false,"price":"Free","price_detail":null,"price_serve_tracking_id":"r0-aw_sSRsKWCCYO2RySrA","visible_instructors":[{"_class":"user","title":"Jonas Schmedtmann","name":"Jonas","display_name":"Jonas Schmedtmann","job_title":"Web Developer, Designer, and Teacher","image_50x50":"https://img-c.udemycdn.com/user/50x50/7799204_2091_5.jpg","image_100x100":"https://img-c.udemycdn.com/user/100x100/7799204_2091_5.jpg","initials":"JS","url":"/user/jonasschmedtmann/"}],"image_125_H":"https://img-c.udemycdn.com/course/125_H/473160_d929_3.jpg","image_240x135":"https://img-c.udemycdn.com/course/240x135/473160_d929_3.jpg","is_practice_test_course":false,"image_480x270":"https://img-c.udemycdn.com/course/480x270/473160_d929_3.jpg","published_title":"web-design-secrets","tracking_id":"","locale":{"_class":"locale","locale":"en_US","title":"English (US)","english_title":"English (US)","simple_english_title":"English"},"predictive_score":null,"relevancy_score":null,"input_features":null,"lecture_search_result":null,"curriculum_lectures":[],"order_in_results":null,"curriculum_items":[],"headline":"Learn web design in 1 hour with 25+ simple-to-use rules and guidelines — tons of amazing web design resources included!","instructor_name":null},{"_class":"course","id":4077322,"title":"How to Create an Online Course: The Official Udemy Course","url":"/course/official-udemy-create-course/","is_paid":false,"price":"Free","price_detail":null,"price_serve_tracking_id":"g1MBvfe3SEyOMtRIogf7YA","visible_instructors":[{"_class":"user","title":"Udemy Instructor Team","name":"Udemy","display_name":"Udemy Instructor Team","job_title":"Official Udemy Instructor Account","image_50x50":"https://img-c.udemycdn.com/user/50x50/137060_54c1_14.jpg","image_100x100":"https://img-c.udemycdn.com/user/100x100/137060_54c1_14.jpg","initials":"UI","url":"/user/udemymanager/"}],"image_125_H":"https://img-c.udemycdn.com/course/125_H/4077322_a979_4.jpg","image_240x135":"https://img-c.udemycdn.com/course/240x135/4077322_a979_4.jpg","is_practice_test_course":false,"image_480x270":"https://img-c.udemycdn.com/course/480x270/4077322_a979_4.jpg","published_title":"official-udemy-create-course","tracking_id":"","locale":{"_class":"locale","locale":"en_US","title":"English (US)","english_title":"English (US)","simple_english_title":"English"},"predictive_score":null,"relevancy_score":null,"input_features":null,"lecture_search_result":null,"curriculum_lectures":[],"order_in_results":null,"curriculum_items":[],"headline":"Use our recommended best practices to plan, produce, and publish a well-designed, high quality Udemy course","instructor_name":null},{"_class":"course","id":433798,"title":"Introduction To Python Programming","url":"/course/pythonforbeginnersintro/","is_paid":false,"price":"Free","price_detail":null,"price_serve_tracking_id":"iPcgjI7sQPibTVWIOarCxg","visible_instructors":[{"_class":"user","title":"Avinash Jain","name":"Avinash","display_name":"Avinash Jain","job_title":"Taught 1 million students how to code","image_50x50":"https://img-c.udemycdn.com/user/50x50/10260436_946b_6.jpg","image_100x100":"https://img-c.udemycdn.com/user/100x100/10260436_946b_6.jpg","initials":"AJ","url":"/user/avinashjain5/"},{"_class":"user","title":"The Codex","name":"The","display_name":"The Codex","job_title":"Teaching Python through Projects","image_50x50":"https://img-c.udemycdn.com/user/50x50/52310762_220a.jpg","image_100x100":"https://img-c.udemycdn.com/user/100x100/52310762_220a.jpg","initials":"TC","url":"/user/thecodex/"}],"image_125_H":"https://img-c.udemycdn.com/course/125_H/433798_1de9_4.jpg","image_240x135":"https://img-c.udemycdn.com/course/240x135/433798_1de9_4.jpg","is_practice_test_course":false,"image_480x270":"https://img-c.udemycdn.com/course/480x270/433798_1de9_4.jpg","published_title":"pythonforbeginnersintro","tracking_id":"","locale":{"_class":"locale","locale":"en_US","title":"English (US)","english_title":"English (US)","simple_english_title":"English"},"predictive_score":null,"relevancy_score":null,"input_features":null,"lecture_search_result":null,"curriculum_lectures":[],"order_in_results":null,"curriculum_items":[],"headline":"A Quick and Easy Intro to Python Programming","instructor_name":null},{"_class":"course","id":53600,"title":"Useful Excel for Beginners","url":"/course/useful-excel-for-beginners/","is_paid":false,"price":"Free","price_detail":null,"price_serve_tracking_id":"zJAQp5fjSsaeIEzM-x8h6A","visible_instructors":[{"_class":"user","title":"Dinesh Natarajan Mohan","name":"Dinesh","display_name":"Dinesh Natarajan Mohan","job_title":"Sharing simple but effective solutions","image_50x50":"https://img-c.udemycdn.com/user/50x50/766769_faf7_6.jpg","image_100x100":"https://img-c.udemycdn.com/user/100x100/766769_faf7_6.jpg","initials":"DN","url":"/user/indzara/"}],"image_125_H":"https://img-c.udemycdn.com/course/125_H/53600_553c_4.jpg","image_240x135":"https://img-c.udemycdn.com/course/240x135/53600_553c_4.jpg","is_practice_test_course":false,"image_480x270":"https://img-c.udemycdn.com/course/480x270/53600_553c_4.jpg","published_title":"useful-excel-for-beginners","tracking_id":"","locale":{"_class":"locale","locale":"en_IN","title":"English (India)","english_title":"English (India)","simple_english_title":"English"},"predictive_score":null,"relevancy_score":null,"input_features":null,"lecture_search_result":null,"curriculum_lectures":[],"order_in_results":null,"curriculum_items":[],"headline":"Learn the basics of Microsoft Excel and become an effective user","instructor_name":null},{"_class":"course","id":5798868,"title":"Google Gemini AI with Python API - Quick Start","url":"/course/google-gemini-ai-with-python-api/","is_paid":false,"price":"Free","price_detail":null,"price_serve_tracking_id":"nGc7nhO4TGa4-0IM-BIaTg","visible_instructors":[{"_class":"user","title":"Jose Portilla","name":"Jose","display_name":"Jose Portilla","job_title":"Head of Data Science at Pierian Training","image_50x50":"https://img-c.udemycdn.com/user/50x50/9685726_67e7_4.jpg","image_100x100":"https://img-c.udemycdn.com/user/100x100/9685726_67e7_4.jpg","initials":"JP","url":"/user/joseportilla/"}],"image_125_H":"https://img-c.udemycdn.com/course/125_H/5798868_61e3_2.jpg","image_240x135":"https://img-c.udemycdn.com/course/240x135/5798868_61e3_2.jpg","is_practice_test_course":false,"image_480x270":"https://img-c.udemycdn.com/course/480x270/5798868_61e3_2.jpg","published_title":"google-gemini-ai-with-python-api","tracking_id":"","locale":{"_class":"locale","locale":"en_US","title":"English (US)","english_title":"English (US)","simple_english_title":"English"},"predictive_score":null,"relevancy_score":null,"input_features":null,"lecture_search_result":null,"curriculum_lectures":[],"order_in_results":null,"curriculum_items":[],"headline":"Learn how to leverage Google's powerful new Gemini AI model in just two hours!","instructor_name":null},{"_class":"course","id":1331946,"title":"Amazon Web Services (AWS) - Zero to Hero","url":"/course/amazon-web-services-aws-v/","is_paid":false,"price":"Free","price_detail":null,"price_serve_tracking_id":"pPv1efiHR76zyT2Xba4v1Q","visible_instructors":[{"_class":"user","title":"BackSpace Academy","name":"BackSpace","display_name":"BackSpace Academy","job_title":"The fastest route to cloud certification.","image_50x50":"https://img-c.udemycdn.com/user/50x50/27829848_1d83.jpg","image_100x100":"https://img-c.udemycdn.com/user/100x100/27829848_1d83.jpg","initials":"BA","url":"/user/backspace-academy/"}],"image_125_H":"https://img-c.udemycdn.com/course/125_H/1331946_ed41_4.jpg","image_240x135":"https://img-c.udemycdn.com/course/240x135/1331946_ed41_4.jpg","is_practice_test_course":false,"image_480x270":"https://img-c.udemycdn.com/course/480x270/1331946_ed41_4.jpg","published_title":"amazon-web-services-aws-v","tracking_id":"","locale":{"_class":"locale","locale":"en_US","title":"English (US)","english_title":"English (US)","simple_english_title":"English"},"predictive_score":null,"relevancy_score":null,"input_features":null,"lecture_search_result":null,"curriculum_lectures":[],"order_in_results":null,"curriculum_items":[],"headline":"Beginners, Zero to Hero. AWS EC2 web server, NodeJS Server, AWS RDS database server, S3, SES & CloudWatch. FREE","instructor_name":null},{"_class":"course","id":24823,"title":"Java Tutorial for Complete Beginners","url":"/course/java-tutorial/","is_paid":false,"price":"Free","price_detail":null,"price_serve_tracking_id":"rthvIrCfRCSyWAcIUNvg5g","visible_instructors":[{"_class":"user","title":"John Purcell","name":"John","display_name":"John Purcell","job_title":"Software Development Trainer","image_50x50":"https://img-c.udemycdn.com/user/50x50/219513_a344_6.jpg","image_100x100":"https://img-c.udemycdn.com/user/100x100/219513_a344_6.jpg","initials":"JP","url":"/user/johnpurcell/"}],"image_125_H":"https://img-c.udemycdn.com/course/125_H/24823_963e_14.jpg","image_240x135":"https://img-c.udemycdn.com/course/240x135/24823_963e_14.jpg","is_practice_test_course":false,"image_480x270":"https://img-c.udemycdn.com/course/480x270/24823_963e_14.jpg","published_title":"java-tutorial","tracking_id":"","locale":{"_class":"locale","locale":"en_GB","title":"English (UK)","english_title":"English (UK)","simple_english_title":"English"},"predictive_score":null,"relevancy_score":null,"input_features":null,"lecture_search_result":null,"curriculum_lectures":[],"order_in_results":null,"curriculum_items":[],"headline":"Learn to program using the Java programming language","instructor_name":null},{"_class":"course","id":5512420,"title":"ChatGPT Quick Guide - Prompt Engineering, Plugins, and more!","url":"/course/chatgpt-quick-guide-prompt-engineering-plugins-and-more/","is_paid":false,"price":"Free","price_detail":null,"price_serve_tracking_id":"gaGyJ2UvQSWWxgwQqJ9DHw","visible_instructors":[{"_class":"user","title":"Jose Portilla","name":"Jose","display_name":"Jose Portilla","job_title":"Head of Data Science at Pierian Training","image_50x50":"https://img-c.udemycdn.com/user/50x50/9685726_67e7_4.jpg","image_100x100":"https://img-c.udemycdn.com/user/100x100/9685726_67e7_4.jpg","initials":"JP","url":"/user/joseportilla/"}],"image_125_H":"https://img-c.udemycdn.com/course/125_H/5512420_3119_2.jpg","image_240x135":"https://img-c.udemycdn.com/course/240x135/5512420_3119_2.jpg","is_practice_test_course":false,"image_480x270":"https://img-c.udemycdn.com/course/480x270/5512420_3119_2.jpg","published_title":"chatgpt-quick-guide-prompt-engineering-plugins-and-more","tracking_id":"","locale":{"_class":"locale","locale":"en_US","title":"English (US)","english_title":"English (US)","simple_english_title":"English"},"predictive_score":null,"relevancy_score":null,"input_features":null,"lecture_search_result":null,"curriculum_lectures":[],"order_in_results":null,"curriculum_items":[],"headline":"In just 2 hours supercharge your ChatGPT skills with plugins, the code interpreter, and prompt engineering!","instructor_name":null},{"_class":"course","id":780078,"title":"How to speak to anyone & be fearless - in less than 55 min","url":"/course/fearless-public-speaker-bootcamp-by-ricky-mendoza/","is_paid":false,"price":"Free","price_detail":null,"price_serve_tracking_id":"sYUcAD71TY6_EaOxajW95Q","visible_instructors":[{"_class":"user","title":"Ricardo Mendoza","name":"Ricardo","display_name":"Ricardo Mendoza","job_title":"Founder of Digital Work Studios and Interpretap","image_50x50":"https://img-c.udemycdn.com/user/50x50/8678100_c955_2.jpg","image_100x100":"https://img-c.udemycdn.com/user/100x100/8678100_c955_2.jpg","initials":"RM","url":"/user/ricardomendoza9/"}],"image_125_H":"https://img-c.udemycdn.com/course/125_H/780078_e409_2.jpg","image_240x135":"https://img-c.udemycdn.com/course/240x135/780078_e409_2.jpg","is_practice_test_course":false,"image_480x270":"https://img-c.udemycdn.com/course/480x270/780078_e409_2.jpg","published_title":"fearless-public-speaker-bootcamp-by-ricky-mendoza","tracking_id":"","locale":{"_class":"locale","locale":"en_US","title":"English (US)","english_title":"English (US)","simple_english_title":"English"},"predictive_score":null,"relevancy_score":null,"input_features":null,"lecture_search_result":null,"curriculum_lectures":[],"order_in_results":null,"curriculum_items":[],"headline":"Learn to quickly connect with crowds of strangers, be better on dates or ace that job interview.","instructor_name":null},{"_class":"course","id":5741978,"title":"Master Gemini AI - Google Bard Prompt Engineering Bootcamp","url":"/course/master-gemini-ai-google-bard-prompt-engineering-bootcamp/","is_paid":false,"price":"Free","price_detail":null,"price_serve_tracking_id":"E3n8CVTxQXmoVOuD8prCEw","visible_instructors":[{"_class":"user","title":"Jose Portilla","name":"Jose","display_name":"Jose Portilla","job_title":"Head of Data Science at Pierian Training","image_50x50":"https://img-c.udemycdn.com/user/50x50/9685726_67e7_4.jpg","image_100x100":"https://img-c.udemycdn.com/user/100x100/9685726_67e7_4.jpg","initials":"JP","url":"/user/joseportilla/"}],"image_125_H":"https://img-c.udemycdn.com/course/125_H/5741978_bb2b_2.jpg","image_240x135":"https://img-c.udemycdn.com/course/240x135/5741978_bb2b_2.jpg","is_practice_test_course":false,"image_480x270":"https://img-c.udemycdn.com/course/480x270/5741978_bb2b_2.jpg","published_title":"master-gemini-ai-google-bard-prompt-engineering-bootcamp","tracking_id":"","locale":{"_class":"locale","locale":"en_US","title":"English (US)","english_title":"English (US)","simple_english_title":"English"},"predictive_score":null,"relevancy_score":null,"input_features":null,"lecture_search_result":null,"curriculum_lectures":[],"order_in_results":null,"curriculum_items":[],"headline":"Learn the power of Google's Gemini Models with Bard and get the latest skills in AI!","instructor_name":null},{"_class":"course","id":3633804,"title":"How to Learn: Effective Approaches for Self-Guided Learning","url":"/course/how-to-learn-effective-approaches-for-self-guided-learning/","is_paid":false,"price":"Free","price_detail":null,"price_serve_tracking_id":"da22HSnTTGytn8mt3yB1Jg","visible_instructors":[{"_class":"user","title":"Padraig Nash","name":"Padraig","display_name":"Padraig Nash","job_title":"Director of Learning Science and Instructional Design","image_50x50":"https://img-c.udemycdn.com/user/50x50/111614824_961e.jpg","image_100x100":"https://img-c.udemycdn.com/user/100x100/111614824_961e.jpg","initials":"PN","url":"/user/padraig-nash/"}],"image_125_H":"https://img-c.udemycdn.com/course/125_H/3633804_2d54_2.jpg","image_240x135":"https://img-c.udemycdn.com/course/240x135/3633804_2d54_2.jpg","is_practice_test_course":false,"image_480x270":"https://img-c.udemycdn.com/course/480x270/3633804_2d54_2.jpg","published_title":"how-to-learn-effective-approaches-for-self-guided-learning","tracking_id":"","locale":{"_class":"locale","locale":"en_US","title":"English (US)","english_title":"English (US)","simple_english_title":"English"},"predictive_score":null,"relevancy_score":null,"input_features":null,"lecture_search_result":null,"curriculum_lectures":[],"order_in_results":null,"curriculum_items":[],"headline":"Discover learning best practices, including setting goals, practicing & applying, reflecting, and learning with others.","instructor_name":null},{"_class":"course","id":552672,"title":"Introduction to Databases and SQL Querying","url":"/course/introduction-to-databases-and-sql-querying/","is_paid":false,"price":"Free","price_detail":null,"price_serve_tracking_id":"FcOMy0HBRhCoHs3xqA-a-A","visible_instructors":[{"_class":"user","title":"Rakesh Gopalakrishnan","name":"Rakesh","display_name":"Rakesh Gopalakrishnan","job_title":"Over 600,000 Students","image_50x50":"https://img-c.udemycdn.com/user/50x50/9912714_deb0_2.jpg","image_100x100":"https://img-c.udemycdn.com/user/100x100/9912714_deb0_2.jpg","initials":"RG","url":"/user/54a6020bb2e0e/"}],"image_125_H":"https://img-c.udemycdn.com/course/125_H/552672_e2b6_5.jpg","image_240x135":"https://img-c.udemycdn.com/course/240x135/552672_e2b6_5.jpg","is_practice_test_course":false,"image_480x270":"https://img-c.udemycdn.com/course/480x270/552672_e2b6_5.jpg","published_title":"introduction-to-databases-and-sql-querying","tracking_id":"","locale":{"_class":"locale","locale":"en_US","title":"English (US)","english_title":"English (US)","simple_english_title":"English"},"predictive_score":null,"relevancy_score":null,"input_features":null,"lecture_search_result":null,"curriculum_lectures":[],"order_in_results":null,"curriculum_items":[],"headline":"A step by step introduction to the concept of Databases and Introduction to SQL Querying.","instructor_name":null}],"aggregations":[{"title":"Price","key":"price","options":[{"title":"Paid","count":10000,"key":"price","value":"price-paid"},{"title":"Free","count":10000,"key":"price","value":"price-free"}]},{"title":"Level","key":"instructional_level","options":[{"title":"All Levels","count":10000,"key":"instructional_level","value":"all"},{"title":"Beginner","count":10000,"key":"instructional_level","value":"beginner"},{"title":"Intermediate","count":10000,"key":"instructional_level","value":"intermediate"},{"title":"Expert","count":4963,"key":"instructional_level","value":"expert"}]},{"title":"Features","key":"features","options":[{"title":"Subtitles","count":10000,"key":"features","value":"has_closed_caption"},{"title":"Quizzes","count":10000,"key":"features","value":"has_simple_quiz"},{"title":"Coding Exercises","count":1479,"key":"features","value":"has_coding_exercises"},{"title":"Practice Tests","count":10000,"key":"features","value":"has_practice_test"}]},{"title":"Language","key":"language","options":[{"title":"English","count":10000,"key":"lang","value":"en"},{"title":"Português","count":10000,"key":"lang","value":"pt"},{"title":"Español","count":10000,"key":"lang","value":"es"},{"title":"Türkçe","count":9456,"key":"lang","value":"tr"},{"title":"日本語","count":8293,"key":"lang","value":"ja"},{"title":"Deutsch","count":6528,"key":"lang","value":"de"},{"title":"Français","count":6410,"key":"lang","value":"fr"},{"title":"العربية","count":6106,"key":"lang","value":"ar"},{"title":"Italiano","count":4015,"key":"lang","value":"it"},{"title":"中文","count":3502,"key":"lang","value":"zh"},{"title":"한국어","count":3072,"key":"lang","value":"ko"},{"title":"Русский","count":2510,"key":"lang","value":"ru"},{"title":"हिन्दी","count":2109,"key":"lang","value":"hi"},{"title":"Bahasa Indonesia","count":2007,"key":"lang","value":"id"},{"title":"Polski","count":1820,"key":"lang","value":"pl"},{"title":"Tiếng Việt","count":513,"key":"lang","value":"vi"},{"title":"اردو","count":511,"key":"lang","value":"ur"},{"title":"ไทย","count":387,"key":"lang","value":"th"},{"title":"Nederlands","count":379,"key":"lang","value":"nl"},{"title":"Română","count":367,"key":"lang","value":"ro"},{"title":"தமிழ்","count":298,"key":"lang","value":"ta"},{"title":"עברית","count":127,"key":"lang","value":"he"},{"title":"Українська","count":115,"key":"lang","value":"uk"},{"title":"বাংলা","count":104,"key":"lang","value":"bn"},{"title":"Azərbaycan","count":98,"key":"lang","value":"az"},{"title":"Ελληνικά","count":94,"key":"lang","value":"el"},{"title":"Magyar","count":81,"key":"lang","value":"hu"},{"title":"తెలుగు","count":59,"key":"lang","value":"te"},{"title":"मराठी","count":58,"key":"lang","value":"mr"},{"title":"മലയാളം","count":57,"key":"lang","value":"ml"},{"title":"فارسی","count":51,"key":"lang","value":"fa"},{"title":"Hrvatski","count":30,"key":"lang","value":"hr"},{"title":"မြန်မာ","count":25,"key":"lang","value":"my"},{"title":"Български","count":21,"key":"lang","value":"bg"},{"title":"Melayu","count":21,"key":"lang","value":"ms"},{"title":"Čeština","count":20,"key":"lang","value":"cs"},{"title":"Norsk bokmål","count":20,"key":"lang","value":"nb"},{"title":"Српски","count":20,"key":"lang","value":"sr"},{"title":"ქართული","count":19,"key":"lang","value":"ka"},{"title":"Tagalog","count":17,"key":"lang","value":"tl"},{"title":"ગુજરાતી","count":14,"key":"lang","value":"gu"},{"title":"Soomaali","count":14,"key":"lang","value":"so"},{"title":"Svenska","count":14,"key":"lang","value":"sv"},{"title":"Afrikaans","count":13,"key":"lang","value":"af"},{"title":"नेपाली","count":13,"key":"lang","value":"ne"},{"title":"Shqip","count":11,"key":"lang","value":"sq"},{"title":"Eesti","count":10,"key":"lang","value":"et"},{"title":"ಕನ್ನಡ","count":10,"key":"lang","value":"kn"},{"title":"Slovenčina","count":10,"key":"lang","value":"sk"},{"title":"Қазақ тілі","count":9,"key":"lang","value":"kk"},{"title":"Latviešu","count":9,"key":"lang","value":"lv"},{"title":"O‘zbek","count":9,"key":"lang","value":"uz"},{"title":"Dansk","count":8,"key":"lang","value":"da"},{"title":"Suomi","count":8,"key":"lang","value":"fi"},{"title":"Lietuvių","count":8,"key":"lang","value":"lt"},{"title":"Kurdish","count":7,"key":"lang","value":"ku"},{"title":"Gaeilge","count":6,"key":"lang","value":"ga"},{"title":"Kiswahili","count":5,"key":"lang","value":"sw"},{"title":"Català","count":4,"key":"lang","value":"ca"},{"title":"ਪੰਜਾਬੀ","count":4,"key":"lang","value":"pa"},{"title":"پښتو","count":4,"key":"lang","value":"ps"},{"title":"Slovenščina","count":4,"key":"lang","value":"sl"},{"title":"Haitian Creole","count":3,"key":"lang","value":"ht"},{"title":"Հայերեն","count":3,"key":"lang","value":"hy"},{"title":"ខ្មែរ","count":3,"key":"lang","value":"km"},{"title":"Монгол","count":3,"key":"lang","value":"mn"},{"title":"Runasimi","count":3,"key":"lang","value":"qu"},{"title":"Guarani","count":2,"key":"lang","value":"gn"},{"title":"Sanskrit","count":2,"key":"lang","value":"sa"},{"title":"Euskara","count":1,"key":"lang","value":"eu"},{"title":"Македонски","count":1,"key":"lang","value":"mk"},{"title":"Тоҷикӣ","count":1,"key":"lang","value":"tg"},{"title":"Xhosa","count":1,"key":"lang","value":"xh"},{"title":"IsiZulu","count":1,"key":"lang","value":"zu"}]},{"title":"Ratings","key":"ratings","options":[{"title":"4.5 & up","count":10000,"key":"ratings","value":"4.5"},{"title":"4.0 & up","count":10000,"key":"ratings","value":"4.0"},{"title":"3.5 & up","count":10000,"key":"ratings","value":"3.5"},{"title":"3.0 & up","count":10000,"key":"ratings","value":"3.0"}]},{"title":"Video Duration","key":"duration","options":[{"title":"0-1 Hour","count":10000,"key":"duration","value":"extraShort"},{"title":"1-3 Hours","count":10000,"key":"duration","value":"short"},{"title":"3-6 Hours","count":10000,"key":"duration","value":"medium"},{"title":"6-17 Hours","count":10000,"key":"duration","value":"long"},{"title":"17+ Hours","count":10000,"key":"duration","value":"extraLong"}]}]}