{"count":10000,"next":"https://www.udemy.com/api-2.0/courses/?page=9&page_size=12&price=free-paid","previous":"https://www.udemy.com/api-2.0/courses/?page=7&page_size=12&price=free-paid","results":[{"_class":"course","id":1506978,"title":"14-day English language fluency course","url":"/course/14-day-english-language-fluency-course/","is_paid":false,"price":"Free","price_detail":null,"price_serve_tracking_id":"ztaC8wB3TLS93aMuuTSeSA","visible_instructors":[{"_class":"user","id":33924230,"title":"Joel South","name":"Joel","display_name":"Joel South","job_title":"ESOL teacher and language coach","image_50x50":"https://img-c.udemycdn.com/user/50x50/33924230_1827.jpg","image_100x100":"https://img-c.udemycdn.com/user/100x100/33924230_1827.jpg","initials":"JS","url":"/user/joel-south-2/"}],"image_125_H":"https://img-c.udemycdn.com/course/125_H/1506978_22dc_2.jpg","image_240x135":"https://img-c.udemycdn.com/course/240x135/1506978_22dc_2.jpg","is_practice_test_course":false,"image_480x270":"https://img-c.udemycdn.com/course/480x270/1506978_22dc_2.jpg","published_title":"14-day-english-language-fluency-course","tracking_id":"","locale":{"_class":"locale","locale":"en_US","title":"English (US)","english_title":"English (US)","simple_english_title":"English"},"predictive_score":null,"relevancy_score":null,"input_features":null,"lecture_search_result":null,"curriculum_lectures":[],"order_in_results":null,"curriculum_items":[],"headline":"You will improve your spoken English in just 2 weeks!","instructor_name":null},{"_class":"course","id":4157784,"title":"Digital Marketing Essentials Masterclass","url":"/course/digital-marketing-101-complete-digital-marketing-course/","is_paid":false,"price":"Free","price_detail":null,"price_serve_tracking_id":"1olwZWtiTvOIlr9xLnwrHQ","visible_instructors":[{"_class":"user","id":22832252,"title":"IIDE - The Digital School","name":"IIDE -","display_name":"IIDE - The Digital School","job_title":"Professional Digital Marketing Courses by Top Experts","image_50x50":"https://img-c.udemycdn.com/user/50x50/22832252_8815_2.jpg","image_100x100":"https://img-c.udemycdn.com/user/100x100/22832252_8815_2.jpg","initials":"IT","url":"/user/iide-2/"}],"image_125_H":"https://img-c.udemycdn.com/course/125_H/4157784_e5ac_2.jpg","image_240x135":"https://img-c.udemycdn.com/course/240x135/4157784_e5ac_2.jpg","is_practice_test_course":false,"image_480x270":"https://img-c.udemycdn.com/course/480x270/4157784_e5ac_2.jpg","published_title":"digital-marketing-101-complete-digital-marketing-course","tracking_id":"","locale":{"_class":"locale","locale":"en_US","title":"English (US)","english_title":"English (US)","simple_english_title":"English"},"predictive_score":null,"relevancy_score":null,"input_features":null,"lecture_search_result":null,"curriculum_lectures":[],"order_in_results":null,"curriculum_items":[],"headline":"Learn the basics of Social Media Marketing, SEO, SEM, Facebook Marketing & more.","instructor_name":null},{"_class":"course","id":2914104,"title":"Acupressure 101 & Quick Fixes","url":"/course/acupressure-101-quick-fixes/","is_paid":false,"price":"Free","price_detail":null,"price_serve_tracking_id":"LoX9-Zk4T5OBpF5R7hgt6Q","visible_instructors":[{"_class":"user","id":84985312,"title":"Anish Jacob","name":"Anish","display_name":"Anish Jacob","job_title":"Acupressure Therapist & Yoga Instructor","image_50x50":"https://img-c.udemycdn.com/user/50x50/84985312_8f7b.jpg","image_100x100":"https://img-c.udemycdn.com/user/100x100/84985312_8f7b.jpg","initials":"AJ","url":"/user/anish-jacob-6/"}],"image_125_H":"https://img-c.udemycdn.com/course/125_H/2914104_92ae_2.jpg","image_240x135":"https://img-c.udemycdn.com/course/240x135/2914104_92ae_2.jpg","is_practice_test_course":false,"image_480x270":"https://img-c.udemycdn.com/course/480x270/2914104_92ae_2.jpg","published_title":"acupressure-101-quick-fixes","tracking_id":"","locale":{"_class":"locale","locale":"en_US","title":"English (US)","english_title":"English (US)","simple_english_title":"English"},"predictive_score":null,"relevancy_score":null,"input_features":null,"lecture_search_result":null,"curriculum_lectures":[],"order_in_results":null,"curriculum_items":[],"headline":"Quick fixes for Flu, Headache, Muscle Pain, Cough, Constipation, Allergies, Ulcers and other everyday issues","instructor_name":null},{"_class":"course","id":1122334,"title":"A Practical Introduction to Cloud Computing","url":"/course/introduction-cloud-computing/","is_paid":false,"price":"Free","price_detail":null,"price_serve_tracking_id":"tbNZ9WZLRG-UZqJm30qPGw","visible_instructors":[{"_class":"user","title":"Neil Anderson","name":"Neil","display_name":"Neil Anderson","job_title":"Building your Cloud and Data Center career","image_50x50":"https://img-b.udemycdn.com/user/50x50/31767132_ff0c_5.jpg","image_100x100":"https://img-b.udemycdn.com/user/100x100/31767132_ff0c_5.jpg","initials":"NA","url":"/user/10f3ef32-97d9-491d-bb7a-9e10677c3bd8/"}],"image_125_H":"https://img-c.udemycdn.com/course/125_H/1122334_3363_4.jpg","image_240x135":"https://img-c.udemycdn.com/course/240x135/1122334_3363_4.jpg","is_practice_test_course":false,"image_480x270":"https://img-c.udemycdn.com/course/480x270/1122334_3363_4.jpg","published_title":"introduction-cloud-computing","tracking_id":"","locale":{"_class":"locale","locale":"en_US","title":"English (US)","english_title":"English (US)","simple_english_title":"English"},"predictive_score":null,"relevancy_score":null,"input_features":null,"lecture_search_result":null,"curriculum_lectures":[],"order_in_results":null,"curriculum_items":[],"headline":"Cloud Computing made simple with real world practical examples","instructor_name":null},{"_class":"course","id":2602800,"title":"SAP Overview","url":"/course/sap-overview/","is_paid":false,"price":"Free","price_detail":null,"price_serve_tracking_id":"zMbIdu0wRKmfCfyhkI4uNQ","visible_instructors":[{"_class":"user","title":"SAP  Buddy","name":"SAP ","display_name":"SAP  Buddy","job_title":"SAP Consultant, Trainer at SAPBuddy","image_50x50":"https://img-b.udemycdn.com/user/50x50/4536356_e42b_6.jpg","image_100x100":"https://img-b.udemycdn.com/user/100x100/4536356_e42b_6.jpg","initials":"SB","url":"/user/sapbuddy/"}],"image_125_H":"https://img-c.udemycdn.com/course/125_H/2602800_1cab.jpg","image_240x135":"https://img-c.udemycdn.com/course/240x135/2602800_1cab.jpg","is_practice_test_course":false,"image_480x270":"https://img-c.udemycdn.com/course/480x270/2602800_1cab.jpg","published_title":"sap-overview","tracking_id":"","locale":{"_class":"locale","locale":"en_US","title":"English (US)","english_title":"English (US)","simple_english_title":"English"},"predictive_score":null,"relevancy_score":null,"input_features":null,"lecture_search_result":null,"curriculum_lectures":[],"order_in_results":null,"curriculum_items":[],"headline":"Introduction to SAP","instructor_name":null},{"_class":"course","id":838602,"title":"AWS Certified Solutions Architect Associate Introduction","url":"/course/aws-certified-solutions-architect-associate-in-30-days/","is_paid":false,"price":"Free","price_detail":null,"price_serve_tracking_id":"rzN80_SbTeeCy1lHybi64g","visible_instructors":[{"_class":"user","title":"Premraj Jeyaprakash","name":"Premraj","display_name":"Premraj Jeyaprakash","job_title":"Specializing in DevOps and CI/CD Automation Frameworks","image_50x50":"https://img-c.udemycdn.com/user/50x50/22370754_b54c_2.jpg","image_100x100":"https://img-c.udemycdn.com/user/100x100/22370754_b54c_2.jpg","initials":"PJ","url":"/user/premraj-jeyaprakash/"}],"image_125_H":"https://img-c.udemycdn.com/course/125_H/838602_cf92_5.jpg","image_240x135":"https://img-c.udemycdn.com/course/240x135/838602_cf92_5.jpg","is_practice_test_course":false,"image_480x270":"https://img-c.udemycdn.com/course/480x270/838602_cf92_5.jpg","published_title":"aws-certified-solutions-architect-associate-in-30-days","tracking_id":"","locale":{"_class":"locale","locale":"en_US","title":"English (US)","english_title":"English (US)","simple_english_title":"English"},"predictive_score":null,"relevancy_score":null,"input_features":null,"lecture_search_result":null,"curriculum_lectures":[],"order_in_results":null,"curriculum_items":[],"headline":"Here is the proven approach that will show you how to become an AWS Certified Solutions Architect Associate in 30 Days","instructor_name":null},{"_class":"course","id":5663460,"title":"Python Deep Dive: Mastering Advanced Techniques","url":"/course/python-deep-dive-mastering-advanced-techniques/","is_paid":false,"price":"Free","price_detail":null,"price_serve_tracking_id":"MVUn7yuASIeQ_HhAHrJK5w","visible_instructors":[{"_class":"user","title":"Ingenium Academy","name":"Ingenium","display_name":"Ingenium Academy","job_title":"#1 place for math & science education online.","image_50x50":"https://img-c.udemycdn.com/user/50x50/211019832_fd81_2.jpg","image_100x100":"https://img-c.udemycdn.com/user/100x100/211019832_fd81_2.jpg","initials":"IA","url":"/user/ingenium-academy/"}],"image_125_H":"https://img-c.udemycdn.com/course/125_H/5663460_281c.jpg","image_240x135":"https://img-c.udemycdn.com/course/240x135/5663460_281c.jpg","is_practice_test_course":false,"image_480x270":"https://img-c.udemycdn.com/course/480x270/5663460_281c.jpg","published_title":"python-deep-dive-mastering-advanced-techniques","tracking_id":"","locale":{"_class":"locale","locale":"en_US","title":"English (US)","english_title":"English (US)","simple_english_title":"English"},"predictive_score":null,"relevancy_score":null,"input_features":null,"lecture_search_result":null,"curriculum_lectures":[],"order_in_results":null,"curriculum_items":[],"headline":"Unleashing the Power of Python with Advanced Techniques and Practices","instructor_name":null},{"_class":"course","id":5171788,"title":"Data Science Projects - Data Analysis & Machine Learning","url":"/course/data-science-projects-3/","is_paid":false,"price":"Free","price_detail":null,"price_serve_tracking_id":"bMO02g0ORj6U4ofLbBGKdA","visible_instructors":[{"_class":"user","title":"Onur Baltacı","name":"Onur","display_name":"Onur Baltacı","job_title":"Data Scientist","image_50x50":"https://img-c.udemycdn.com/user/50x50/116065712_b43d_7.jpg","image_100x100":"https://img-c.udemycdn.com/user/100x100/116065712_b43d_7.jpg","initials":"OB","url":"/user/onurbaltaci/"}],"image_125_H":"https://img-c.udemycdn.com/course/125_H/5171788_a71d_2.jpg","image_240x135":"https://img-c.udemycdn.com/course/240x135/5171788_a71d_2.jpg","is_practice_test_course":false,"image_480x270":"https://img-c.udemycdn.com/course/480x270/5171788_a71d_2.jpg","published_title":"data-science-projects-3","tracking_id":"","locale":{"_class":"locale","locale":"en_US","title":"English (US)","english_title":"English (US)","simple_english_title":"English"},"predictive_score":null,"relevancy_score":null,"input_features":null,"lecture_search_result":null,"curriculum_lectures":[],"order_in_results":null,"curriculum_items":[],"headline":"Learn how to build Data Science Projects with Python. Classification, Time-Series and NLP Projects. Not for beginners.","instructor_name":null},{"_class":"course","id":2275785,"title":"Basic Coding in JavaScript [2019]","url":"/course/javascript-basics-start-coding-in-5-minutes-2019/","is_paid":false,"price":"Free","price_detail":null,"price_serve_tracking_id":"GQ5nB7yvQBS-NVYppU7MNQ","visible_instructors":[{"_class":"user","title":"Zach Freedman","name":"Zach","display_name":"Zach Freedman","job_title":"Software Engineer","image_50x50":"https://img-c.udemycdn.com/user/50x50/12467290_a1f4.jpg","image_100x100":"https://img-c.udemycdn.com/user/100x100/12467290_a1f4.jpg","initials":"ZF","url":"/user/5539ab2518198/"}],"image_125_H":"https://img-c.udemycdn.com/course/125_H/2275785_e90a_2.jpg","image_240x135":"https://img-c.udemycdn.com/course/240x135/2275785_e90a_2.jpg","is_practice_test_course":false,"image_480x270":"https://img-c.udemycdn.com/course/480x270/2275785_e90a_2.jpg","published_title":"javascript-basics-start-coding-in-5-minutes-2019","tracking_id":"","locale":{"_class":"locale","locale":"en_US","title":"English (US)","english_title":"English (US)","simple_english_title":"English"},"predictive_score":null,"relevancy_score":null,"input_features":null,"lecture_search_result":null,"curriculum_lectures":[],"order_in_results":null,"curriculum_items":[],"headline":"Have fun while learning how to program a computer","instructor_name":null},{"_class":"course","id":4766882,"title":"Complete Introduction into Digital Marketing for Beginners","url":"/course/digital-marketing-2023/","is_paid":false,"price":"Free","price_detail":null,"price_serve_tracking_id":"ZIr6XWBkQ2WSLzFDX2CBdw","visible_instructors":[{"_class":"user","id":42603214,"title":"Ing. Tomas Moravek","name":"Ing. Tomas","display_name":"Ing. Tomas Moravek","job_title":"Awarded SEO & Meta Advertising Expert | 900,000+ Students","image_50x50":"https://img-c.udemycdn.com/user/50x50/42603214_f6c9_5.jpg","image_100x100":"https://img-c.udemycdn.com/user/100x100/42603214_f6c9_5.jpg","initials":"IM","url":"/user/ing-tomas-moravek-2/"},{"_class":"user","id":80579746,"title":"Learn Digital Advertising","name":"Learn","display_name":"Learn Digital Advertising","job_title":"ChatGPT, Gemini AI, Copywriting, Google Ads, Meta Ads, SEO","image_50x50":"https://img-c.udemycdn.com/user/50x50/80579746_8e0c_2.jpg","image_100x100":"https://img-c.udemycdn.com/user/100x100/80579746_8e0c_2.jpg","initials":"LD","url":"/user/seo-facebook-ads-digital-marketing-academy/"}],"image_125_H":"https://img-c.udemycdn.com/course/125_H/4766882_a6df_4.jpg","image_240x135":"https://img-c.udemycdn.com/course/240x135/4766882_a6df_4.jpg","is_practice_test_course":false,"image_480x270":"https://img-c.udemycdn.com/course/480x270/4766882_a6df_4.jpg","published_title":"digital-marketing-2023","tracking_id":"","locale":{"_class":"locale","locale":"en_US","title":"English (US)","english_title":"English (US)","simple_english_title":"English"},"predictive_score":null,"relevancy_score":null,"input_features":null,"lecture_search_result":null,"curriculum_lectures":[],"order_in_results":null,"curriculum_items":[],"headline":"Introduction into Digital Marketing, Social Media, & SEO. HQ Voice Over. Animated Explainers Making Learning Easy & Fun.","instructor_name":null},{"_class":"course","id":1158610,"title":"AWS Developer Associate training","url":"/course/aws-developer-associate-training/","is_paid":false,"price":"Free","price_detail":null,"price_serve_tracking_id":"MAO02DqUQRy_f5KvTY4nlQ","visible_instructors":[{"_class":"user","title":"Alan Rodrigues","name":"Alan","display_name":"Alan Rodrigues","job_title":"Software Engineering Evangelist","image_50x50":"https://img-c.udemycdn.com/user/50x50/25858272_3f5e_4.jpg","image_100x100":"https://img-c.udemycdn.com/user/100x100/25858272_3f5e_4.jpg","initials":"AR","url":"/user/b6837a38-3380-4c15-8cd9-aabb118793df/"}],"image_125_H":"https://img-c.udemycdn.com/course/125_H/1158610_55c2_2.jpg","image_240x135":"https://img-c.udemycdn.com/course/240x135/1158610_55c2_2.jpg","is_practice_test_course":false,"image_480x270":"https://img-c.udemycdn.com/course/480x270/1158610_55c2_2.jpg","published_title":"aws-developer-associate-training","tracking_id":"","locale":{"_class":"locale","locale":"en_US","title":"English (US)","english_title":"English (US)","simple_english_title":"English"},"predictive_score":null,"relevancy_score":null,"input_features":null,"lecture_search_result":null,"curriculum_lectures":[],"order_in_results":null,"curriculum_items":[],"headline":"AWS Developer services course","instructor_name":null},{"_class":"course","id":1298438,"title":"Art Fundamentals - Building Blocks of Digital Painting","url":"/course/art-fundamentals-in-one-hour/","is_paid":false,"price":"Free","price_detail":null,"price_serve_tracking_id":"p5LqwzeUSe2C_LRUbKuoLQ","visible_instructors":[{"_class":"user","id":10663828,"title":"Hardy Fowler","name":"Hardy","display_name":"Hardy Fowler","job_title":"Professional Illustrator & Concept Artist","image_50x50":"https://img-c.udemycdn.com/user/50x50/10663828_2f0b_2.jpg","image_100x100":"https://img-c.udemycdn.com/user/100x100/10663828_2f0b_2.jpg","initials":"HF","url":"/user/hardyfowler/"}],"image_125_H":"https://img-c.udemycdn.com/course/125_H/1298438_2631.jpg","image_240x135":"https://img-c.udemycdn.com/course/240x135/1298438_2631.jpg","is_practice_test_course":false,"image_480x270":"https://img-c.udemycdn.com/course/480x270/1298438_2631.jpg","published_title":"art-fundamentals-in-one-hour","tracking_id":"","locale":{"_class":"locale","locale":"en_US","title":"English (US)","english_title":"English (US)","simple_english_title":"English"},"predictive_score":null,"relevancy_score":null,"input_features":null,"lecture_search_result":null,"curriculum_lectures":[],"order_in_results":null,"curriculum_items":[],"headline":"A beginner's guide to the building blocks of digital art","instructor_name":null}],"aggregations":[{"title":"Price","key":"price","options":[{"title":"Paid","count":10000,"key":"price","value":"price-paid"},{"title":"Free","count":10000,"key":"price","value":"price-free"}]},{"title":"Level","key":"instructional_level","options":[{"title":"All Levels","count":10000,"key":"instructional_level","value":"all"},{"title":"Beginner","count":10000,"key":"instructional_level","value":"beginner"},{"title":"Intermediate","count":10000,"key":"instructional_level","value":"intermediate"},{"title":"Expert","count":4963,"key":"instructional_level","value":"expert"}]},{"title":"Features","key":"features","options":[{"title":"Subtitles","count":10000,"key":"features","value":"has_closed_caption"},{"title":"Quizzes","count":10000,"key":"features","value":"has_simple_quiz"},{"title":"Coding Exercises","count":1479,"key":"features","value":"has_coding_exercises"},{"title":"Practice Tests","count":10000,"key":"features","value":"has_practice_test"}]},{"title":"Language","key":"language","options":[{"title":"English","count":10000,"key":"lang","value":"en"},{"title":"Português","count":10000,"key":"lang","value":"pt"},{"title":"Español","count":10000,"key":"lang","value":"es"},{"title":"Türkçe","count":9456,"key":"lang","value":"tr"},{"title":"日本語","count":8293,"key":"lang","value":"ja"},{"title":"Deutsch","count":6528,"key":"lang","value":"de"},{"title":"Français","count":6410,"key":"lang","value":"fr"},{"title":"العربية","count":6106,"key":"lang","value":"ar"},{"title":"Italiano","count":4015,"key":"lang","value":"it"},{"title":"中文","count":3502,"key":"lang","value":"zh"},{"title":"한국어","count":3072,"key":"lang","value":"ko"},{"title":"Русский","count":2510,"key":"lang","value":"ru"},{"title":"हिन्दी","count":2109,"key":"lang","value":"hi"},{"title":"Bahasa Indonesia","count":2007,"key":"lang","value":"id"},{"title":"Polski","count":1820,"key":"lang","value":"pl"},{"title":"Tiếng Việt","count":513,"key":"lang","value":"vi"},{"title":"اردو","count":511,"key":"lang","value":"ur"},{"title":"ไทย","count":387,"key":"lang","value":"th"},{"title":"Nederlands","count":379,"key":"lang","value":"nl"},{"title":"Română","count":367,"key":"lang","value":"ro"},{"title":"தமிழ்","count":298,"key":"lang","value":"ta"},{"title":"עברית","count":127,"key":"lang","value":"he"},{"title":"Українська","count":115,"key":"lang","value":"uk"},{"title":"বাংলা","count":104,"key":"lang","value":"bn"},{"title":"Azərbaycan","count":98,"key":"lang","value":"az"},{"title":"Ελληνικά","count":94,"key":"lang","value":"el"},{"title":"Magyar","count":81,"key":"lang","value":"hu"},{"title":"తెలుగు","count":59,"key":"lang","value":"te"},{"title":"मराठी","count":58,"key":"lang","value":"mr"},{"title":"മലയാളം","count":57,"key":"lang","value":"ml"},{"title":"فارسی","count":51,"key":"lang","value":"fa"},{"title":"Hrvatski","count":30,"key":"lang","value":"hr"},{"title":"မြန်မာ","count":25,"key":"lang","value":"my"},{"title":"Български","count":21,"key":"lang","value":"bg"},{"title":"Melayu","count":21,"key":"lang","value":"ms"},{"title":"Čeština","count":20,"key":"lang","value":"cs"},{"title":"Norsk bokmål","count":20,"key":"lang","value":"nb"},{"title":"Српски","count":20,"key":"lang","value":"sr"},{"title":"ქართული","count":19,"key":"lang","value":"ka"},{"title":"Tagalog","count":17,"key":"lang","value":"tl"},{"title":"ગુજરાતી","count":14,"key":"lang","value":"gu"},{"title":"Soomaali","count":14,"key":"lang","value":"so"},{"title":"Svenska","count":14,"key":"lang","value":"sv"},{"title":"Afrikaans","count":13,"key":"lang","value":"af"},{"title":"नेपाली","count":13,"key":"lang","value":"ne"},{"title":"Shqip","count":11,"key":"lang","value":"sq"},{"title":"Eesti","count":10,"key":"lang","value":"et"},{"title":"ಕನ್ನಡ","count":10,"key":"lang","value":"kn"},{"title":"Slovenčina","count":10,"key":"lang","value":"sk"},{"title":"Қазақ тілі","count":9,"key":"lang","value":"kk"},{"title":"Latviešu","count":9,"key":"lang","value":"lv"},{"title":"O‘zbek","count":9,"key":"lang","value":"uz"},{"title":"Dansk","count":8,"key":"lang","value":"da"},{"title":"Suomi","count":8,"key":"lang","value":"fi"},{"title":"Lietuvių","count":8,"key":"lang","value":"lt"},{"title":"Kurdish","count":7,"key":"lang","value":"ku"},{"title":"Gaeilge","count":6,"key":"lang","value":"ga"},{"title":"Kiswahili","count":5,"key":"lang","value":"sw"},{"title":"Català","count":4,"key":"lang","value":"ca"},{"title":"ਪੰਜਾਬੀ","count":4,"key":"lang","value":"pa"},{"title":"پښتو","count":4,"key":"lang","value":"ps"},{"title":"Slovenščina","count":4,"key":"lang","value":"sl"},{"title":"Haitian Creole","count":3,"key":"lang","value":"ht"},{"title":"Հայերեն","count":3,"key":"lang","value":"hy"},{"title":"ខ្មែរ","count":3,"key":"lang","value":"km"},{"title":"Монгол","count":3,"key":"lang","value":"mn"},{"title":"Runasimi","count":3,"key":"lang","value":"qu"},{"title":"Guarani","count":2,"key":"lang","value":"gn"},{"title":"Sanskrit","count":2,"key":"lang","value":"sa"},{"title":"Euskara","count":1,"key":"lang","value":"eu"},{"title":"Македонски","count":1,"key":"lang","value":"mk"},{"title":"Тоҷикӣ","count":1,"key":"lang","value":"tg"},{"title":"Xhosa","count":1,"key":"lang","value":"xh"},{"title":"IsiZulu","count":1,"key":"lang","value":"zu"}]},{"title":"Ratings","key":"ratings","options":[{"title":"4.5 & up","count":10000,"key":"ratings","value":"4.5"},{"title":"4.0 & up","count":10000,"key":"ratings","value":"4.0"},{"title":"3.5 & up","count":10000,"key":"ratings","value":"3.5"},{"title":"3.0 & up","count":10000,"key":"ratings","value":"3.0"}]},{"title":"Video Duration","key":"duration","options":[{"title":"0-1 Hour","count":10000,"key":"duration","value":"extraShort"},{"title":"1-3 Hours","count":10000,"key":"duration","value":"short"},{"title":"3-6 Hours","count":10000,"key":"duration","value":"medium"},{"title":"6-17 Hours","count":10000,"key":"duration","value":"long"},{"title":"17+ Hours","count":10000,"key":"duration","value":"extraLong"}]}]}