{"count":10000,"next":"https://www.udemy.com/api-2.0/courses/?page=8&page_size=12&price=free-paid","previous":"https://www.udemy.com/api-2.0/courses/?page=6&page_size=12&price=free-paid","results":[{"_class":"course","id":910996,"title":"Digital Body Language","url":"/course/digital-body-language/","is_paid":false,"price":"Free","price_detail":null,"price_serve_tracking_id":"aAG40byaQEaG0zfnBEhaEQ","visible_instructors":[{"_class":"user","id":570158,"title":"Vanessa Van Edwards","name":"Vanessa Van","display_name":"Vanessa Van Edwards","job_title":"Author and Behavioral Investigator","image_50x50":"https://img-c.udemycdn.com/user/50x50/570158_6de7_4.jpg","image_100x100":"https://img-c.udemycdn.com/user/100x100/570158_6de7_4.jpg","initials":"VE","url":"/user/vanessavanedwards/"}],"image_125_H":"https://img-c.udemycdn.com/course/125_H/910996_89bd_4.jpg","image_240x135":"https://img-c.udemycdn.com/course/240x135/910996_89bd_4.jpg","is_practice_test_course":false,"image_480x270":"https://img-c.udemycdn.com/course/480x270/910996_89bd_4.jpg","published_title":"digital-body-language","tracking_id":"","locale":{"_class":"locale","locale":"en_US","title":"English (US)","english_title":"English (US)","simple_english_title":"English"},"predictive_score":null,"relevancy_score":null,"input_features":null,"lecture_search_result":null,"curriculum_lectures":[],"order_in_results":null,"curriculum_items":[],"headline":"You will learn what your digital brand says about you through your social media pictures, website and more.","instructor_name":null},{"_class":"course","id":3479574,"title":"Free CCNA 200-301 Course: Network Fundamentals","url":"/course/free-ccna-200-301-network-fundamentals/","is_paid":false,"price":"Free","price_detail":null,"price_serve_tracking_id":"44EWnfu-TleKy8tRyNhbSw","visible_instructors":[{"_class":"user","title":"David Bombal","name":"David","display_name":"David Bombal","job_title":"CCIE #11023, over 15 years of network training experience","image_50x50":"https://img-b.udemycdn.com/user/50x50/794308_b2a6_5.jpg","image_100x100":"https://img-b.udemycdn.com/user/100x100/794308_b2a6_5.jpg","initials":"DB","url":"/user/davidbombal/"}],"image_125_H":"https://img-c.udemycdn.com/course/125_H/3479574_8fe8_2.jpg","image_240x135":"https://img-c.udemycdn.com/course/240x135/3479574_8fe8_2.jpg","is_practice_test_course":false,"image_480x270":"https://img-c.udemycdn.com/course/480x270/3479574_8fe8_2.jpg","published_title":"free-ccna-200-301-network-fundamentals","tracking_id":"","locale":{"_class":"locale","locale":"en_US","title":"English (US)","english_title":"English (US)","simple_english_title":"English"},"predictive_score":null,"relevancy_score":null,"input_features":null,"lecture_search_result":null,"curriculum_lectures":[],"order_in_results":null,"curriculum_items":[],"headline":"Learn about bridges, hubs, switches, routers, firewalls, servers, clients and many other network fundamentals.","instructor_name":null},{"_class":"course","id":1117528,"title":"Cyber Security Course for Beginners - Level 01","url":"/course/certified-secure-netizen/","is_paid":false,"price":"Free","price_detail":null,"price_serve_tracking_id":"nQDcgtPKQSCVrvNPbCIojg","visible_instructors":[{"_class":"user","title":"FourthWall Technologies","name":"FourthWall","display_name":"FourthWall Technologies","job_title":"A new age Cyber Security Firm","image_50x50":"https://img-b.udemycdn.com/user/50x50/29733350_565b_4.jpg","image_100x100":"https://img-b.udemycdn.com/user/100x100/29733350_565b_4.jpg","initials":"FT","url":"/user/fourthwall-technologies/"}],"image_125_H":"https://img-c.udemycdn.com/course/125_H/1117528_f38f.jpg","image_240x135":"https://img-c.udemycdn.com/course/240x135/1117528_f38f.jpg","is_practice_test_course":false,"image_480x270":"https://img-c.udemycdn.com/course/480x270/1117528_f38f.jpg","published_title":"certified-secure-netizen","tracking_id":"","locale":{"_class":"locale","locale":"en_US","title":"English (US)","english_title":"English (US)","simple_english_title":"English"},"predictive_score":null,"relevancy_score":null,"input_features":null,"lecture_search_result":null,"curriculum_lectures":[],"order_in_results":null,"curriculum_items":[],"headline":"Learn the Security Fundamentals required for your everyday online presence.","instructor_name":null},{"_class":"course","id":2862896,"title":"Best Practices for Working Remotely","url":"/course/quick-guide-to-working-remotely-from-vp-of-learning/","is_paid":false,"price":"Free","price_detail":null,"price_serve_tracking_id":"Rek9wbaFTDmZAn8f-_2c5w","visible_instructors":[{"_class":"user","id":32174108,"title":"Shelley Osborne","name":"Shelley","display_name":"Shelley Osborne","job_title":"Learning & Development Expert, Ed Tech Evangelist","image_50x50":"https://img-c.udemycdn.com/user/50x50/32174108_fd7b.jpg","image_100x100":"https://img-c.udemycdn.com/user/100x100/32174108_fd7b.jpg","initials":"SO","url":"/user/shelley-osborne-2/"}],"image_125_H":"https://img-c.udemycdn.com/course/125_H/2862896_e27d.jpg","image_240x135":"https://img-c.udemycdn.com/course/240x135/2862896_e27d.jpg","is_practice_test_course":false,"image_480x270":"https://img-c.udemycdn.com/course/480x270/2862896_e27d.jpg","published_title":"quick-guide-to-working-remotely-from-vp-of-learning","tracking_id":"","locale":{"_class":"locale","locale":"en_US","title":"English (US)","english_title":"English (US)","simple_english_title":"English"},"predictive_score":null,"relevancy_score":null,"input_features":null,"lecture_search_result":null,"curriculum_lectures":[],"order_in_results":null,"curriculum_items":[],"headline":"Join Shelley Osborne, VP of Learning, for her best tips to set yourself up for success when working from home.","instructor_name":null},{"_class":"course","id":1880132,"title":"Net DevOps: Cisco  Python, Automation, NETCONF, SDN, Docker","url":"/course/net-devops-cisco-python-automation-netconf-sdn-docker/","is_paid":false,"price":"Free","price_detail":null,"price_serve_tracking_id":"_iTOiuyJQJCDEFfvduoszg","visible_instructors":[{"_class":"user","title":"David Bombal","name":"David","display_name":"David Bombal","job_title":"CCIE #11023, over 15 years of network training experience","image_50x50":"https://img-c.udemycdn.com/user/50x50/794308_b2a6_5.jpg","image_100x100":"https://img-c.udemycdn.com/user/100x100/794308_b2a6_5.jpg","initials":"DB","url":"/user/davidbombal/"},{"_class":"user","title":"Experts with David Bombal","name":"Experts with David","display_name":"Experts with David Bombal","job_title":"Experts helping you become an expert.","image_50x50":"https://img-c.udemycdn.com/user/50x50/48912750_7f4a_2.jpg","image_100x100":"https://img-c.udemycdn.com/user/100x100/48912750_7f4a_2.jpg","initials":"EB","url":"/user/experts-by-david-bombal/"},{"_class":"user","title":"Hank Preston","name":"Hank","display_name":"Hank Preston","job_title":"NetDevOps Evangelist","image_50x50":"https://img-c.udemycdn.com/user/50x50/55487980_ec48.jpg","image_100x100":"https://img-c.udemycdn.com/user/100x100/55487980_ec48.jpg","initials":"HP","url":"/user/hank-preston/"}],"image_125_H":"https://img-c.udemycdn.com/course/125_H/1880132_9a2e.jpg","image_240x135":"https://img-c.udemycdn.com/course/240x135/1880132_9a2e.jpg","is_practice_test_course":false,"image_480x270":"https://img-c.udemycdn.com/course/480x270/1880132_9a2e.jpg","published_title":"net-devops-cisco-python-automation-netconf-sdn-docker","tracking_id":"","locale":{"_class":"locale","locale":"en_US","title":"English (US)","english_title":"English (US)","simple_english_title":"English"},"predictive_score":null,"relevancy_score":null,"input_features":null,"lecture_search_result":null,"curriculum_lectures":[],"order_in_results":null,"curriculum_items":[],"headline":"Learn Cisco Network DevOps: ACI, Ansible, Python, SDN, Kubernetes, Docker, Containers, NETCONF, includes free labs!","instructor_name":null},{"_class":"course","id":5666082,"title":"How to Add Steam Multiplayer in Unreal Engine 5","url":"/course/how-to-add-steam-multiplayer-in-unreal-engine-5/","is_paid":false,"price":"Free","price_detail":null,"price_serve_tracking_id":"7oFvXkmDS8KpcgMYUsk0Dw","visible_instructors":[{"_class":"user","title":"Pixel Helmet","name":"Pixel","display_name":"Pixel Helmet","job_title":"Game Developer & Publisher","image_50x50":"https://img-c.udemycdn.com/user/50x50/151310350_2473_2.jpg","image_100x100":"https://img-c.udemycdn.com/user/100x100/151310350_2473_2.jpg","initials":"PH","url":"/user/titanforged-entertainment/"}],"image_125_H":"https://img-c.udemycdn.com/course/125_H/5666082_3fba_7.jpg","image_240x135":"https://img-c.udemycdn.com/course/240x135/5666082_3fba_7.jpg","is_practice_test_course":false,"image_480x270":"https://img-c.udemycdn.com/course/480x270/5666082_3fba_7.jpg","published_title":"how-to-add-steam-multiplayer-in-unreal-engine-5","tracking_id":"","locale":{"_class":"locale","locale":"en_US","title":"English (US)","english_title":"English (US)","simple_english_title":"English"},"predictive_score":null,"relevancy_score":null,"input_features":null,"lecture_search_result":null,"curriculum_lectures":[],"order_in_results":null,"curriculum_items":[],"headline":"Learn how to add Steam Multiplayer to your Unreal Engine 5 game project. From scratch!","instructor_name":null},{"_class":"course","id":647330,"title":"Start speaking German with the Modal verbs","url":"/course/german_modal_verbs/","is_paid":false,"price":"Free","price_detail":null,"price_serve_tracking_id":"OjVWbEV_SzGzmKx_5jd6gQ","visible_instructors":[{"_class":"user","id":16912784,"title":"Sandra 11Percent","name":"Sandra","display_name":"Sandra 11Percent","job_title":"Making German fun since 2011","image_50x50":"https://img-c.udemycdn.com/user/50x50/16912784_49c6_3.jpg","image_100x100":"https://img-c.udemycdn.com/user/100x100/16912784_49c6_3.jpg","initials":"S1","url":"/user/eleven-percent/"}],"image_125_H":"https://img-c.udemycdn.com/course/125_H/647330_3d9b_11.jpg","image_240x135":"https://img-c.udemycdn.com/course/240x135/647330_3d9b_11.jpg","is_practice_test_course":false,"image_480x270":"https://img-c.udemycdn.com/course/480x270/647330_3d9b_11.jpg","published_title":"german_modal_verbs","tracking_id":"","locale":{"_class":"locale","locale":"en_US","title":"English (US)","english_title":"English (US)","simple_english_title":"English"},"predictive_score":null,"relevancy_score":null,"input_features":null,"lecture_search_result":null,"curriculum_lectures":[],"order_in_results":null,"curriculum_items":[],"headline":"The amazing story about the Modal Verbs and their adventures","instructor_name":null},{"_class":"course","id":2023700,"title":"Angular for Beginners Course (Angular 17)","url":"/course/angular-for-beginners-course/","is_paid":false,"price":"Free","price_detail":null,"price_serve_tracking_id":"bh4x_7tVScG2ieYREjz58g","visible_instructors":[{"_class":"user","title":"Angular University","name":"Angular","display_name":"Angular University","job_title":"Best Selling Angular Courses | 100k+ students | 16 courses","image_50x50":"https://img-c.udemycdn.com/user/50x50/13125810_51c9_3.jpg","image_100x100":"https://img-c.udemycdn.com/user/100x100/13125810_51c9_3.jpg","initials":"AU","url":"/user/vascocavalheiro/"}],"image_125_H":"https://img-c.udemycdn.com/course/125_H/2023700_3c26_2.jpg","image_240x135":"https://img-c.udemycdn.com/course/240x135/2023700_3c26_2.jpg","is_practice_test_course":false,"image_480x270":"https://img-c.udemycdn.com/course/480x270/2023700_3c26_2.jpg","published_title":"angular-for-beginners-course","tracking_id":"","locale":{"_class":"locale","locale":"en_US","title":"English (US)","english_title":"English (US)","simple_english_title":"English"},"predictive_score":null,"relevancy_score":null,"input_features":null,"lecture_search_result":null,"curriculum_lectures":[],"order_in_results":null,"curriculum_items":[],"headline":"Updated to Angular 17: A quick introduction to the Angular framework, focusing on its most commonly used parts","instructor_name":null},{"_class":"course","id":4858108,"title":"Introduction Quality Management & Quality Assurance","url":"/course/introduction-quality-management-quality-assurance/","is_paid":false,"price":"Free","price_detail":null,"price_serve_tracking_id":"muD8AxEIS-iDYopdULAxqQ","visible_instructors":[{"_class":"user","id":27870418,"title":"Six Sigma Academy Amsterdam","name":"Six Sigma","display_name":"Six Sigma Academy Amsterdam","job_title":"Accredited teaching and certification by academic staff","image_50x50":"https://img-c.udemycdn.com/user/50x50/27870418_4655_13.jpg","image_100x100":"https://img-c.udemycdn.com/user/100x100/27870418_4655_13.jpg","initials":"SA","url":"/user/six-sigma-academy-amsterdam/"}],"image_125_H":"https://img-c.udemycdn.com/course/125_H/4858108_b747_4.jpg","image_240x135":"https://img-c.udemycdn.com/course/240x135/4858108_b747_4.jpg","is_practice_test_course":false,"image_480x270":"https://img-c.udemycdn.com/course/480x270/4858108_b747_4.jpg","published_title":"introduction-quality-management-quality-assurance","tracking_id":"","locale":{"_class":"locale","locale":"en_US","title":"English (US)","english_title":"English (US)","simple_english_title":"English"},"predictive_score":null,"relevancy_score":null,"input_features":null,"lecture_search_result":null,"curriculum_lectures":[],"order_in_results":null,"curriculum_items":[],"headline":"Free Introduction Course: Quality Management & Quality Assurance for Quality Champions","instructor_name":null},{"_class":"course","id":1959822,"title":"Start a business in 5 days with Shopify and ProductListGenie","url":"/course/start-a-business-in-5-days-with-shopify-and-productlistgenie/","is_paid":false,"price":"Free","price_detail":null,"price_serve_tracking_id":"2T_NeX8CS8KHsYL4Bc5BQQ","visible_instructors":[{"_class":"user","id":27743306,"title":"Tim Sharp","name":"Tim","display_name":"Tim Sharp","job_title":"A highly successful ecommerce entrepreneur since 2004","image_50x50":"https://img-c.udemycdn.com/user/50x50/27743306_28b4_3.jpg","image_100x100":"https://img-c.udemycdn.com/user/100x100/27743306_28b4_3.jpg","initials":"TS","url":"/user/tim-sharp-5/"}],"image_125_H":"https://img-c.udemycdn.com/course/125_H/1959822_2848_3.jpg","image_240x135":"https://img-c.udemycdn.com/course/240x135/1959822_2848_3.jpg","is_practice_test_course":false,"image_480x270":"https://img-c.udemycdn.com/course/480x270/1959822_2848_3.jpg","published_title":"start-a-business-in-5-days-with-shopify-and-productlistgenie","tracking_id":"","locale":{"_class":"locale","locale":"en_US","title":"English (US)","english_title":"English (US)","simple_english_title":"English"},"predictive_score":null,"relevancy_score":null,"input_features":null,"lecture_search_result":null,"curriculum_lectures":[],"order_in_results":null,"curriculum_items":[],"headline":"Take 'The Challenge' and learn how to start an exciting ecommerce business with Shopify and Product List Genie in 5 days","instructor_name":null},{"_class":"course","id":574878,"title":"Web Developer Course HTML CSS JavaScript Learn Web Design","url":"/course/web-developer-course-on-creating-a-business-website/","is_paid":false,"price":"Free","price_detail":null,"price_serve_tracking_id":"Z6pQdI6WSYOxC-o6hmWv9w","visible_instructors":[{"_class":"user","id":5581552,"title":"Laurence Svekis","name":"Laurence","display_name":"Laurence Svekis","job_title":"Instructor, GDE, Application Developer","image_50x50":"https://img-c.udemycdn.com/user/50x50/5581552_b409_26.jpg","image_100x100":"https://img-c.udemycdn.com/user/100x100/5581552_b409_26.jpg","initials":"LS","url":"/user/lars51/"}],"image_125_H":"https://img-c.udemycdn.com/course/125_H/574878_24d0_2.jpg","image_240x135":"https://img-c.udemycdn.com/course/240x135/574878_24d0_2.jpg","is_practice_test_course":false,"image_480x270":"https://img-c.udemycdn.com/course/480x270/574878_24d0_2.jpg","published_title":"web-developer-course-on-creating-a-business-website","tracking_id":"","locale":{"_class":"locale","locale":"en_US","title":"English (US)","english_title":"English (US)","simple_english_title":"English"},"predictive_score":null,"relevancy_score":null,"input_features":null,"lecture_search_result":null,"curriculum_lectures":[],"order_in_results":null,"curriculum_items":[],"headline":"Guide to setting up a website learn about setting up a web business HTML CSS and JavaScript create your own website","instructor_name":null},{"_class":"course","id":5420258,"title":"Unreal Engine For Beginners","url":"/course/unreal-engine-for-beginners-v/","is_paid":false,"price":"Free","price_detail":null,"price_serve_tracking_id":"AisD64VtQ8eyLbepnc5Rog","visible_instructors":[{"_class":"user","title":"Unreal University","name":"Unreal","display_name":"Unreal University","job_title":"Game Developer","image_50x50":"https://img-c.udemycdn.com/user/50x50/132565742_fd7f_4.jpg","image_100x100":"https://img-c.udemycdn.com/user/100x100/132565742_fd7f_4.jpg","initials":"UU","url":"/user/joshua-3820/"}],"image_125_H":"https://img-c.udemycdn.com/course/125_H/5420258_4d7d_2.jpg","image_240x135":"https://img-c.udemycdn.com/course/240x135/5420258_4d7d_2.jpg","is_practice_test_course":false,"image_480x270":"https://img-c.udemycdn.com/course/480x270/5420258_4d7d_2.jpg","published_title":"unreal-engine-for-beginners-v","tracking_id":"","locale":{"_class":"locale","locale":"en_US","title":"English (US)","english_title":"English (US)","simple_english_title":"English"},"predictive_score":null,"relevancy_score":null,"input_features":null,"lecture_search_result":null,"curriculum_lectures":[],"order_in_results":null,"curriculum_items":[],"headline":"Learn the Power of Unreal Engine: A Comprehensive Guide for Beginners","instructor_name":null}],"aggregations":[{"title":"Price","key":"price","options":[{"title":"Paid","count":10000,"key":"price","value":"price-paid"},{"title":"Free","count":10000,"key":"price","value":"price-free"}]},{"title":"Level","key":"instructional_level","options":[{"title":"All Levels","count":10000,"key":"instructional_level","value":"all"},{"title":"Beginner","count":10000,"key":"instructional_level","value":"beginner"},{"title":"Intermediate","count":10000,"key":"instructional_level","value":"intermediate"},{"title":"Expert","count":4963,"key":"instructional_level","value":"expert"}]},{"title":"Features","key":"features","options":[{"title":"Subtitles","count":10000,"key":"features","value":"has_closed_caption"},{"title":"Quizzes","count":10000,"key":"features","value":"has_simple_quiz"},{"title":"Coding Exercises","count":1479,"key":"features","value":"has_coding_exercises"},{"title":"Practice Tests","count":10000,"key":"features","value":"has_practice_test"}]},{"title":"Language","key":"language","options":[{"title":"English","count":10000,"key":"lang","value":"en"},{"title":"Português","count":10000,"key":"lang","value":"pt"},{"title":"Español","count":10000,"key":"lang","value":"es"},{"title":"Türkçe","count":9456,"key":"lang","value":"tr"},{"title":"日本語","count":8293,"key":"lang","value":"ja"},{"title":"Deutsch","count":6528,"key":"lang","value":"de"},{"title":"Français","count":6410,"key":"lang","value":"fr"},{"title":"العربية","count":6106,"key":"lang","value":"ar"},{"title":"Italiano","count":4015,"key":"lang","value":"it"},{"title":"中文","count":3502,"key":"lang","value":"zh"},{"title":"한국어","count":3072,"key":"lang","value":"ko"},{"title":"Русский","count":2510,"key":"lang","value":"ru"},{"title":"हिन्दी","count":2109,"key":"lang","value":"hi"},{"title":"Bahasa Indonesia","count":2007,"key":"lang","value":"id"},{"title":"Polski","count":1820,"key":"lang","value":"pl"},{"title":"Tiếng Việt","count":513,"key":"lang","value":"vi"},{"title":"اردو","count":511,"key":"lang","value":"ur"},{"title":"ไทย","count":387,"key":"lang","value":"th"},{"title":"Nederlands","count":379,"key":"lang","value":"nl"},{"title":"Română","count":367,"key":"lang","value":"ro"},{"title":"தமிழ்","count":298,"key":"lang","value":"ta"},{"title":"עברית","count":127,"key":"lang","value":"he"},{"title":"Українська","count":115,"key":"lang","value":"uk"},{"title":"বাংলা","count":104,"key":"lang","value":"bn"},{"title":"Azərbaycan","count":98,"key":"lang","value":"az"},{"title":"Ελληνικά","count":94,"key":"lang","value":"el"},{"title":"Magyar","count":81,"key":"lang","value":"hu"},{"title":"తెలుగు","count":59,"key":"lang","value":"te"},{"title":"मराठी","count":58,"key":"lang","value":"mr"},{"title":"മലയാളം","count":57,"key":"lang","value":"ml"},{"title":"فارسی","count":51,"key":"lang","value":"fa"},{"title":"Hrvatski","count":30,"key":"lang","value":"hr"},{"title":"မြန်မာ","count":25,"key":"lang","value":"my"},{"title":"Български","count":21,"key":"lang","value":"bg"},{"title":"Melayu","count":21,"key":"lang","value":"ms"},{"title":"Čeština","count":20,"key":"lang","value":"cs"},{"title":"Norsk bokmål","count":20,"key":"lang","value":"nb"},{"title":"Српски","count":20,"key":"lang","value":"sr"},{"title":"ქართული","count":19,"key":"lang","value":"ka"},{"title":"Tagalog","count":17,"key":"lang","value":"tl"},{"title":"ગુજરાતી","count":14,"key":"lang","value":"gu"},{"title":"Soomaali","count":14,"key":"lang","value":"so"},{"title":"Svenska","count":14,"key":"lang","value":"sv"},{"title":"Afrikaans","count":13,"key":"lang","value":"af"},{"title":"नेपाली","count":13,"key":"lang","value":"ne"},{"title":"Shqip","count":11,"key":"lang","value":"sq"},{"title":"Eesti","count":10,"key":"lang","value":"et"},{"title":"ಕನ್ನಡ","count":10,"key":"lang","value":"kn"},{"title":"Slovenčina","count":10,"key":"lang","value":"sk"},{"title":"Қазақ тілі","count":9,"key":"lang","value":"kk"},{"title":"Latviešu","count":9,"key":"lang","value":"lv"},{"title":"O‘zbek","count":9,"key":"lang","value":"uz"},{"title":"Dansk","count":8,"key":"lang","value":"da"},{"title":"Suomi","count":8,"key":"lang","value":"fi"},{"title":"Lietuvių","count":8,"key":"lang","value":"lt"},{"title":"Kurdish","count":7,"key":"lang","value":"ku"},{"title":"Gaeilge","count":6,"key":"lang","value":"ga"},{"title":"Kiswahili","count":5,"key":"lang","value":"sw"},{"title":"Català","count":4,"key":"lang","value":"ca"},{"title":"ਪੰਜਾਬੀ","count":4,"key":"lang","value":"pa"},{"title":"پښتو","count":4,"key":"lang","value":"ps"},{"title":"Slovenščina","count":4,"key":"lang","value":"sl"},{"title":"Haitian Creole","count":3,"key":"lang","value":"ht"},{"title":"Հայերեն","count":3,"key":"lang","value":"hy"},{"title":"ខ្មែរ","count":3,"key":"lang","value":"km"},{"title":"Монгол","count":3,"key":"lang","value":"mn"},{"title":"Runasimi","count":3,"key":"lang","value":"qu"},{"title":"Guarani","count":2,"key":"lang","value":"gn"},{"title":"Sanskrit","count":2,"key":"lang","value":"sa"},{"title":"Euskara","count":1,"key":"lang","value":"eu"},{"title":"Македонски","count":1,"key":"lang","value":"mk"},{"title":"Тоҷикӣ","count":1,"key":"lang","value":"tg"},{"title":"Xhosa","count":1,"key":"lang","value":"xh"},{"title":"IsiZulu","count":1,"key":"lang","value":"zu"}]},{"title":"Ratings","key":"ratings","options":[{"title":"4.5 & up","count":10000,"key":"ratings","value":"4.5"},{"title":"4.0 & up","count":10000,"key":"ratings","value":"4.0"},{"title":"3.5 & up","count":10000,"key":"ratings","value":"3.5"},{"title":"3.0 & up","count":10000,"key":"ratings","value":"3.0"}]},{"title":"Video Duration","key":"duration","options":[{"title":"0-1 Hour","count":10000,"key":"duration","value":"extraShort"},{"title":"1-3 Hours","count":10000,"key":"duration","value":"short"},{"title":"3-6 Hours","count":10000,"key":"duration","value":"medium"},{"title":"6-17 Hours","count":10000,"key":"duration","value":"long"},{"title":"17+ Hours","count":10000,"key":"duration","value":"extraLong"}]}]}